<?xml version="1.0" encoding="UTF-8" standalone="no"?>
<!DOCTYPE svg PUBLIC "-//W3C//DTD SVG 1.1//EN"
 "http://www.w3.org/Graphics/SVG/1.1/DTD/svg11.dtd">
<!-- Generated by graphviz version 2.30.0 (20130114.0323)
 -->
<!-- Title: com.WacomGSS.STU.NotSupportedException Pages: 1 -->
<svg width="188pt" height="152pt"
 viewBox="0.00 0.00 188.00 152.00" xmlns="http://www.w3.org/2000/svg" xmlns:xlink="http://www.w3.org/1999/xlink">
<g id="graph0" class="graph" transform="scale(1 1) rotate(0) translate(4 148)">
<title>com.WacomGSS.STU.NotSupportedException</title>
<!-- Node1 -->
<g id="node1" class="node"><title>Node1</title>
<polygon fill="#bfbfbf" stroke="black" points="1.5,-1 1.5,-31 178.5,-31 178.5,-1 1.5,-1"/>
<text text-anchor="start" x="9.5" y="-19" font-family="Helvetica,sans-Serif" font-size="10.00">com.WacomGSS.STU.NotSupported</text>
<text text-anchor="middle" x="90" y="-8" font-family="Helvetica,sans-Serif" font-size="10.00">Exception</text>
</g>
<!-- Node2 -->
<g id="node2" class="node"><title>Node2</title>
<g id="a_node2"><a xlink:href="classcom_1_1_wacom_g_s_s_1_1_s_t_u_1_1_s_t_u_exception.html" target="_top" xlink:title="Base class for STU&#45;specific exceptions.">
<polygon fill="none" stroke="black" points="0,-68.5 0,-87.5 180,-87.5 180,-68.5 0,-68.5"/>
<text text-anchor="middle" x="90" y="-75.5" font-family="Helvetica,sans-Serif" font-size="10.00">com.WacomGSS.STU.STUException</text>
</a>
</g>
</g>
<!-- Node2&#45;&gt;Node1 -->
<g id="edge1" class="edge"><title>Node2&#45;&gt;Node1</title>
<path fill="none" stroke="midnightblue" d="M90,-58.3707C90,-49.5849 90,-39.2721 90,-31.1408"/>
<polygon fill="midnightblue" stroke="midnightblue" points="86.5001,-58.4034 90,-68.4035 93.5001,-58.4035 86.5001,-58.4034"/>
</g>
<!-- Node3 -->
<g id="node3" class="node"><title>Node3</title>
<g id="a_node3"><a xlink:href="classcom_1_1_wacom_g_s_s_1_1_exception.html" target="_top" xlink:title="Base class for checked exceptions thrown by WacomGSS code.">
<polygon fill="none" stroke="black" points="20,-124.5 20,-143.5 160,-143.5 160,-124.5 20,-124.5"/>
<text text-anchor="middle" x="90" y="-131.5" font-family="Helvetica,sans-Serif" font-size="10.00">com.WacomGSS.Exception</text>
</a>
</g>
</g>
<!-- Node3&#45;&gt;Node2 -->
<g id="edge2" class="edge"><title>Node3&#45;&gt;Node2</title>
<path fill="none" stroke="midnightblue" d="M90,-113.805C90,-104.91 90,-94.7798 90,-87.7511"/>
<polygon fill="midnightblue" stroke="midnightblue" points="86.5001,-114.083 90,-124.083 93.5001,-114.083 86.5001,-114.083"/>
</g>
</g>
</svg>
