<?xml version="1.0" encoding="UTF-8" standalone="no"?>
<!DOCTYPE svg PUBLIC "-//W3C//DTD SVG 1.1//EN"
 "http://www.w3.org/Graphics/SVG/1.1/DTD/svg11.dtd">
<!-- Generated by graphviz version 2.30.0 (20130114.0323)
 -->
<!-- Title: java Pages: 1 -->
<svg width="166pt" height="76pt"
 viewBox="0.00 0.00 166.00 76.00" xmlns="http://www.w3.org/2000/svg" xmlns:xlink="http://www.w3.org/1999/xlink">
<g id="graph0" class="graph" transform="scale(1 1) rotate(0) translate(4 72)">
<title>java</title>
<g id="clust1" class="cluster"><title>clusterdir_93c6ba7fb77bae0709fae89c9c13b44a</title>
<g id="a_clust1"><a xlink:href="dir_93c6ba7fb77bae0709fae89c9c13b44a.html" target="_top">
<polygon fill="#eeeeff" stroke="black" points="8,-8 8,-60 150,-60 150,-8 8,-8"/>
</a>
</g>
</g>
<!-- dir_93c6ba7fb77bae0709fae89c9c13b44a -->
<g id="node1" class="node"><title>dir_93c6ba7fb77bae0709fae89c9c13b44a</title>
<text text-anchor="middle" x="115" y="-31.5" font-family="Helvetica,sans-Serif" font-size="10.00">java</text>
</g>
<!-- dir_8a22873406ddef3ffbbc0bacea2033ba -->
<g id="node2" class="node"><title>dir_8a22873406ddef3ffbbc0bacea2033ba</title>
<g id="a_node2"><a xlink:href="dir_8a22873406ddef3ffbbc0bacea2033ba.html" target="_top" xlink:title="com">
<polygon fill="white" stroke="red" points="70,-52 16,-52 16,-16 70,-16 70,-52"/>
<text text-anchor="middle" x="43" y="-31.5" font-family="Helvetica,sans-Serif" font-size="10.00">com</text>
</a>
</g>
</g>
</g>
</svg>
