<?xml version="1.0" encoding="UTF-8" standalone="no"?>
<!DOCTYPE svg PUBLIC "-//W3C//DTD SVG 1.1//EN"
 "http://www.w3.org/Graphics/SVG/1.1/DTD/svg11.dtd">
<!-- Generated by graphviz version 2.30.0 (20130114.0323)
 -->
<!-- Title: WacomGSS Pages: 1 -->
<svg width="200pt" height="111pt"
 viewBox="0.00 0.00 200.00 111.00" xmlns="http://www.w3.org/2000/svg" xmlns:xlink="http://www.w3.org/1999/xlink">
<g id="graph0" class="graph" transform="scale(1 1) rotate(0) translate(4 107)">
<title>WacomGSS</title>
<g id="clust1" class="cluster"><title>clusterdir_8a22873406ddef3ffbbc0bacea2033ba</title>
<g id="a_clust1"><a xlink:href="dir_8a22873406ddef3ffbbc0bacea2033ba.html" target="_top" xlink:title="com">
<polygon fill="#ddddee" stroke="black" points="8,-8 8,-95 184,-95 184,-8 8,-8"/>
<text text-anchor="middle" x="96" y="-83" font-family="Helvetica,sans-Serif" font-size="10.00">com</text>
</a>
</g>
</g>
<g id="clust2" class="cluster"><title>clusterdir_23114d59b176c9b7e558cb325d4ea0ca</title>
<g id="a_clust2"><a xlink:href="dir_23114d59b176c9b7e558cb325d4ea0ca.html" target="_top">
<polygon fill="#eeeeff" stroke="black" points="16,-16 16,-68 176,-68 176,-16 16,-16"/>
</a>
</g>
</g>
<!-- dir_23114d59b176c9b7e558cb325d4ea0ca -->
<g id="node1" class="node"><title>dir_23114d59b176c9b7e558cb325d4ea0ca</title>
<text text-anchor="middle" x="132" y="-39.5" font-family="Helvetica,sans-Serif" font-size="10.00">WacomGSS</text>
</g>
<!-- dir_d7a30ea488178c18c372d35be94be673 -->
<g id="node2" class="node"><title>dir_d7a30ea488178c18c372d35be94be673</title>
<g id="a_node2"><a xlink:href="dir_d7a30ea488178c18c372d35be94be673.html" target="_top" xlink:title="STU">
<polygon fill="white" stroke="red" points="78,-60 24,-60 24,-24 78,-24 78,-60"/>
<text text-anchor="middle" x="51" y="-39.5" font-family="Helvetica,sans-Serif" font-size="10.00">STU</text>
</a>
</g>
</g>
</g>
</svg>
