<?xml version="1.0" encoding="UTF-8" standalone="no"?>
<!DOCTYPE svg PUBLIC "-//W3C//DTD SVG 1.1//EN"
 "http://www.w3.org/Graphics/SVG/1.1/DTD/svg11.dtd">
<!-- Generated by graphviz version 2.30.0 (20130114.0323)
 -->
<!-- Title: WacomGSS/STU/Protocol.hpp Pages: 1 -->
<svg width="929pt" height="388pt"
 viewBox="0.00 0.00 929.00 388.00" xmlns="http://www.w3.org/2000/svg" xmlns:xlink="http://www.w3.org/1999/xlink">
<g id="graph0" class="graph" transform="scale(1 1) rotate(0) translate(4 384)">
<title>WacomGSS/STU/Protocol.hpp</title>
<!-- Node1 -->
<g id="node1" class="node"><title>Node1</title>
<polygon fill="#bfbfbf" stroke="black" points="721.5,-360.5 721.5,-379.5 872.5,-379.5 872.5,-360.5 721.5,-360.5"/>
<text text-anchor="middle" x="797" y="-367.5" font-family="Helvetica,sans-Serif" font-size="10.00">WacomGSS/STU/Protocol.hpp</text>
</g>
<!-- Node2 -->
<g id="node2" class="node"><title>Node2</title>
<g id="a_node2"><a xlink:href="_interface_8hpp.html" target="_top" xlink:title="Definition of the WacomGSS::STU::Interface class.">
<polygon fill="none" stroke="black" points="721,-304.5 721,-323.5 873,-323.5 873,-304.5 721,-304.5"/>
<text text-anchor="middle" x="797" y="-311.5" font-family="Helvetica,sans-Serif" font-size="10.00">WacomGSS/STU/Interface.hpp</text>
</a>
</g>
</g>
<!-- Node1&#45;&gt;Node2 -->
<g id="edge1" class="edge"><title>Node1&#45;&gt;Node2</title>
<path fill="none" stroke="midnightblue" d="M797,-360.083C797,-353.006 797,-342.861 797,-333.986"/>
<polygon fill="midnightblue" stroke="midnightblue" points="800.5,-333.751 797,-323.751 793.5,-333.751 800.5,-333.751"/>
</g>
<!-- Node3 -->
<g id="node3" class="node"><title>Node3</title>
<g id="a_node3"><a xlink:href="_interface_queue_8hpp.html" target="_top" xlink:title="Provides access to data that the tablet sends.">
<polygon fill="none" stroke="black" points="508,-248.5 508,-267.5 688,-267.5 688,-248.5 508,-248.5"/>
<text text-anchor="middle" x="598" y="-255.5" font-family="Helvetica,sans-Serif" font-size="10.00">WacomGSS/STU/InterfaceQueue.hpp</text>
</a>
</g>
</g>
<!-- Node2&#45;&gt;Node3 -->
<g id="edge2" class="edge"><title>Node2&#45;&gt;Node3</title>
<path fill="none" stroke="midnightblue" d="M765.468,-304.444C731.408,-295.201 676.994,-280.436 639.485,-270.257"/>
<polygon fill="midnightblue" stroke="midnightblue" points="639.952,-266.758 629.385,-267.516 638.119,-273.513 639.952,-266.758"/>
</g>
<!-- Node16 -->
<g id="node16" class="node"><title>Node16</title>
<g id="a_node16"><a xlink:href="_error_8hpp.html" target="_top" xlink:title="Basis of STU&#45;specific errors.">
<polygon fill="none" stroke="black" points="729,-248.5 729,-267.5 865,-267.5 865,-248.5 729,-248.5"/>
<text text-anchor="middle" x="797" y="-255.5" font-family="Helvetica,sans-Serif" font-size="10.00">WacomGSS/STU/Error.hpp</text>
</a>
</g>
</g>
<!-- Node2&#45;&gt;Node16 -->
<g id="edge19" class="edge"><title>Node2&#45;&gt;Node16</title>
<path fill="none" stroke="midnightblue" d="M797,-304.083C797,-297.006 797,-286.861 797,-277.986"/>
<polygon fill="midnightblue" stroke="midnightblue" points="800.5,-277.751 797,-267.751 793.5,-277.751 800.5,-277.751"/>
</g>
<!-- Node18 -->
<g id="node18" class="node"><title>Node18</title>
<polygon fill="none" stroke="#bfbfbf" points="883,-248.5 883,-267.5 921,-267.5 921,-248.5 883,-248.5"/>
<text text-anchor="middle" x="902" y="-255.5" font-family="Helvetica,sans-Serif" font-size="10.00">array</text>
</g>
<!-- Node2&#45;&gt;Node18 -->
<g id="edge22" class="edge"><title>Node2&#45;&gt;Node18</title>
<path fill="none" stroke="midnightblue" d="M813.87,-304.324C830.709,-295.664 856.807,-282.242 876.238,-272.249"/>
<polygon fill="midnightblue" stroke="midnightblue" points="877.88,-275.341 885.172,-267.655 874.678,-269.116 877.88,-275.341"/>
</g>
<!-- Node4 -->
<g id="node4" class="node"><title>Node4</title>
<g id="a_node4"><a xlink:href="_interface_impl_8hpp.html" target="_top" xlink:title="Internal implementation of the Interface class.">
<polygon fill="none" stroke="black" points="501,-192.5 501,-211.5 671,-211.5 671,-192.5 501,-192.5"/>
<text text-anchor="middle" x="586" y="-199.5" font-family="Helvetica,sans-Serif" font-size="10.00">WacomGSS/STU/InterfaceImpl.hpp</text>
</a>
</g>
</g>
<!-- Node3&#45;&gt;Node4 -->
<g id="edge3" class="edge"><title>Node3&#45;&gt;Node4</title>
<path fill="none" stroke="midnightblue" d="M596.018,-248.083C594.428,-240.927 592.141,-230.635 590.154,-221.691"/>
<polygon fill="midnightblue" stroke="midnightblue" points="593.531,-220.754 587.945,-211.751 586.697,-222.272 593.531,-220.754"/>
</g>
<!-- Node5 -->
<g id="node5" class="node"><title>Node5</title>
<g id="a_node5"><a xlink:href="concurrent__queue__with__exception_8hpp.html" target="_top" xlink:title="template class that provides thread&#45;safe producer/consumer pattern.">
<polygon fill="none" stroke="black" points="215.5,-125 215.5,-155 352.5,-155 352.5,-125 215.5,-125"/>
<text text-anchor="start" x="223.5" y="-143" font-family="Helvetica,sans-Serif" font-size="10.00">WacomGSS/concurrent</text>
<text text-anchor="middle" x="284" y="-132" font-family="Helvetica,sans-Serif" font-size="10.00">_queue_with_exception.hpp</text>
</a>
</g>
</g>
<!-- Node4&#45;&gt;Node5 -->
<g id="edge4" class="edge"><title>Node4&#45;&gt;Node5</title>
<path fill="none" stroke="midnightblue" d="M543.051,-192.467C496.274,-183.174 420.444,-168.108 362.884,-156.672"/>
<polygon fill="midnightblue" stroke="midnightblue" points="363.215,-153.17 352.724,-154.654 361.851,-160.035 363.215,-153.17"/>
</g>
<!-- Node10 -->
<g id="node10" class="node"><title>Node10</title>
<g id="a_node10"><a xlink:href="noncopyable_8hpp.html" target="_top" xlink:title="implements the noncopyable pattern">
<polygon fill="none" stroke="black" points="441,-62.5 441,-81.5 589,-81.5 589,-62.5 441,-62.5"/>
<text text-anchor="middle" x="515" y="-69.5" font-family="Helvetica,sans-Serif" font-size="10.00">WacomGSS/noncopyable.hpp</text>
</a>
</g>
</g>
<!-- Node4&#45;&gt;Node10 -->
<g id="edge11" class="edge"><title>Node4&#45;&gt;Node10</title>
<path fill="none" stroke="midnightblue" d="M555.753,-192.488C537.875,-185.726 516.7,-174.295 506,-156 494.371,-136.117 500.649,-108.935 507.082,-91.1778"/>
<polygon fill="midnightblue" stroke="midnightblue" points="510.403,-92.2989 510.851,-81.7136 503.899,-89.7089 510.403,-92.2989"/>
</g>
<!-- Node11 -->
<g id="node11" class="node"><title>Node11</title>
<g id="a_node11"><a xlink:href="atomic_8hpp.html" target="_top" xlink:title="maps class thread from std or boost">
<polygon fill="none" stroke="black" points="607.5,-57 607.5,-87 736.5,-87 736.5,-57 607.5,-57"/>
<text text-anchor="start" x="615.5" y="-75" font-family="Helvetica,sans-Serif" font-size="10.00">WacomGSS/compatibility</text>
<text text-anchor="middle" x="672" y="-64" font-family="Helvetica,sans-Serif" font-size="10.00">/atomic.hpp</text>
</a>
</g>
</g>
<!-- Node4&#45;&gt;Node11 -->
<g id="edge13" class="edge"><title>Node4&#45;&gt;Node11</title>
<path fill="none" stroke="midnightblue" d="M571.922,-192.259C560.647,-184.355 545.654,-171.584 539,-156 533.415,-142.92 530.942,-135.719 539,-124 547.565,-111.542 578.287,-99.3507 608.048,-90.0129"/>
<polygon fill="midnightblue" stroke="midnightblue" points="609.104,-93.3502 617.647,-87.0847 607.061,-86.6547 609.104,-93.3502"/>
</g>
<!-- Node12 -->
<g id="node12" class="node"><title>Node12</title>
<polygon fill="none" stroke="#bfbfbf" points="548,-130.5 548,-149.5 600,-149.5 600,-130.5 548,-130.5"/>
<text text-anchor="middle" x="574" y="-137.5" font-family="Helvetica,sans-Serif" font-size="10.00">memory</text>
</g>
<!-- Node4&#45;&gt;Node12 -->
<g id="edge15" class="edge"><title>Node4&#45;&gt;Node12</title>
<path fill="none" stroke="midnightblue" d="M584.281,-192.403C582.57,-183.849 579.89,-170.45 577.695,-159.476"/>
<polygon fill="midnightblue" stroke="midnightblue" points="581.109,-158.7 575.716,-149.581 574.245,-160.073 581.109,-158.7"/>
</g>
<!-- Node13 -->
<g id="node13" class="node"><title>Node13</title>
<polygon fill="none" stroke="#bfbfbf" points="618,-130.5 618,-149.5 660,-149.5 660,-130.5 618,-130.5"/>
<text text-anchor="middle" x="639" y="-137.5" font-family="Helvetica,sans-Serif" font-size="10.00">vector</text>
</g>
<!-- Node4&#45;&gt;Node13 -->
<g id="edge16" class="edge"><title>Node4&#45;&gt;Node13</title>
<path fill="none" stroke="midnightblue" d="M593.594,-192.403C601.701,-183.225 614.735,-168.47 624.763,-157.117"/>
<polygon fill="midnightblue" stroke="midnightblue" points="627.423,-159.392 631.42,-149.581 622.177,-154.758 627.423,-159.392"/>
</g>
<!-- Node14 -->
<g id="node14" class="node"><title>Node14</title>
<polygon fill="none" stroke="#bfbfbf" points="678.5,-130.5 678.5,-149.5 721.5,-149.5 721.5,-130.5 678.5,-130.5"/>
<text text-anchor="middle" x="700" y="-137.5" font-family="Helvetica,sans-Serif" font-size="10.00">deque</text>
</g>
<!-- Node4&#45;&gt;Node14 -->
<g id="edge17" class="edge"><title>Node4&#45;&gt;Node14</title>
<path fill="none" stroke="midnightblue" d="M602.333,-192.403C621.211,-182.468 652.507,-165.997 674.576,-154.381"/>
<polygon fill="midnightblue" stroke="midnightblue" points="676.478,-157.335 683.697,-149.581 673.218,-151.141 676.478,-157.335"/>
</g>
<!-- Node15 -->
<g id="node15" class="node"><title>Node15</title>
<polygon fill="none" stroke="#bfbfbf" points="739.5,-130.5 739.5,-149.5 768.5,-149.5 768.5,-130.5 739.5,-130.5"/>
<text text-anchor="middle" x="754" y="-137.5" font-family="Helvetica,sans-Serif" font-size="10.00">list</text>
</g>
<!-- Node4&#45;&gt;Node15 -->
<g id="edge18" class="edge"><title>Node4&#45;&gt;Node15</title>
<path fill="none" stroke="midnightblue" d="M622.155,-192.45C651.863,-184.782 694.657,-172.241 730,-156 730.982,-155.549 731.973,-155.064 732.963,-154.555"/>
<polygon fill="midnightblue" stroke="midnightblue" points="734.711,-157.588 741.634,-149.569 731.221,-151.52 734.711,-157.588"/>
</g>
<!-- Node6 -->
<g id="node6" class="node"><title>Node6</title>
<g id="a_node6"><a xlink:href="condition__variable_8hpp.html" target="_top" xlink:title="maps class condition_variable from std or boost">
<polygon fill="none" stroke="black" points="-0.5,-57 -0.5,-87 128.5,-87 128.5,-57 -0.5,-57"/>
<text text-anchor="start" x="7.5" y="-75" font-family="Helvetica,sans-Serif" font-size="10.00">WacomGSS/compatibility</text>
<text text-anchor="middle" x="64" y="-64" font-family="Helvetica,sans-Serif" font-size="10.00">/condition_variable.hpp</text>
</a>
</g>
</g>
<!-- Node5&#45;&gt;Node6 -->
<g id="edge5" class="edge"><title>Node5&#45;&gt;Node6</title>
<path fill="none" stroke="midnightblue" d="M237.074,-124.922C203.046,-114.714 156.855,-100.857 120.751,-90.0253"/>
<polygon fill="midnightblue" stroke="midnightblue" points="121.438,-86.5772 110.854,-87.0561 119.426,-93.282 121.438,-86.5772"/>
</g>
<!-- Node8 -->
<g id="node8" class="node"><title>Node8</title>
<g id="a_node8"><a xlink:href="mutex_8hpp.html" target="_top" xlink:title="maps class mutex from std or boost">
<polygon fill="none" stroke="black" points="146.5,-57 146.5,-87 275.5,-87 275.5,-57 146.5,-57"/>
<text text-anchor="start" x="154.5" y="-75" font-family="Helvetica,sans-Serif" font-size="10.00">WacomGSS/compatibility</text>
<text text-anchor="middle" x="211" y="-64" font-family="Helvetica,sans-Serif" font-size="10.00">/mutex.hpp</text>
</a>
</g>
</g>
<!-- Node5&#45;&gt;Node8 -->
<g id="edge7" class="edge"><title>Node5&#45;&gt;Node8</title>
<path fill="none" stroke="midnightblue" d="M268.16,-124.679C258.24,-115.71 245.283,-103.996 234.214,-93.988"/>
<polygon fill="midnightblue" stroke="midnightblue" points="236.323,-91.1766 226.558,-87.0663 231.629,-96.3691 236.323,-91.1766"/>
</g>
<!-- Node9 -->
<g id="node9" class="node"><title>Node9</title>
<g id="a_node9"><a xlink:href="chrono_8hpp.html" target="_top" xlink:title="maps chrono from std or boost">
<polygon fill="none" stroke="black" points="293.5,-57 293.5,-87 422.5,-87 422.5,-57 293.5,-57"/>
<text text-anchor="start" x="301.5" y="-75" font-family="Helvetica,sans-Serif" font-size="10.00">WacomGSS/compatibility</text>
<text text-anchor="middle" x="358" y="-64" font-family="Helvetica,sans-Serif" font-size="10.00">/chrono.hpp</text>
</a>
</g>
</g>
<!-- Node5&#45;&gt;Node9 -->
<g id="edge9" class="edge"><title>Node5&#45;&gt;Node9</title>
<path fill="none" stroke="midnightblue" d="M300.057,-124.679C310.113,-115.71 323.247,-103.996 334.468,-93.988"/>
<polygon fill="midnightblue" stroke="midnightblue" points="337.095,-96.3346 342.229,-87.0663 332.436,-91.1105 337.095,-96.3346"/>
</g>
<!-- Node7 -->
<g id="node7" class="node"><title>Node7</title>
<g id="a_node7"><a xlink:href="config_8hpp.html" target="_top" xlink:title="meta configuration about the compliation platform and compiler">
<polygon fill="none" stroke="black" points="376.5,-0.5 376.5,-19.5 495.5,-19.5 495.5,-0.5 376.5,-0.5"/>
<text text-anchor="middle" x="436" y="-7.5" font-family="Helvetica,sans-Serif" font-size="10.00">WacomGSS/config.hpp</text>
</a>
</g>
</g>
<!-- Node6&#45;&gt;Node7 -->
<g id="edge6" class="edge"><title>Node6&#45;&gt;Node7</title>
<path fill="none" stroke="midnightblue" d="M128.844,-57.489C131.597,-56.9745 134.325,-56.4758 137,-56 215.171,-42.0965 305.343,-28.9139 366.049,-20.4535"/>
<polygon fill="midnightblue" stroke="midnightblue" points="366.857,-23.875 376.281,-19.0334 365.894,-16.9415 366.857,-23.875"/>
</g>
<!-- Node8&#45;&gt;Node7 -->
<g id="edge8" class="edge"><title>Node8&#45;&gt;Node7</title>
<path fill="none" stroke="midnightblue" d="M263.753,-56.9327C303.526,-46.3264 357.335,-31.9772 394.165,-22.1559"/>
<polygon fill="midnightblue" stroke="midnightblue" points="395.317,-25.4712 404.077,-19.5127 393.513,-18.7076 395.317,-25.4712"/>
</g>
<!-- Node9&#45;&gt;Node7 -->
<g id="edge10" class="edge"><title>Node9&#45;&gt;Node7</title>
<path fill="none" stroke="midnightblue" d="M376.485,-56.7808C388.52,-47.5228 404.2,-35.4618 416.443,-26.0435"/>
<polygon fill="midnightblue" stroke="midnightblue" points="418.858,-28.6019 424.65,-19.7305 414.59,-23.0535 418.858,-28.6019"/>
</g>
<!-- Node10&#45;&gt;Node7 -->
<g id="edge12" class="edge"><title>Node10&#45;&gt;Node7</title>
<path fill="none" stroke="midnightblue" d="M503.681,-62.4035C491.127,-52.8688 470.649,-37.3154 455.501,-25.8106"/>
<polygon fill="midnightblue" stroke="midnightblue" points="457.378,-22.8417 447.298,-19.5806 453.144,-28.4162 457.378,-22.8417"/>
</g>
<!-- Node11&#45;&gt;Node7 -->
<g id="edge14" class="edge"><title>Node11&#45;&gt;Node7</title>
<path fill="none" stroke="midnightblue" d="M616.668,-56.9327C574.772,-46.2811 518.028,-31.8545 479.385,-22.0302"/>
<polygon fill="midnightblue" stroke="midnightblue" points="480.037,-18.5847 469.483,-19.5127 478.313,-25.3688 480.037,-18.5847"/>
</g>
<!-- Node16&#45;&gt;Node7 -->
<g id="edge20" class="edge"><title>Node16&#45;&gt;Node7</title>
<path fill="none" stroke="midnightblue" d="M798.076,-248.121C801.45,-215.647 808.13,-102.786 745,-56 708.215,-28.7382 585.443,-17.8608 506.173,-13.6151"/>
<polygon fill="midnightblue" stroke="midnightblue" points="505.936,-10.0985 495.77,-13.0824 505.578,-17.0893 505.936,-10.0985"/>
</g>
<!-- Node17 -->
<g id="node17" class="node"><title>Node17</title>
<polygon fill="none" stroke="#bfbfbf" points="825.5,-192.5 825.5,-211.5 884.5,-211.5 884.5,-192.5 825.5,-192.5"/>
<text text-anchor="middle" x="855" y="-199.5" font-family="Helvetica,sans-Serif" font-size="10.00">stdexcept</text>
</g>
<!-- Node16&#45;&gt;Node17 -->
<g id="edge21" class="edge"><title>Node16&#45;&gt;Node17</title>
<path fill="none" stroke="midnightblue" d="M806.319,-248.324C814.893,-240.341 827.812,-228.313 838.188,-218.653"/>
<polygon fill="midnightblue" stroke="midnightblue" points="840.578,-221.21 845.512,-211.834 835.808,-216.086 840.578,-221.21"/>
</g>
</g>
</svg>
