<?xml version="1.0" encoding="UTF-8" standalone="no"?>
<!DOCTYPE svg PUBLIC "-//W3C//DTD SVG 1.1//EN"
 "http://www.w3.org/Graphics/SVG/1.1/DTD/svg11.dtd">
<!-- Generated by graphviz version 2.30.0 (20130114.0323)
 -->
<!-- Title: WacomGSS/STU/Tablet_OpenSSL.hpp Pages: 1 -->
<!--zoomable 568 -->
<svg id="main" version="1.1" xmlns="http://www.w3.org/2000/svg" xmlns:xlink="http://www.w3.org/1999/xlink" xml:space="preserve" onload="init(evt)">
        <defs>
                <circle id="rim" cx="0" cy="0" r="7"/>
                <circle id="rim2" cx="0" cy="0" r="3.5"/>
                <g id="zoomPlus">
                        <use xlink:href="#rim" fill="#404040">
                                <set attributeName="fill" to="#808080" begin="zoomplus.mouseover" end="zoomplus.mouseout"/>
                        </use>
                        <path d="M-4,0h8M0,-4v8" fill="none" stroke="white" stroke-width="1.5" pointer-events="none"/>
                </g>
                <g id="zoomMin">
                        <use xlink:href="#rim" fill="#404040">
                                <set attributeName="fill" to="#808080" begin="zoomminus.mouseover" end="zoomminus.mouseout"/>
                        </use>
                        <path d="M-4,0h8" fill="none" stroke="white" stroke-width="1.5" pointer-events="none"/>
                </g>
                <g id="dirArrow">
                        <path fill="none" stroke="white" stroke-width="1.5" d="M0,-3.0v7 M-2.5,-0.5L0,-3.0L2.5,-0.5"/>
                </g>
               <g id="resetDef">
                       <use xlink:href="#rim2" fill="#404040">
                               <set attributeName="fill" to="#808080" begin="reset.mouseover" end="reset.mouseout"/>
                       </use>
               </g>
        </defs>

<script type="text/javascript">
var viewWidth = 865;
var viewHeight = 568;
var sectionId = 'dynsection-0';
</script>
<script xlink:href="svgpan.js"/>
<svg id="graph" class="graph">
<g id="viewport">
<title>WacomGSS/STU/Tablet_OpenSSL.hpp</title>
<!-- Node1 -->
<g id="node1" class="node"><title>Node1</title>
<polygon fill="#bfbfbf" stroke="black" points="402.937,-529 402.937,-559 524.937,-559 524.937,-529 402.937,-529"/>
<text text-anchor="start" x="410.937" y="-547" font-family="Helvetica,sans-Serif" font-size="10.00">WacomGSS/STU/Tablet</text>
<text text-anchor="middle" x="463.937" y="-536" font-family="Helvetica,sans-Serif" font-size="10.00">_OpenSSL.hpp</text>
</g>
<!-- Node2 -->
<g id="node2" class="node"><title>Node2</title>
<g id="a_node2"><a xlink:href="_tablet_8hpp.html" target="_top" xlink:title="A higher level interface to provide simplified access.">
<polygon fill="none" stroke="black" points="327.437,-472.5 327.437,-491.5 468.437,-491.5 468.437,-472.5 327.437,-472.5"/>
<text text-anchor="middle" x="397.937" y="-479.5" font-family="Helvetica,sans-Serif" font-size="10.00">WacomGSS/STU/Tablet.hpp</text>
</a>
</g>
</g>
<!-- Node1&#45;&gt;Node2 -->
<g id="edge1" class="edge"><title>Node1&#45;&gt;Node2</title>
<path fill="none" stroke="midnightblue" d="M448.296,-528.781C438.31,-519.703 425.359,-507.929 415.091,-498.595"/>
<polygon fill="midnightblue" stroke="midnightblue" points="417.294,-495.867 407.54,-491.731 412.585,-501.047 417.294,-495.867"/>
</g>
<!-- Node22 -->
<g id="node22" class="node"><title>Node22</title>
<g id="a_node22"><a xlink:href="_open_s_s_l_8hpp.html" target="_top" xlink:title="provides a thin layer of objects from the OpenSSL library to provide basic exception safety...">
<polygon fill="none" stroke="black" points="473.437,-248.5 473.437,-267.5 608.437,-267.5 608.437,-248.5 473.437,-248.5"/>
<text text-anchor="middle" x="540.937" y="-255.5" font-family="Helvetica,sans-Serif" font-size="10.00">WacomGSS/OpenSSL.hpp</text>
</a>
</g>
</g>
<!-- Node1&#45;&gt;Node22 -->
<g id="edge26" class="edge"><title>Node1&#45;&gt;Node22</title>
<path fill="none" stroke="midnightblue" d="M478.584,-528.742C498.028,-508.214 529.937,-468.243 529.937,-427 529.937,-427 529.937,-427 529.937,-369 529.937,-336.788 534.665,-299.532 537.921,-277.692"/>
<polygon fill="midnightblue" stroke="midnightblue" points="541.424,-277.947 539.499,-267.529 534.506,-276.874 541.424,-277.947"/>
</g>
<!-- Node3 -->
<g id="node3" class="node"><title>Node3</title>
<g id="a_node3"><a xlink:href="_protocol_helper_8hpp.html" target="_top" xlink:title="Provides higher level assistance to using the STU tablet protocol.">
<polygon fill="none" stroke="black" points="275.437,-416.5 275.437,-435.5 454.437,-435.5 454.437,-416.5 275.437,-416.5"/>
<text text-anchor="middle" x="364.937" y="-423.5" font-family="Helvetica,sans-Serif" font-size="10.00">WacomGSS/STU/ProtocolHelper.hpp</text>
</a>
</g>
</g>
<!-- Node2&#45;&gt;Node3 -->
<g id="edge2" class="edge"><title>Node2&#45;&gt;Node3</title>
<path fill="none" stroke="midnightblue" d="M392.488,-472.083C387.922,-464.613 381.268,-453.724 375.643,-444.52"/>
<polygon fill="midnightblue" stroke="midnightblue" points="378.486,-442.459 370.285,-435.751 372.513,-446.109 378.486,-442.459"/>
</g>
<!-- Node4 -->
<g id="node4" class="node"><title>Node4</title>
<g id="a_node4"><a xlink:href="_protocol_8hpp.html" target="_top" xlink:title="Definition of the WacomGSS::STU::Protocol class.">
<polygon fill="none" stroke="black" points="195.437,-360.5 195.437,-379.5 346.437,-379.5 346.437,-360.5 195.437,-360.5"/>
<text text-anchor="middle" x="270.937" y="-367.5" font-family="Helvetica,sans-Serif" font-size="10.00">WacomGSS/STU/Protocol.hpp</text>
</a>
</g>
</g>
<!-- Node3&#45;&gt;Node4 -->
<g id="edge3" class="edge"><title>Node3&#45;&gt;Node4</title>
<path fill="none" stroke="midnightblue" d="M349.834,-416.324C335.033,-407.822 312.243,-394.729 294.955,-384.797"/>
<polygon fill="midnightblue" stroke="midnightblue" points="296.417,-381.601 286.002,-379.655 292.93,-387.671 296.417,-381.601"/>
</g>
<!-- Node5 -->
<g id="node5" class="node"><title>Node5</title>
<g id="a_node5"><a xlink:href="_interface_8hpp.html" target="_top" xlink:title="Definition of the WacomGSS::STU::Interface class.">
<polygon fill="none" stroke="black" points="171.937,-304.5 171.937,-323.5 323.937,-323.5 323.937,-304.5 171.937,-304.5"/>
<text text-anchor="middle" x="247.937" y="-311.5" font-family="Helvetica,sans-Serif" font-size="10.00">WacomGSS/STU/Interface.hpp</text>
</a>
</g>
</g>
<!-- Node4&#45;&gt;Node5 -->
<g id="edge4" class="edge"><title>Node4&#45;&gt;Node5</title>
<path fill="none" stroke="midnightblue" d="M267.139,-360.083C264.024,-352.77 259.514,-342.181 255.647,-333.103"/>
<polygon fill="midnightblue" stroke="midnightblue" points="258.803,-331.58 251.664,-323.751 252.363,-334.323 258.803,-331.58"/>
</g>
<!-- Node6 -->
<g id="node6" class="node"><title>Node6</title>
<g id="a_node6"><a xlink:href="_interface_queue_8hpp.html" target="_top" xlink:title="Provides access to data that the tablet sends.">
<polygon fill="none" stroke="black" points="272.937,-248.5 272.937,-267.5 452.937,-267.5 452.937,-248.5 272.937,-248.5"/>
<text text-anchor="middle" x="362.937" y="-255.5" font-family="Helvetica,sans-Serif" font-size="10.00">WacomGSS/STU/InterfaceQueue.hpp</text>
</a>
</g>
</g>
<!-- Node5&#45;&gt;Node6 -->
<g id="edge5" class="edge"><title>Node5&#45;&gt;Node6</title>
<path fill="none" stroke="midnightblue" d="M266.159,-304.444C284.832,-295.675 314.093,-281.935 335.554,-271.858"/>
<polygon fill="midnightblue" stroke="midnightblue" points="337.236,-274.935 344.8,-267.516 334.261,-268.599 337.236,-274.935"/>
</g>
<!-- Node19 -->
<g id="node19" class="node"><title>Node19</title>
<g id="a_node19"><a xlink:href="_error_8hpp.html" target="_top" xlink:title="Basis of STU&#45;specific errors.">
<polygon fill="none" stroke="black" points="39.9368,-248.5 39.9368,-267.5 175.937,-267.5 175.937,-248.5 39.9368,-248.5"/>
<text text-anchor="middle" x="107.937" y="-255.5" font-family="Helvetica,sans-Serif" font-size="10.00">WacomGSS/STU/Error.hpp</text>
</a>
</g>
</g>
<!-- Node5&#45;&gt;Node19 -->
<g id="edge22" class="edge"><title>Node5&#45;&gt;Node19</title>
<path fill="none" stroke="midnightblue" d="M225.753,-304.444C202.508,-295.478 165.788,-281.314 139.522,-271.183"/>
<polygon fill="midnightblue" stroke="midnightblue" points="140.606,-267.85 130.016,-267.516 138.087,-274.381 140.606,-267.85"/>
</g>
<!-- Node21 -->
<g id="node21" class="node"><title>Node21</title>
<polygon fill="none" stroke="#bfbfbf" points="216.937,-248.5 216.937,-267.5 254.937,-267.5 254.937,-248.5 216.937,-248.5"/>
<text text-anchor="middle" x="235.937" y="-255.5" font-family="Helvetica,sans-Serif" font-size="10.00">array</text>
</g>
<!-- Node5&#45;&gt;Node21 -->
<g id="edge25" class="edge"><title>Node5&#45;&gt;Node21</title>
<path fill="none" stroke="midnightblue" d="M245.955,-304.083C244.365,-296.927 242.078,-286.635 240.09,-277.691"/>
<polygon fill="midnightblue" stroke="midnightblue" points="243.468,-276.754 237.881,-267.751 236.634,-278.272 243.468,-276.754"/>
</g>
<!-- Node7 -->
<g id="node7" class="node"><title>Node7</title>
<g id="a_node7"><a xlink:href="_interface_impl_8hpp.html" target="_top" xlink:title="Internal implementation of the Interface class.">
<polygon fill="none" stroke="black" points="277.937,-192.5 277.937,-211.5 447.937,-211.5 447.937,-192.5 277.937,-192.5"/>
<text text-anchor="middle" x="362.937" y="-199.5" font-family="Helvetica,sans-Serif" font-size="10.00">WacomGSS/STU/InterfaceImpl.hpp</text>
</a>
</g>
</g>
<!-- Node6&#45;&gt;Node7 -->
<g id="edge6" class="edge"><title>Node6&#45;&gt;Node7</title>
<path fill="none" stroke="midnightblue" d="M362.937,-248.083C362.937,-241.006 362.937,-230.861 362.937,-221.986"/>
<polygon fill="midnightblue" stroke="midnightblue" points="366.437,-221.751 362.937,-211.751 359.437,-221.751 366.437,-221.751"/>
</g>
<!-- Node8 -->
<g id="node8" class="node"><title>Node8</title>
<g id="a_node8"><a xlink:href="concurrent__queue__with__exception_8hpp.html" target="_top" xlink:title="template class that provides thread&#45;safe producer/consumer pattern.">
<polygon fill="none" stroke="black" points="197.437,-125 197.437,-155 334.437,-155 334.437,-125 197.437,-125"/>
<text text-anchor="start" x="205.437" y="-143" font-family="Helvetica,sans-Serif" font-size="10.00">WacomGSS/concurrent</text>
<text text-anchor="middle" x="265.937" y="-132" font-family="Helvetica,sans-Serif" font-size="10.00">_queue_with_exception.hpp</text>
</a>
</g>
</g>
<!-- Node7&#45;&gt;Node8 -->
<g id="edge7" class="edge"><title>Node7&#45;&gt;Node8</title>
<path fill="none" stroke="midnightblue" d="M349.039,-192.403C335.656,-184.125 314.939,-171.311 297.538,-160.547"/>
<polygon fill="midnightblue" stroke="midnightblue" points="299.144,-157.425 288.798,-155.141 295.461,-163.378 299.144,-157.425"/>
</g>
<!-- Node13 -->
<g id="node13" class="node"><title>Node13</title>
<g id="a_node13"><a xlink:href="noncopyable_8hpp.html" target="_top" xlink:title="implements the noncopyable pattern">
<polygon fill="none" stroke="black" points="520.937,-130.5 520.937,-149.5 668.937,-149.5 668.937,-130.5 520.937,-130.5"/>
<text text-anchor="middle" x="594.937" y="-137.5" font-family="Helvetica,sans-Serif" font-size="10.00">WacomGSS/noncopyable.hpp</text>
</a>
</g>
</g>
<!-- Node7&#45;&gt;Node13 -->
<g id="edge14" class="edge"><title>Node7&#45;&gt;Node13</title>
<path fill="none" stroke="midnightblue" d="M396.177,-192.403C437.179,-181.799 506.966,-163.751 551.991,-152.107"/>
<polygon fill="midnightblue" stroke="midnightblue" points="552.953,-155.473 561.759,-149.581 551.201,-148.696 552.953,-155.473"/>
</g>
<!-- Node14 -->
<g id="node14" class="node"><title>Node14</title>
<g id="a_node14"><a xlink:href="atomic_8hpp.html" target="_top" xlink:title="maps class thread from std or boost">
<polygon fill="none" stroke="black" points="466.437,-57 466.437,-87 595.437,-87 595.437,-57 466.437,-57"/>
<text text-anchor="start" x="474.437" y="-75" font-family="Helvetica,sans-Serif" font-size="10.00">WacomGSS/compatibility</text>
<text text-anchor="middle" x="530.937" y="-64" font-family="Helvetica,sans-Serif" font-size="10.00">/atomic.hpp</text>
</a>
</g>
</g>
<!-- Node7&#45;&gt;Node14 -->
<g id="edge16" class="edge"><title>Node7&#45;&gt;Node14</title>
<path fill="none" stroke="midnightblue" d="M362.554,-192.38C362.341,-176.711 364.175,-143.395 381.937,-124 393.365,-111.521 428.577,-99.1859 461.901,-89.7735"/>
<polygon fill="midnightblue" stroke="midnightblue" points="462.979,-93.1068 471.689,-87.0743 461.118,-86.3586 462.979,-93.1068"/>
</g>
<!-- Node15 -->
<g id="node15" class="node"><title>Node15</title>
<polygon fill="none" stroke="#bfbfbf" points="450.937,-130.5 450.937,-149.5 502.937,-149.5 502.937,-130.5 450.937,-130.5"/>
<text text-anchor="middle" x="476.937" y="-137.5" font-family="Helvetica,sans-Serif" font-size="10.00">memory</text>
</g>
<!-- Node7&#45;&gt;Node15 -->
<g id="edge18" class="edge"><title>Node7&#45;&gt;Node15</title>
<path fill="none" stroke="midnightblue" d="M379.27,-192.403C398.148,-182.468 429.443,-165.997 451.512,-154.381"/>
<polygon fill="midnightblue" stroke="midnightblue" points="453.415,-157.335 460.634,-149.581 450.154,-151.141 453.415,-157.335"/>
</g>
<!-- Node16 -->
<g id="node16" class="node"><title>Node16</title>
<polygon fill="none" stroke="#bfbfbf" points="390.937,-130.5 390.937,-149.5 432.937,-149.5 432.937,-130.5 390.937,-130.5"/>
<text text-anchor="middle" x="411.937" y="-137.5" font-family="Helvetica,sans-Serif" font-size="10.00">vector</text>
</g>
<!-- Node7&#45;&gt;Node16 -->
<g id="edge19" class="edge"><title>Node7&#45;&gt;Node16</title>
<path fill="none" stroke="midnightblue" d="M369.957,-192.403C377.38,-183.314 389.269,-168.756 398.504,-157.449"/>
<polygon fill="midnightblue" stroke="midnightblue" points="401.315,-159.54 404.929,-149.581 395.893,-155.112 401.315,-159.54"/>
</g>
<!-- Node17 -->
<g id="node17" class="node"><title>Node17</title>
<polygon fill="none" stroke="#bfbfbf" points="89.4368,-130.5 89.4368,-149.5 132.437,-149.5 132.437,-130.5 89.4368,-130.5"/>
<text text-anchor="middle" x="110.937" y="-137.5" font-family="Helvetica,sans-Serif" font-size="10.00">deque</text>
</g>
<!-- Node7&#45;&gt;Node17 -->
<g id="edge20" class="edge"><title>Node7&#45;&gt;Node17</title>
<path fill="none" stroke="midnightblue" d="M298.109,-192.476C253.186,-185.459 192.432,-173.743 140.937,-156 139.079,-155.36 137.189,-154.628 135.309,-153.839"/>
<polygon fill="midnightblue" stroke="midnightblue" points="136.713,-150.632 126.17,-149.588 133.761,-156.979 136.713,-150.632"/>
</g>
<!-- Node18 -->
<g id="node18" class="node"><title>Node18</title>
<polygon fill="none" stroke="#bfbfbf" points="150.437,-130.5 150.437,-149.5 179.437,-149.5 179.437,-130.5 150.437,-130.5"/>
<text text-anchor="middle" x="164.937" y="-137.5" font-family="Helvetica,sans-Serif" font-size="10.00">list</text>
</g>
<!-- Node7&#45;&gt;Node18 -->
<g id="edge21" class="edge"><title>Node7&#45;&gt;Node18</title>
<path fill="none" stroke="midnightblue" d="M312.08,-192.481C276.354,-185.414 227.987,-173.636 187.937,-156 187.097,-155.63 186.253,-155.231 185.411,-154.809"/>
<polygon fill="midnightblue" stroke="midnightblue" points="187.092,-151.738 176.691,-149.717 183.562,-157.782 187.092,-151.738"/>
</g>
<!-- Node9 -->
<g id="node9" class="node"><title>Node9</title>
<g id="a_node9"><a xlink:href="condition__variable_8hpp.html" target="_top" xlink:title="maps class condition_variable from std or boost">
<polygon fill="none" stroke="black" points="25.4368,-57 25.4368,-87 154.437,-87 154.437,-57 25.4368,-57"/>
<text text-anchor="start" x="33.4368" y="-75" font-family="Helvetica,sans-Serif" font-size="10.00">WacomGSS/compatibility</text>
<text text-anchor="middle" x="89.9368" y="-64" font-family="Helvetica,sans-Serif" font-size="10.00">/condition_variable.hpp</text>
</a>
</g>
</g>
<!-- Node8&#45;&gt;Node9 -->
<g id="edge8" class="edge"><title>Node8&#45;&gt;Node9</title>
<path fill="none" stroke="midnightblue" d="M228.18,-124.841C201.41,-114.802 165.311,-101.265 136.714,-90.5416"/>
<polygon fill="midnightblue" stroke="midnightblue" points="137.921,-87.256 127.328,-87.0218 135.463,-93.8103 137.921,-87.256"/>
</g>
<!-- Node11 -->
<g id="node11" class="node"><title>Node11</title>
<g id="a_node11"><a xlink:href="mutex_8hpp.html" target="_top" xlink:title="maps class mutex from std or boost">
<polygon fill="none" stroke="black" points="172.437,-57 172.437,-87 301.437,-87 301.437,-57 172.437,-57"/>
<text text-anchor="start" x="180.437" y="-75" font-family="Helvetica,sans-Serif" font-size="10.00">WacomGSS/compatibility</text>
<text text-anchor="middle" x="236.937" y="-64" font-family="Helvetica,sans-Serif" font-size="10.00">/mutex.hpp</text>
</a>
</g>
</g>
<!-- Node8&#45;&gt;Node11 -->
<g id="edge10" class="edge"><title>Node8&#45;&gt;Node11</title>
<path fill="none" stroke="midnightblue" d="M259.644,-124.679C256.034,-116.463 251.412,-105.943 247.281,-96.5417"/>
<polygon fill="midnightblue" stroke="midnightblue" points="250.444,-95.0403 243.217,-87.2931 244.036,-97.8562 250.444,-95.0403"/>
</g>
<!-- Node12 -->
<g id="node12" class="node"><title>Node12</title>
<g id="a_node12"><a xlink:href="chrono_8hpp.html" target="_top" xlink:title="maps chrono from std or boost">
<polygon fill="none" stroke="black" points="319.437,-57 319.437,-87 448.437,-87 448.437,-57 319.437,-57"/>
<text text-anchor="start" x="327.437" y="-75" font-family="Helvetica,sans-Serif" font-size="10.00">WacomGSS/compatibility</text>
<text text-anchor="middle" x="383.937" y="-64" font-family="Helvetica,sans-Serif" font-size="10.00">/chrono.hpp</text>
</a>
</g>
</g>
<!-- Node8&#45;&gt;Node12 -->
<g id="edge12" class="edge"><title>Node8&#45;&gt;Node12</title>
<path fill="none" stroke="midnightblue" d="M291.251,-124.841C308.36,-115.272 331.154,-102.523 349.856,-92.0624"/>
<polygon fill="midnightblue" stroke="midnightblue" points="351.646,-95.0715 358.665,-87.1352 348.229,-88.9622 351.646,-95.0715"/>
</g>
<!-- Node10 -->
<g id="node10" class="node"><title>Node10</title>
<g id="a_node10"><a xlink:href="config_8hpp.html" target="_top" xlink:title="meta configuration about the compliation platform and compiler">
<polygon fill="none" stroke="black" points="250.437,-0.5 250.437,-19.5 369.437,-19.5 369.437,-0.5 250.437,-0.5"/>
<text text-anchor="middle" x="309.937" y="-7.5" font-family="Helvetica,sans-Serif" font-size="10.00">WacomGSS/config.hpp</text>
</a>
</g>
</g>
<!-- Node9&#45;&gt;Node10 -->
<g id="edge9" class="edge"><title>Node9&#45;&gt;Node10</title>
<path fill="none" stroke="midnightblue" d="M141.517,-56.9327C180.407,-46.3264 233.02,-31.9772 269.032,-22.1559"/>
<polygon fill="midnightblue" stroke="midnightblue" points="269.997,-25.5206 278.724,-19.5127 268.155,-18.7673 269.997,-25.5206"/>
</g>
<!-- Node11&#45;&gt;Node10 -->
<g id="edge11" class="edge"><title>Node11&#45;&gt;Node10</title>
<path fill="none" stroke="midnightblue" d="M254.237,-56.7808C265.391,-47.6127 279.89,-35.6957 291.299,-26.3186"/>
<polygon fill="midnightblue" stroke="midnightblue" points="293.812,-28.7841 299.315,-19.7305 289.367,-23.3763 293.812,-28.7841"/>
</g>
<!-- Node12&#45;&gt;Node10 -->
<g id="edge13" class="edge"><title>Node12&#45;&gt;Node10</title>
<path fill="none" stroke="midnightblue" d="M366.4,-56.7808C354.982,-47.5228 340.106,-35.4618 328.49,-26.0435"/>
<polygon fill="midnightblue" stroke="midnightblue" points="330.676,-23.3099 320.704,-19.7305 326.268,-28.7472 330.676,-23.3099"/>
</g>
<!-- Node13&#45;&gt;Node10 -->
<g id="edge15" class="edge"><title>Node13&#45;&gt;Node10</title>
<path fill="none" stroke="midnightblue" d="M599.615,-130.25C607.79,-113.621 622.16,-77.2242 603.937,-56 575.608,-23.0055 457.282,-13.9481 379.652,-11.6122"/>
<polygon fill="midnightblue" stroke="midnightblue" points="379.544,-8.10812 369.453,-11.3367 379.355,-15.1056 379.544,-8.10812"/>
</g>
<!-- Node14&#45;&gt;Node10 -->
<g id="edge17" class="edge"><title>Node14&#45;&gt;Node10</title>
<path fill="none" stroke="midnightblue" d="M479.122,-56.9327C440.056,-46.3264 387.203,-31.9772 351.028,-22.1559"/>
<polygon fill="midnightblue" stroke="midnightblue" points="351.86,-18.7551 341.292,-19.5127 350.025,-25.5106 351.86,-18.7551"/>
</g>
<!-- Node19&#45;&gt;Node10 -->
<g id="edge23" class="edge"><title>Node19&#45;&gt;Node10</title>
<path fill="none" stroke="midnightblue" d="M97.9453,-248.418C64.5579,-218.749 -38.0631,-118.894 15.9368,-56 44.2654,-23.0055 162.591,-13.9481 240.222,-11.6122"/>
<polygon fill="midnightblue" stroke="midnightblue" points="240.519,-15.1056 250.42,-11.3367 240.329,-8.10812 240.519,-15.1056"/>
</g>
<!-- Node20 -->
<g id="node20" class="node"><title>Node20</title>
<polygon fill="none" stroke="#bfbfbf" points="78.4368,-192.5 78.4368,-211.5 137.437,-211.5 137.437,-192.5 78.4368,-192.5"/>
<text text-anchor="middle" x="107.937" y="-199.5" font-family="Helvetica,sans-Serif" font-size="10.00">stdexcept</text>
</g>
<!-- Node19&#45;&gt;Node20 -->
<g id="edge24" class="edge"><title>Node19&#45;&gt;Node20</title>
<path fill="none" stroke="midnightblue" d="M107.937,-248.083C107.937,-241.006 107.937,-230.861 107.937,-221.986"/>
<polygon fill="midnightblue" stroke="midnightblue" points="111.437,-221.751 107.937,-211.751 104.437,-221.751 111.437,-221.751"/>
</g>
<!-- Node23 -->
<g id="node23" class="node"><title>Node23</title>
<g id="a_node23"><a xlink:href="unique__handle_8hpp.html" target="_top" xlink:title="provides the unique_handle pattern">
<polygon fill="none" stroke="black" points="639.437,-192.5 639.437,-211.5 794.437,-211.5 794.437,-192.5 639.437,-192.5"/>
<text text-anchor="middle" x="716.937" y="-199.5" font-family="Helvetica,sans-Serif" font-size="10.00">WacomGSS/unique_handle.hpp</text>
</a>
</g>
</g>
<!-- Node22&#45;&gt;Node23 -->
<g id="edge27" class="edge"><title>Node22&#45;&gt;Node23</title>
<path fill="none" stroke="midnightblue" d="M568.825,-248.444C598.691,-239.28 646.251,-224.688 679.393,-214.519"/>
<polygon fill="midnightblue" stroke="midnightblue" points="680.646,-217.796 689.18,-211.516 678.593,-211.104 680.646,-217.796"/>
</g>
<!-- Node27 -->
<g id="node27" class="node"><title>Node27</title>
<polygon fill="none" stroke="#bfbfbf" points="504.937,-192.5 504.937,-211.5 578.937,-211.5 578.937,-192.5 504.937,-192.5"/>
<text text-anchor="middle" x="541.937" y="-199.5" font-family="Helvetica,sans-Serif" font-size="10.00">system_error</text>
</g>
<!-- Node22&#45;&gt;Node27 -->
<g id="edge32" class="edge"><title>Node22&#45;&gt;Node27</title>
<path fill="none" stroke="midnightblue" d="M541.102,-248.083C541.233,-241.006 541.421,-230.861 541.585,-221.986"/>
<polygon fill="midnightblue" stroke="midnightblue" points="545.089,-221.814 541.775,-211.751 538.09,-221.685 545.089,-221.814"/>
</g>
<!-- Node22&#45;&gt;Node15 -->
<g id="edge33" class="edge"><title>Node22&#45;&gt;Node15</title>
<path fill="none" stroke="midnightblue" d="M529.249,-248.28C518.999,-240.028 504.442,-226.737 495.937,-212 486.585,-195.796 481.713,-174.862 479.257,-159.933"/>
<polygon fill="midnightblue" stroke="midnightblue" points="482.697,-159.267 477.815,-149.864 475.768,-160.259 482.697,-159.267"/>
</g>
<!-- Node23&#45;&gt;Node13 -->
<g id="edge28" class="edge"><title>Node23&#45;&gt;Node13</title>
<path fill="none" stroke="midnightblue" d="M699.457,-192.403C679.073,-182.379 645.161,-165.701 621.512,-154.07"/>
<polygon fill="midnightblue" stroke="midnightblue" points="622.902,-150.853 612.384,-149.581 619.813,-157.135 622.902,-150.853"/>
</g>
<!-- Node24 -->
<g id="node24" class="node"><title>Node24</title>
<polygon fill="none" stroke="#bfbfbf" points="816.937,-130.5 816.937,-149.5 856.937,-149.5 856.937,-130.5 816.937,-130.5"/>
<text text-anchor="middle" x="836.937" y="-137.5" font-family="Helvetica,sans-Serif" font-size="10.00">utility</text>
</g>
<!-- Node23&#45;&gt;Node24 -->
<g id="edge29" class="edge"><title>Node23&#45;&gt;Node24</title>
<path fill="none" stroke="midnightblue" d="M734.429,-192.467C752.785,-183.485 782.459,-168.887 807.937,-156 809.075,-155.424 810.237,-154.834 811.41,-154.236"/>
<polygon fill="midnightblue" stroke="midnightblue" points="813.104,-157.301 820.401,-149.619 809.906,-151.074 813.104,-157.301"/>
</g>
<!-- Node25 -->
<g id="node25" class="node"><title>Node25</title>
<polygon fill="none" stroke="#bfbfbf" points="687.437,-130.5 687.437,-149.5 746.437,-149.5 746.437,-130.5 687.437,-130.5"/>
<text text-anchor="middle" x="716.937" y="-137.5" font-family="Helvetica,sans-Serif" font-size="10.00">exception</text>
</g>
<!-- Node23&#45;&gt;Node25 -->
<g id="edge30" class="edge"><title>Node23&#45;&gt;Node25</title>
<path fill="none" stroke="midnightblue" d="M716.937,-192.403C716.937,-183.938 716.937,-170.728 716.937,-159.82"/>
<polygon fill="midnightblue" stroke="midnightblue" points="720.437,-159.581 716.937,-149.581 713.437,-159.581 720.437,-159.581"/>
</g>
<!-- Node26 -->
<g id="node26" class="node"><title>Node26</title>
<polygon fill="none" stroke="#bfbfbf" points="764.937,-130.5 764.937,-149.5 798.937,-149.5 798.937,-130.5 764.937,-130.5"/>
<text text-anchor="middle" x="781.937" y="-137.5" font-family="Helvetica,sans-Serif" font-size="10.00">new</text>
</g>
<!-- Node23&#45;&gt;Node26 -->
<g id="edge31" class="edge"><title>Node23&#45;&gt;Node26</title>
<path fill="none" stroke="midnightblue" d="M726.25,-192.403C736.386,-183.047 752.801,-167.895 765.189,-156.46"/>
<polygon fill="midnightblue" stroke="midnightblue" points="767.667,-158.935 772.641,-149.581 762.919,-153.792 767.667,-158.935"/>
</g>
</g>
</svg>
        <g id="navigator" transform="translate(0 0)" fill="#404254">
                <rect fill="#f2f5e9" fill-opacity="0.5" stroke="#606060" stroke-width=".5" x="0" y="0" width="60" height="60"/>
                <use id="zoomplus" xlink:href="#zoomPlus" x="17" y="9" onmousedown="handleZoom(evt,'in')"/>
                <use id="zoomminus" xlink:href="#zoomMin" x="42" y="9" onmousedown="handleZoom(evt,'out')"/>
                <use id="reset" xlink:href="#resetDef" x="30" y="36" onmousedown="handleReset()"/>
                <g id="arrowUp" xlink:href="#dirArrow" transform="translate(30 24)" onmousedown="handlePan(0,-1)">
                  <use xlink:href="#rim" fill="#404040">
                        <set attributeName="fill" to="#808080" begin="arrowUp.mouseover" end="arrowUp.mouseout"/>
                  </use>
                  <path fill="none" stroke="white" stroke-width="1.5" d="M0,-3.0v7 M-2.5,-0.5L0,-3.0L2.5,-0.5"/>
                </g>
                <g id="arrowRight" xlink:href="#dirArrow" transform="rotate(90) translate(36 -43)" onmousedown="handlePan(1,0)">
                  <use xlink:href="#rim" fill="#404040">
                        <set attributeName="fill" to="#808080" begin="arrowRight.mouseover" end="arrowRight.mouseout"/>
                  </use>
                  <path fill="none" stroke="white" stroke-width="1.5" d="M0,-3.0v7 M-2.5,-0.5L0,-3.0L2.5,-0.5"/>
                </g>
                <g id="arrowDown" xlink:href="#dirArrow" transform="rotate(180) translate(-30 -48)" onmousedown="handlePan(0,1)">
                  <use xlink:href="#rim" fill="#404040">
                        <set attributeName="fill" to="#808080" begin="arrowDown.mouseover" end="arrowDown.mouseout"/>
                  </use>
                  <path fill="none" stroke="white" stroke-width="1.5" d="M0,-3.0v7 M-2.5,-0.5L0,-3.0L2.5,-0.5"/>
                </g>
                <g id="arrowLeft" xlink:href="#dirArrow" transform="rotate(270) translate(-36 17)" onmousedown="handlePan(-1,0)">
                  <use xlink:href="#rim" fill="#404040">
                        <set attributeName="fill" to="#808080" begin="arrowLeft.mouseover" end="arrowLeft.mouseout"/>
                  </use>
                  <path fill="none" stroke="white" stroke-width="1.5" d="M0,-3.0v7 M-2.5,-0.5L0,-3.0L2.5,-0.5"/>
                </g>
        </g>
        <svg viewBox="0 0 15 15" width="100%" height="30px" preserveAspectRatio="xMaxYMin meet">
         <g id="arrow_out" transform="scale(0.3 0.3)">
          <a xlink:href="_tablet___open_s_s_l_8hpp__incl_org.svg" target="_base">
           <rect id="button" ry="5" rx="5" y="6" x="6" height="38" width="38"
                fill="#f2f5e9" fill-opacity="0.5" stroke="#606060" stroke-width="1.0"/>
           <path id="arrow"
             d="M 11.500037,31.436501 C 11.940474,20.09759 22.043105,11.32322 32.158766,21.979434 L 37.068811,17.246167 C 37.068811,17.246167 37.088388,32 37.088388,32 L 22.160133,31.978069 C 22.160133,31.978069 26.997745,27.140456 26.997745,27.140456 C 18.528582,18.264221 13.291696,25.230495 11.500037,31.436501 z"
             style="fill:#404040;"/>
          </a>
         </g>
        </svg>
</svg>
