<?xml version="1.0" encoding="UTF-8" standalone="no"?>
<!DOCTYPE svg PUBLIC "-//W3C//DTD SVG 1.1//EN"
 "http://www.w3.org/Graphics/SVG/1.1/DTD/svg11.dtd">
<!-- Generated by graphviz version 2.30.0 (20130114.0323)
 -->
<!-- Title: WacomGSS::STU::ProtocolHelper::ValidatingInterfaceImpl Pages: 1 -->
<svg width="186pt" height="108pt"
 viewBox="0.00 0.00 186.00 108.00" xmlns="http://www.w3.org/2000/svg" xmlns:xlink="http://www.w3.org/1999/xlink">
<g id="graph0" class="graph" transform="scale(1 1) rotate(0) translate(4 104)">
<title>WacomGSS::STU::ProtocolHelper::ValidatingInterfaceImpl</title>
<!-- Node1 -->
<g id="node1" class="node"><title>Node1</title>
<polygon fill="#bfbfbf" stroke="black" points="6,-69 6,-99 172,-99 172,-69 6,-69"/>
<text text-anchor="start" x="14" y="-87" font-family="Helvetica,sans-Serif" font-size="10.00">WacomGSS::STU::ProtocolHelper</text>
<text text-anchor="middle" x="89" y="-76" font-family="Helvetica,sans-Serif" font-size="10.00">::ValidatingInterfaceImpl</text>
</g>
<!-- Node2 -->
<g id="node2" class="node"><title>Node2</title>
<g id="a_node2"><a xlink:href="class_wacom_g_s_s_1_1_s_t_u_1_1_protocol_helper_1_1_validating_interface.html" target="_top" xlink:title="Provides a wrapper to pre and post check API calls.">
<polygon fill="none" stroke="black" points="-0.5,-1 -0.5,-31 178.5,-31 178.5,-1 -0.5,-1"/>
<text text-anchor="start" x="7.5" y="-19" font-family="Helvetica,sans-Serif" font-size="10.00">WacomGSS::STU::ProtocolHelper</text>
<text text-anchor="middle" x="89" y="-8" font-family="Helvetica,sans-Serif" font-size="10.00">::ValidatingInterface&lt; BaseInterface &gt;</text>
</a>
</g>
</g>
<!-- Node1&#45;&gt;Node2 -->
<g id="edge1" class="edge"><title>Node1&#45;&gt;Node2</title>
<path fill="none" stroke="midnightblue" d="M89,-58.5322C89,-49.3606 89,-39.2449 89,-31.2931"/>
<polygon fill="midnightblue" stroke="midnightblue" points="85.5001,-58.6789 89,-68.679 92.5001,-58.679 85.5001,-58.6789"/>
</g>
</g>
</svg>
