<?xml version="1.0" encoding="UTF-8" standalone="no"?>
<!DOCTYPE svg PUBLIC "-//W3C//DTD SVG 1.1//EN"
 "http://www.w3.org/Graphics/SVG/1.1/DTD/svg11.dtd">
<!-- Generated by graphviz version 2.30.0 (20130114.0323)
 -->
<!-- Title: WacomGSS::STU::runtime_error Pages: 1 -->
<svg width="342pt" height="332pt"
 viewBox="0.00 0.00 342.00 332.00" xmlns="http://www.w3.org/2000/svg" xmlns:xlink="http://www.w3.org/1999/xlink">
<g id="graph0" class="graph" transform="scale(1 1) rotate(0) translate(4 328)">
<title>WacomGSS::STU::runtime_error</title>
<!-- Node1 -->
<g id="node1" class="node"><title>Node1</title>
<polygon fill="#bfbfbf" stroke="black" points="0,-147 0,-177 134,-177 134,-147 0,-147"/>
<text text-anchor="start" x="8" y="-165" font-family="Helvetica,sans-Serif" font-size="10.00">WacomGSS::STU::runtime</text>
<text text-anchor="middle" x="67" y="-154" font-family="Helvetica,sans-Serif" font-size="10.00">_error</text>
</g>
<!-- Node2 -->
<g id="node2" class="node"><title>Node2</title>
<g id="a_node2"><a xlink:href="class_wacom_g_s_s_1_1_s_t_u_1_1_interface_1_1device__removed__error.html" target="_top" xlink:title="Typically thrown when the device which was connected is unexpectly removed.">
<polygon fill="none" stroke="black" points="182.5,-294 182.5,-324 321.5,-324 321.5,-294 182.5,-294"/>
<text text-anchor="start" x="190.5" y="-312" font-family="Helvetica,sans-Serif" font-size="10.00">WacomGSS::STU::Interface</text>
<text text-anchor="middle" x="252" y="-301" font-family="Helvetica,sans-Serif" font-size="10.00">::device_removed_error</text>
</a>
</g>
</g>
<!-- Node1&#45;&gt;Node2 -->
<g id="edge1" class="edge"><title>Node1&#45;&gt;Node2</title>
<path fill="none" stroke="midnightblue" d="M81.9022,-185.787C99.1776,-213.319 131.172,-258.176 170,-284 175.76,-287.831 182.134,-291.097 188.705,-293.878"/>
<polygon fill="midnightblue" stroke="midnightblue" points="84.8287,-183.864 76.6192,-177.167 78.8603,-187.522 84.8287,-183.864"/>
</g>
<!-- Node3 -->
<g id="node3" class="node"><title>Node3</title>
<g id="a_node3"><a xlink:href="class_wacom_g_s_s_1_1_s_t_u_1_1_interface_1_1io__error.html" target="_top" xlink:title="Thrown when a low&#45;level I/O error occurs.">
<polygon fill="none" stroke="black" points="182.5,-245 182.5,-275 321.5,-275 321.5,-245 182.5,-245"/>
<text text-anchor="start" x="190.5" y="-263" font-family="Helvetica,sans-Serif" font-size="10.00">WacomGSS::STU::Interface</text>
<text text-anchor="middle" x="252" y="-252" font-family="Helvetica,sans-Serif" font-size="10.00">::io_error</text>
</a>
</g>
</g>
<!-- Node1&#45;&gt;Node3 -->
<g id="edge2" class="edge"><title>Node1&#45;&gt;Node3</title>
<path fill="none" stroke="midnightblue" d="M93.2005,-183.569C112.994,-199.603 141.832,-221.035 170,-235 177.516,-238.726 185.7,-242.032 193.883,-244.921"/>
<polygon fill="midnightblue" stroke="midnightblue" points="95.2446,-180.718 85.2996,-177.065 90.7957,-186.122 95.2446,-180.718"/>
</g>
<!-- Node4 -->
<g id="node4" class="node"><title>Node4</title>
<g id="a_node4"><a xlink:href="class_wacom_g_s_s_1_1_s_t_u_1_1_interface_1_1not__connected__error.html" target="_top" xlink:title="Thrown if an IO api is called when the object is not connected to a tablet.">
<polygon fill="none" stroke="black" points="182.5,-196 182.5,-226 321.5,-226 321.5,-196 182.5,-196"/>
<text text-anchor="start" x="190.5" y="-214" font-family="Helvetica,sans-Serif" font-size="10.00">WacomGSS::STU::Interface</text>
<text text-anchor="middle" x="252" y="-203" font-family="Helvetica,sans-Serif" font-size="10.00">::not_connected_error</text>
</a>
</g>
</g>
<!-- Node1&#45;&gt;Node4 -->
<g id="edge3" class="edge"><title>Node1&#45;&gt;Node4</title>
<path fill="none" stroke="midnightblue" d="M134.285,-179.748C154.119,-185.059 175.667,-190.829 194.787,-195.948"/>
<polygon fill="midnightblue" stroke="midnightblue" points="134.964,-176.307 124.399,-177.101 133.154,-183.069 134.964,-176.307"/>
</g>
<!-- Node5 -->
<g id="node5" class="node"><title>Node5</title>
<g id="a_node5"><a xlink:href="class_wacom_g_s_s_1_1_s_t_u_1_1_interface_1_1timeout__error.html" target="_top" xlink:title="Thrown when an I/O error has occured that cannot be retried within the allowed time limit...">
<polygon fill="none" stroke="black" points="182.5,-147 182.5,-177 321.5,-177 321.5,-147 182.5,-147"/>
<text text-anchor="start" x="190.5" y="-165" font-family="Helvetica,sans-Serif" font-size="10.00">WacomGSS::STU::Interface</text>
<text text-anchor="middle" x="252" y="-154" font-family="Helvetica,sans-Serif" font-size="10.00">::timeout_error</text>
</a>
</g>
</g>
<!-- Node1&#45;&gt;Node5 -->
<g id="edge4" class="edge"><title>Node1&#45;&gt;Node5</title>
<path fill="none" stroke="midnightblue" d="M144.105,-162C156.752,-162 169.804,-162 182.255,-162"/>
<polygon fill="midnightblue" stroke="midnightblue" points="144.067,-158.5 134.067,-162 144.067,-165.5 144.067,-158.5"/>
</g>
<!-- Node6 -->
<g id="node6" class="node"><title>Node6</title>
<g id="a_node6"><a xlink:href="class_wacom_g_s_s_1_1_s_t_u_1_1_interface_1_1write__not__supported__error.html" target="_top" xlink:title="Thrown when a call to write() is made on an object which does not support write.">
<polygon fill="none" stroke="black" points="182.5,-98 182.5,-128 321.5,-128 321.5,-98 182.5,-98"/>
<text text-anchor="start" x="190.5" y="-116" font-family="Helvetica,sans-Serif" font-size="10.00">WacomGSS::STU::Interface</text>
<text text-anchor="middle" x="252" y="-105" font-family="Helvetica,sans-Serif" font-size="10.00">::write_not_supported_error</text>
</a>
</g>
</g>
<!-- Node1&#45;&gt;Node6 -->
<g id="edge5" class="edge"><title>Node1&#45;&gt;Node6</title>
<path fill="none" stroke="midnightblue" d="M134.285,-144.252C154.119,-138.941 175.667,-133.171 194.787,-128.052"/>
<polygon fill="midnightblue" stroke="midnightblue" points="133.154,-140.931 124.399,-146.899 134.964,-147.693 133.154,-140.931"/>
</g>
<!-- Node7 -->
<g id="node7" class="node"><title>Node7</title>
<g id="a_node7"><a xlink:href="class_wacom_g_s_s_1_1_s_t_u_1_1_serial_protocol_1_1crc__error.html" target="_top" xlink:title="Thrown when a CRC check fails.">
<polygon fill="none" stroke="black" points="170.5,-49 170.5,-79 333.5,-79 333.5,-49 170.5,-49"/>
<text text-anchor="start" x="178.5" y="-67" font-family="Helvetica,sans-Serif" font-size="10.00">WacomGSS::STU::SerialProtocol</text>
<text text-anchor="middle" x="252" y="-56" font-family="Helvetica,sans-Serif" font-size="10.00">::crc_error</text>
</a>
</g>
</g>
<!-- Node1&#45;&gt;Node7 -->
<g id="edge6" class="edge"><title>Node1&#45;&gt;Node7</title>
<path fill="none" stroke="midnightblue" d="M93.2005,-140.431C112.994,-124.397 141.832,-102.965 170,-89 177.516,-85.2738 185.7,-81.9675 193.883,-79.0789"/>
<polygon fill="midnightblue" stroke="midnightblue" points="90.7957,-137.878 85.2996,-146.935 95.2446,-143.282 90.7957,-137.878"/>
</g>
<!-- Node8 -->
<g id="node8" class="node"><title>Node8</title>
<g id="a_node8"><a xlink:href="class_wacom_g_s_s_1_1_s_t_u_1_1_tablet_1_1not__supported__error.html" target="_top" xlink:title="Thrown if you attempt to use an unsupported report type.">
<polygon fill="none" stroke="black" points="188,-0 188,-30 316,-30 316,-0 188,-0"/>
<text text-anchor="start" x="196" y="-18" font-family="Helvetica,sans-Serif" font-size="10.00">WacomGSS::STU::Tablet</text>
<text text-anchor="middle" x="252" y="-7" font-family="Helvetica,sans-Serif" font-size="10.00">::not_supported_error</text>
</a>
</g>
</g>
<!-- Node1&#45;&gt;Node8 -->
<g id="edge7" class="edge"><title>Node1&#45;&gt;Node8</title>
<path fill="none" stroke="midnightblue" d="M81.9022,-138.213C99.1776,-110.681 131.172,-65.824 170,-40 175.76,-36.1694 182.134,-32.9027 188.705,-30.122"/>
<polygon fill="midnightblue" stroke="midnightblue" points="78.8603,-136.478 76.6192,-146.833 84.8287,-140.136 78.8603,-136.478"/>
</g>
</g>
</svg>
