<?xml version="1.0" encoding="UTF-8" standalone="no"?>
<!DOCTYPE svg PUBLIC "-//W3C//DTD SVG 1.1//EN"
 "http://www.w3.org/Graphics/SVG/1.1/DTD/svg11.dtd">
<!-- Generated by graphviz version 2.30.0 (20130114.0323)
 -->
<!-- Title: Graphical Class Hierarchy Pages: 1 -->
<svg width="390pt" height="38pt"
 viewBox="0.00 0.00 390.00 38.00" xmlns="http://www.w3.org/2000/svg" xmlns:xlink="http://www.w3.org/1999/xlink">
<g id="graph0" class="graph" transform="scale(1 1) rotate(0) translate(4 34)">
<title>Graphical Class Hierarchy</title>
<!-- Node1 -->
<g id="node1" class="node"><title>Node1</title>
<g id="a_node1"><a xlink:href="class_wacom_g_s_s_1_1_s_t_u_1_1_protocol_helper_1_1_validating_interface_impl.html" target="_top" xlink:title="Internal class to assist the template class ValidatingInterface.">
<polygon fill="none" stroke="black" points="0,-0 0,-30 166,-30 166,-0 0,-0"/>
<text text-anchor="start" x="8" y="-18" font-family="Helvetica,sans-Serif" font-size="10.00">WacomGSS::STU::ProtocolHelper</text>
<text text-anchor="middle" x="83" y="-7" font-family="Helvetica,sans-Serif" font-size="10.00">::ValidatingInterfaceImpl</text>
</a>
</g>
</g>
<!-- Node2 -->
<g id="node2" class="node"><title>Node2</title>
<g id="a_node2"><a xlink:href="class_wacom_g_s_s_1_1_s_t_u_1_1_protocol_helper_1_1_validating_interface.html" target="_top" xlink:title="Provides a wrapper to pre and post check API calls.">
<polygon fill="none" stroke="black" points="202.5,-0 202.5,-30 381.5,-30 381.5,-0 202.5,-0"/>
<text text-anchor="start" x="210.5" y="-18" font-family="Helvetica,sans-Serif" font-size="10.00">WacomGSS::STU::ProtocolHelper</text>
<text text-anchor="middle" x="292" y="-7" font-family="Helvetica,sans-Serif" font-size="10.00">::ValidatingInterface&lt; BaseInterface &gt;</text>
</a>
</g>
</g>
<!-- Node1&#45;&gt;Node2 -->
<g id="edge1" class="edge"><title>Node1&#45;&gt;Node2</title>
<path fill="none" stroke="midnightblue" d="M176.188,-15C184.827,-15 193.573,-15 202.181,-15"/>
<polygon fill="midnightblue" stroke="midnightblue" points="176.109,-11.5001 166.109,-15 176.109,-18.5001 176.109,-11.5001"/>
</g>
</g>
</svg>
