<?xml version="1.0" encoding="UTF-8" standalone="no"?>
<!DOCTYPE svg PUBLIC "-//W3C//DTD SVG 1.1//EN"
 "http://www.w3.org/Graphics/SVG/1.1/DTD/svg11.dtd">
<!-- Generated by graphviz version 2.30.0 (20130114.0323)
 -->
<!-- Title: Graphical Class Hierarchy Pages: 1 -->
<svg width="362pt" height="28pt"
 viewBox="0.00 0.00 362.00 28.00" xmlns="http://www.w3.org/2000/svg" xmlns:xlink="http://www.w3.org/1999/xlink">
<g id="graph0" class="graph" transform="scale(1 1) rotate(0) translate(4 24)">
<title>Graphical Class Hierarchy</title>
<!-- Node1 -->
<g id="node1" class="node"><title>Node1</title>
<g id="a_node1"><a xlink:href="struct_wacom_g_s_s_1_1_s_t_u_1_1_usb_device_base.html" target="_top" xlink:title="Basic attributes of a USB device.">
<polygon fill="none" stroke="black" points="0,-0.5 0,-19.5 170,-19.5 170,-0.5 0,-0.5"/>
<text text-anchor="middle" x="85" y="-7.5" font-family="Helvetica,sans-Serif" font-size="10.00">WacomGSS::STU::UsbDeviceBase</text>
</a>
</g>
</g>
<!-- Node2 -->
<g id="node2" class="node"><title>Node2</title>
<g id="a_node2"><a xlink:href="struct_wacom_g_s_s_1_1_s_t_u_1_1_usb_device.html" target="_top" xlink:title="Platform&#45;specific specialization of UsbDeviceBase.">
<polygon fill="none" stroke="black" points="206,-0.5 206,-19.5 354,-19.5 354,-0.5 206,-0.5"/>
<text text-anchor="middle" x="280" y="-7.5" font-family="Helvetica,sans-Serif" font-size="10.00">WacomGSS::STU::UsbDevice</text>
</a>
</g>
</g>
<!-- Node1&#45;&gt;Node2 -->
<g id="edge1" class="edge"><title>Node1&#45;&gt;Node2</title>
<path fill="none" stroke="midnightblue" d="M180.163,-10C188.767,-10 197.395,-10 205.775,-10"/>
<polygon fill="midnightblue" stroke="midnightblue" points="180.091,-6.5001 170.091,-10 180.091,-13.5001 180.091,-6.5001"/>
</g>
</g>
</svg>
