<?xml version="1.0" encoding="UTF-8" standalone="no"?>
<!DOCTYPE svg PUBLIC "-//W3C//DTD SVG 1.1//EN"
 "http://www.w3.org/Graphics/SVG/1.1/DTD/svg11.dtd">
<!-- Generated by graphviz version 2.30.0 (20130114.0323)
 -->
<!-- Title: WacomGSS/Win32/hidsdi.hpp Pages: 1 -->
<svg width="510pt" height="252pt"
 viewBox="0.00 0.00 510.00 252.00" xmlns="http://www.w3.org/2000/svg" xmlns:xlink="http://www.w3.org/1999/xlink">
<g id="graph0" class="graph" transform="scale(1 1) rotate(0) translate(4 248)">
<title>WacomGSS/Win32/hidsdi.hpp</title>
<!-- Node1 -->
<g id="node1" class="node"><title>Node1</title>
<polygon fill="#bfbfbf" stroke="black" points="340.5,-224.5 340.5,-243.5 489.5,-243.5 489.5,-224.5 340.5,-224.5"/>
<text text-anchor="middle" x="415" y="-231.5" font-family="Helvetica,sans-Serif" font-size="10.00">WacomGSS/Win32/hidsdi.hpp</text>
</g>
<!-- Node2 -->
<g id="node2" class="node"><title>Node2</title>
<g id="a_node2"><a xlink:href="windows_8hpp.html" target="_top" xlink:title="provides wrapper classes to windows.h for exception safety">
<polygon fill="none" stroke="black" points="272.5,-168.5 272.5,-187.5 433.5,-187.5 433.5,-168.5 272.5,-168.5"/>
<text text-anchor="middle" x="353" y="-175.5" font-family="Helvetica,sans-Serif" font-size="10.00">WacomGSS/Win32/windows.hpp</text>
</a>
</g>
</g>
<!-- Node1&#45;&gt;Node2 -->
<g id="edge1" class="edge"><title>Node1&#45;&gt;Node2</title>
<path fill="none" stroke="midnightblue" d="M405.039,-224.324C395.873,-216.341 382.063,-204.313 370.972,-194.653"/>
<polygon fill="midnightblue" stroke="midnightblue" points="372.982,-191.762 363.143,-187.834 368.385,-197.041 372.982,-191.762"/>
</g>
<!-- Node11 -->
<g id="node11" class="node"><title>Node11</title>
<polygon fill="none" stroke="#bfbfbf" points="452,-168.5 452,-187.5 502,-187.5 502,-168.5 452,-168.5"/>
<text text-anchor="middle" x="477" y="-175.5" font-family="Helvetica,sans-Serif" font-size="10.00">hidsdi.h</text>
</g>
<!-- Node1&#45;&gt;Node11 -->
<g id="edge10" class="edge"><title>Node1&#45;&gt;Node11</title>
<path fill="none" stroke="midnightblue" d="M424.961,-224.324C434.127,-216.341 447.937,-204.313 459.028,-194.653"/>
<polygon fill="midnightblue" stroke="midnightblue" points="461.615,-197.041 466.857,-187.834 457.018,-191.762 461.615,-197.041"/>
</g>
<!-- Node3 -->
<g id="node3" class="node"><title>Node3</title>
<g id="a_node3"><a xlink:href="unique__handle_8hpp.html" target="_top" xlink:title="provides the unique_handle pattern">
<polygon fill="none" stroke="black" points="142.5,-112.5 142.5,-131.5 297.5,-131.5 297.5,-112.5 142.5,-112.5"/>
<text text-anchor="middle" x="220" y="-119.5" font-family="Helvetica,sans-Serif" font-size="10.00">WacomGSS/unique_handle.hpp</text>
</a>
</g>
</g>
<!-- Node2&#45;&gt;Node3 -->
<g id="edge2" class="edge"><title>Node2&#45;&gt;Node3</title>
<path fill="none" stroke="midnightblue" d="M331.926,-168.444C309.94,-159.517 275.266,-145.439 250.336,-135.317"/>
<polygon fill="midnightblue" stroke="midnightblue" points="251.558,-132.035 240.976,-131.516 248.924,-138.521 251.558,-132.035"/>
</g>
<!-- Node9 -->
<g id="node9" class="node"><title>Node9</title>
<polygon fill="none" stroke="#bfbfbf" points="316,-112.5 316,-131.5 390,-131.5 390,-112.5 316,-112.5"/>
<text text-anchor="middle" x="353" y="-119.5" font-family="Helvetica,sans-Serif" font-size="10.00">system_error</text>
</g>
<!-- Node2&#45;&gt;Node9 -->
<g id="edge8" class="edge"><title>Node2&#45;&gt;Node9</title>
<path fill="none" stroke="midnightblue" d="M353,-168.083C353,-161.006 353,-150.861 353,-141.986"/>
<polygon fill="midnightblue" stroke="midnightblue" points="356.5,-141.751 353,-131.751 349.5,-141.751 356.5,-141.751"/>
</g>
<!-- Node10 -->
<g id="node10" class="node"><title>Node10</title>
<polygon fill="none" stroke="#bfbfbf" points="408,-112.5 408,-131.5 470,-131.5 470,-112.5 408,-112.5"/>
<text text-anchor="middle" x="439" y="-119.5" font-family="Helvetica,sans-Serif" font-size="10.00">windows.h</text>
</g>
<!-- Node2&#45;&gt;Node10 -->
<g id="edge9" class="edge"><title>Node2&#45;&gt;Node10</title>
<path fill="none" stroke="midnightblue" d="M366.817,-168.324C380.233,-159.9 400.824,-146.971 416.586,-137.074"/>
<polygon fill="midnightblue" stroke="midnightblue" points="418.609,-139.936 425.217,-131.655 414.887,-134.008 418.609,-139.936"/>
</g>
<!-- Node4 -->
<g id="node4" class="node"><title>Node4</title>
<g id="a_node4"><a xlink:href="noncopyable_8hpp.html" target="_top" xlink:title="implements the noncopyable pattern">
<polygon fill="none" stroke="black" points="0,-56.5 0,-75.5 148,-75.5 148,-56.5 0,-56.5"/>
<text text-anchor="middle" x="74" y="-63.5" font-family="Helvetica,sans-Serif" font-size="10.00">WacomGSS/noncopyable.hpp</text>
</a>
</g>
</g>
<!-- Node3&#45;&gt;Node4 -->
<g id="edge3" class="edge"><title>Node3&#45;&gt;Node4</title>
<path fill="none" stroke="midnightblue" d="M196.866,-112.444C172.518,-103.438 133.993,-89.1891 106.577,-79.049"/>
<polygon fill="midnightblue" stroke="midnightblue" points="107.619,-75.7028 97.0259,-75.5164 105.191,-82.2681 107.619,-75.7028"/>
</g>
<!-- Node6 -->
<g id="node6" class="node"><title>Node6</title>
<polygon fill="none" stroke="#bfbfbf" points="166,-56.5 166,-75.5 206,-75.5 206,-56.5 166,-56.5"/>
<text text-anchor="middle" x="186" y="-63.5" font-family="Helvetica,sans-Serif" font-size="10.00">utility</text>
</g>
<!-- Node3&#45;&gt;Node6 -->
<g id="edge5" class="edge"><title>Node3&#45;&gt;Node6</title>
<path fill="none" stroke="midnightblue" d="M214.386,-112.083C209.633,-104.534 202.682,-93.4948 196.848,-84.2298"/>
<polygon fill="midnightblue" stroke="midnightblue" points="199.8,-82.3486 191.51,-75.7511 193.876,-86.0783 199.8,-82.3486"/>
</g>
<!-- Node7 -->
<g id="node7" class="node"><title>Node7</title>
<polygon fill="none" stroke="#bfbfbf" points="224.5,-56.5 224.5,-75.5 283.5,-75.5 283.5,-56.5 224.5,-56.5"/>
<text text-anchor="middle" x="254" y="-63.5" font-family="Helvetica,sans-Serif" font-size="10.00">exception</text>
</g>
<!-- Node3&#45;&gt;Node7 -->
<g id="edge6" class="edge"><title>Node3&#45;&gt;Node7</title>
<path fill="none" stroke="midnightblue" d="M225.614,-112.083C230.367,-104.534 237.318,-93.4948 243.152,-84.2298"/>
<polygon fill="midnightblue" stroke="midnightblue" points="246.124,-86.0783 248.49,-75.7511 240.2,-82.3486 246.124,-86.0783"/>
</g>
<!-- Node8 -->
<g id="node8" class="node"><title>Node8</title>
<polygon fill="none" stroke="#bfbfbf" points="302,-56.5 302,-75.5 336,-75.5 336,-56.5 302,-56.5"/>
<text text-anchor="middle" x="319" y="-63.5" font-family="Helvetica,sans-Serif" font-size="10.00">new</text>
</g>
<!-- Node3&#45;&gt;Node8 -->
<g id="edge7" class="edge"><title>Node3&#45;&gt;Node8</title>
<path fill="none" stroke="midnightblue" d="M235.906,-112.324C251.638,-103.743 275.942,-90.486 294.209,-80.5224"/>
<polygon fill="midnightblue" stroke="midnightblue" points="296.03,-83.5157 303.133,-75.6545 292.678,-77.3704 296.03,-83.5157"/>
</g>
<!-- Node5 -->
<g id="node5" class="node"><title>Node5</title>
<g id="a_node5"><a xlink:href="config_8hpp.html" target="_top" xlink:title="meta configuration about the compliation platform and compiler">
<polygon fill="none" stroke="black" points="14.5,-0.5 14.5,-19.5 133.5,-19.5 133.5,-0.5 14.5,-0.5"/>
<text text-anchor="middle" x="74" y="-7.5" font-family="Helvetica,sans-Serif" font-size="10.00">WacomGSS/config.hpp</text>
</a>
</g>
</g>
<!-- Node4&#45;&gt;Node5 -->
<g id="edge4" class="edge"><title>Node4&#45;&gt;Node5</title>
<path fill="none" stroke="midnightblue" d="M74,-56.083C74,-49.0059 74,-38.8611 74,-29.9865"/>
<polygon fill="midnightblue" stroke="midnightblue" points="77.5001,-29.751 74,-19.7511 70.5001,-29.7511 77.5001,-29.751"/>
</g>
</g>
</svg>
