<?xml version="1.0" encoding="UTF-8" standalone="no"?>
<!DOCTYPE svg PUBLIC "-//W3C//DTD SVG 1.1//EN"
 "http://www.w3.org/Graphics/SVG/1.1/DTD/svg11.dtd">
<!-- Generated by graphviz version 2.30.0 (20130114.0323)
 -->
<!-- Title: WacomGSS::STU::Protocol::PenDataEncrypted Pages: 1 -->
<svg width="146pt" height="120pt"
 viewBox="0.00 0.00 146.00 120.00" xmlns="http://www.w3.org/2000/svg" xmlns:xlink="http://www.w3.org/1999/xlink">
<g id="graph0" class="graph" transform="scale(1 1) rotate(0) translate(4 116)">
<title>WacomGSS::STU::Protocol::PenDataEncrypted</title>
<!-- Node1 -->
<g id="node1" class="node"><title>Node1</title>
<polygon fill="#bfbfbf" stroke="black" points="0,-1 0,-31 138,-31 138,-1 0,-1"/>
<text text-anchor="start" x="8" y="-19" font-family="Helvetica,sans-Serif" font-size="10.00">WacomGSS::STU::Protocol</text>
<text text-anchor="middle" x="69" y="-8" font-family="Helvetica,sans-Serif" font-size="10.00">::PenDataEncrypted</text>
</g>
<!-- Node2 -->
<g id="node2" class="node"><title>Node2</title>
<g id="a_node2"><a xlink:href="struct_wacom_g_s_s_1_1_s_t_u_1_1_protocol_1_1_pen_data.html" target="_top" xlink:title="Data returned from the STU tablet in response to pen movement when PenDataOptionMode_None is set...">
<polygon fill="none" stroke="black" points="0,-81 0,-111 138,-111 138,-81 0,-81"/>
<text text-anchor="start" x="8" y="-99" font-family="Helvetica,sans-Serif" font-size="10.00">WacomGSS::STU::Protocol</text>
<text text-anchor="middle" x="69" y="-88" font-family="Helvetica,sans-Serif" font-size="10.00">::PenData</text>
</a>
</g>
</g>
<!-- Node2&#45;&gt;Node1 -->
<g id="edge1" class="edge"><title>Node2&#45;&gt;Node1</title>
<path fill="none" stroke="#9a32cd" stroke-dasharray="5,2" d="M69,-70.5644C69,-57.6243 69,-42.1862 69,-31.2157"/>
<polygon fill="#9a32cd" stroke="#9a32cd" points="65.5001,-70.6936 69,-80.6936 72.5001,-70.6936 65.5001,-70.6936"/>
<text text-anchor="middle" x="89" y="-53.5" font-family="Helvetica,sans-Serif" font-size="10.00"> penData</text>
</g>
</g>
</svg>
