<?xml version="1.0" encoding="UTF-8" standalone="no"?>
<!DOCTYPE svg PUBLIC "-//W3C//DTD SVG 1.1//EN"
 "http://www.w3.org/Graphics/SVG/1.1/DTD/svg11.dtd">
<!-- Generated by graphviz version 2.30.0 (20130114.0323)
 -->
<!-- Title: WacomGSS/unique_handle.hpp Pages: 1 -->
<svg width="1165pt" height="220pt"
 viewBox="0.00 0.00 1165.00 220.00" xmlns="http://www.w3.org/2000/svg" xmlns:xlink="http://www.w3.org/1999/xlink">
<g id="graph0" class="graph" transform="scale(1 1) rotate(0) translate(4 216)">
<title>WacomGSS/unique_handle.hpp</title>
<!-- Node1 -->
<g id="node1" class="node"><title>Node1</title>
<polygon fill="#bfbfbf" stroke="black" points="489.5,-192.5 489.5,-211.5 644.5,-211.5 644.5,-192.5 489.5,-192.5"/>
<text text-anchor="middle" x="567" y="-199.5" font-family="Helvetica,sans-Serif" font-size="10.00">WacomGSS/unique_handle.hpp</text>
</g>
<!-- Node2 -->
<g id="node2" class="node"><title>Node2</title>
<g id="a_node2"><a xlink:href="_open_s_s_l_8hpp.html" target="_top" xlink:title="provides a thin layer of objects from the OpenSSL library to provide basic exception safety...">
<polygon fill="none" stroke="black" points="163.5,-136.5 163.5,-155.5 298.5,-155.5 298.5,-136.5 163.5,-136.5"/>
<text text-anchor="middle" x="231" y="-143.5" font-family="Helvetica,sans-Serif" font-size="10.00">WacomGSS/OpenSSL.hpp</text>
</a>
</g>
</g>
<!-- Node1&#45;&gt;Node2 -->
<g id="edge1" class="edge"><title>Node1&#45;&gt;Node2</title>
<path fill="none" stroke="midnightblue" d="M503.868,-190.854C440.384,-180.651 343.608,-165.098 283.991,-155.516"/>
<polygon fill="midnightblue" stroke="midnightblue" points="503.331,-194.312 513.76,-192.444 504.442,-187.401 503.331,-194.312"/>
</g>
<!-- Node4 -->
<g id="node4" class="node"><title>Node4</title>
<g id="a_node4"><a xlink:href="windows_8hpp.html" target="_top" xlink:title="provides wrapper classes to windows.h for exception safety">
<polygon fill="none" stroke="black" points="486.5,-136.5 486.5,-155.5 647.5,-155.5 647.5,-136.5 486.5,-136.5"/>
<text text-anchor="middle" x="567" y="-143.5" font-family="Helvetica,sans-Serif" font-size="10.00">WacomGSS/Win32/windows.hpp</text>
</a>
</g>
</g>
<!-- Node1&#45;&gt;Node4 -->
<g id="edge3" class="edge"><title>Node1&#45;&gt;Node4</title>
<path fill="none" stroke="midnightblue" d="M567,-181.805C567,-172.91 567,-162.78 567,-155.751"/>
<polygon fill="midnightblue" stroke="midnightblue" points="563.5,-182.083 567,-192.083 570.5,-182.083 563.5,-182.083"/>
</g>
<!-- Node16 -->
<g id="node16" class="node"><title>Node16</title>
<g id="a_node16"><a xlink:href="winhttp_8hpp.html" target="_top" xlink:title="provides wrapper for winhttp.h">
<polygon fill="none" stroke="black" points="665.5,-136.5 665.5,-155.5 820.5,-155.5 820.5,-136.5 665.5,-136.5"/>
<text text-anchor="middle" x="743" y="-143.5" font-family="Helvetica,sans-Serif" font-size="10.00">WacomGSS/Win32/winhttp.hpp</text>
</a>
</g>
</g>
<!-- Node1&#45;&gt;Node16 -->
<g id="edge16" class="edge"><title>Node1&#45;&gt;Node16</title>
<path fill="none" stroke="midnightblue" d="M604.689,-189.436C637.872,-179.255 685.428,-164.664 715.243,-155.516"/>
<polygon fill="midnightblue" stroke="midnightblue" points="603.421,-186.164 594.888,-192.444 605.475,-192.856 603.421,-186.164"/>
</g>
<!-- Node3 -->
<g id="node3" class="node"><title>Node3</title>
<g id="a_node3"><a xlink:href="_tablet___open_s_s_l_8hpp.html" target="_top" xlink:title="A higher level interface to provide simplified access.">
<polygon fill="none" stroke="black" points="0,-69 0,-99 122,-99 122,-69 0,-69"/>
<text text-anchor="start" x="8" y="-87" font-family="Helvetica,sans-Serif" font-size="10.00">WacomGSS/STU/Tablet</text>
<text text-anchor="middle" x="61" y="-76" font-family="Helvetica,sans-Serif" font-size="10.00">_OpenSSL.hpp</text>
</a>
</g>
</g>
<!-- Node2&#45;&gt;Node3 -->
<g id="edge2" class="edge"><title>Node2&#45;&gt;Node3</title>
<path fill="none" stroke="midnightblue" d="M196.975,-132.991C169.212,-123.192 129.943,-109.333 100.738,-99.0253"/>
<polygon fill="midnightblue" stroke="midnightblue" points="196.048,-136.376 206.643,-136.403 198.378,-129.775 196.048,-136.376"/>
</g>
<!-- Node5 -->
<g id="node5" class="node"><title>Node5</title>
<g id="a_node5"><a xlink:href="cfgmgr32_8hpp.html" target="_top" xlink:title="provides wrapper classes to cfgmgr32.h for exception safety">
<polygon fill="none" stroke="black" points="140,-74.5 140,-93.5 304,-93.5 304,-74.5 140,-74.5"/>
<text text-anchor="middle" x="222" y="-81.5" font-family="Helvetica,sans-Serif" font-size="10.00">WacomGSS/Win32/cfgmgr32.hpp</text>
</a>
</g>
</g>
<!-- Node4&#45;&gt;Node5 -->
<g id="edge4" class="edge"><title>Node4&#45;&gt;Node5</title>
<path fill="none" stroke="midnightblue" d="M507.97,-134.734C441.079,-123.101 333.275,-104.352 270.894,-93.5034"/>
<polygon fill="midnightblue" stroke="midnightblue" points="507.484,-138.202 517.936,-136.467 508.684,-131.305 507.484,-138.202"/>
</g>
<!-- Node7 -->
<g id="node7" class="node"><title>Node7</title>
<g id="a_node7"><a xlink:href="com_8hpp.html" target="_top" xlink:title="provides wrapper class for COM objects">
<polygon fill="none" stroke="black" points="495.5,-74.5 495.5,-93.5 638.5,-93.5 638.5,-74.5 495.5,-74.5"/>
<text text-anchor="middle" x="567" y="-81.5" font-family="Helvetica,sans-Serif" font-size="10.00">WacomGSS/Win32/com.hpp</text>
</a>
</g>
</g>
<!-- Node4&#45;&gt;Node7 -->
<g id="edge6" class="edge"><title>Node4&#45;&gt;Node7</title>
<path fill="none" stroke="midnightblue" d="M567,-126.16C567,-115.248 567,-102.04 567,-93.5806"/>
<polygon fill="midnightblue" stroke="midnightblue" points="563.5,-126.403 567,-136.403 570.5,-126.403 563.5,-126.403"/>
</g>
<!-- Node12 -->
<g id="node12" class="node"><title>Node12</title>
<g id="a_node12"><a xlink:href="gdiplus_8hpp.html" target="_top" xlink:title="provides wrapper classes to gdiplus.h for exception safety">
<polygon fill="none" stroke="black" points="322.5,-74.5 322.5,-93.5 477.5,-93.5 477.5,-74.5 322.5,-74.5"/>
<text text-anchor="middle" x="400" y="-81.5" font-family="Helvetica,sans-Serif" font-size="10.00">WacomGSS/Win32/gdiplus.hpp</text>
</a>
</g>
</g>
<!-- Node4&#45;&gt;Node12 -->
<g id="edge11" class="edge"><title>Node4&#45;&gt;Node12</title>
<path fill="none" stroke="midnightblue" d="M533.552,-132.983C501.09,-121.32 452.633,-103.91 423.883,-93.5806"/>
<polygon fill="midnightblue" stroke="midnightblue" points="532.478,-136.316 543.073,-136.403 534.845,-129.728 532.478,-136.316"/>
</g>
<!-- Node13 -->
<g id="node13" class="node"><title>Node13</title>
<g id="a_node13"><a xlink:href="hidsdi_8hpp.html" target="_top" xlink:title="provides wrapper classes to hidsdi.h for exception safety">
<polygon fill="none" stroke="black" points="656.5,-74.5 656.5,-93.5 805.5,-93.5 805.5,-74.5 656.5,-74.5"/>
<text text-anchor="middle" x="731" y="-81.5" font-family="Helvetica,sans-Serif" font-size="10.00">WacomGSS/Win32/hidsdi.hpp</text>
</a>
</g>
</g>
<!-- Node4&#45;&gt;Node13 -->
<g id="edge13" class="edge"><title>Node4&#45;&gt;Node13</title>
<path fill="none" stroke="midnightblue" d="M600.261,-132.831C632.136,-121.17 679.434,-103.865 707.546,-93.5806"/>
<polygon fill="midnightblue" stroke="midnightblue" points="598.686,-129.681 590.497,-136.403 601.091,-136.255 598.686,-129.681"/>
</g>
<!-- Node14 -->
<g id="node14" class="node"><title>Node14</title>
<g id="a_node14"><a xlink:href="setupapi_8hpp.html" target="_top" xlink:title="provides wrapper classes to setupapi.h for exception safety">
<polygon fill="none" stroke="black" points="823.5,-74.5 823.5,-93.5 984.5,-93.5 984.5,-74.5 823.5,-74.5"/>
<text text-anchor="middle" x="904" y="-81.5" font-family="Helvetica,sans-Serif" font-size="10.00">WacomGSS/Win32/setupapi.hpp</text>
</a>
</g>
</g>
<!-- Node4&#45;&gt;Node14 -->
<g id="edge14" class="edge"><title>Node4&#45;&gt;Node14</title>
<path fill="none" stroke="midnightblue" d="M625.064,-134.662C690.433,-123.024 795.43,-104.33 856.239,-93.5034"/>
<polygon fill="midnightblue" stroke="midnightblue" points="624.158,-131.268 614.926,-136.467 625.385,-138.16 624.158,-131.268"/>
</g>
<!-- Node15 -->
<g id="node15" class="node"><title>Node15</title>
<g id="a_node15"><a xlink:href="winusb_8hpp.html" target="_top" xlink:title="provides wrapper classes to winusb.h for exception safety">
<polygon fill="none" stroke="black" points="1003,-74.5 1003,-93.5 1157,-93.5 1157,-74.5 1003,-74.5"/>
<text text-anchor="middle" x="1080" y="-81.5" font-family="Helvetica,sans-Serif" font-size="10.00">WacomGSS/Win32/winusb.hpp</text>
</a>
</g>
</g>
<!-- Node4&#45;&gt;Node15 -->
<g id="edge15" class="edge"><title>Node4&#45;&gt;Node15</title>
<path fill="none" stroke="midnightblue" d="M657.858,-135.723C773.082,-123.908 960.733,-104.481 993,-100 1006.36,-98.1447 1020.81,-95.7925 1034.03,-93.5042"/>
<polygon fill="midnightblue" stroke="midnightblue" points="657.221,-132.27 647.63,-136.771 657.935,-139.233 657.221,-132.27"/>
</g>
<!-- Node6 -->
<g id="node6" class="node"><title>Node6</title>
<g id="a_node6"><a xlink:href="get_device_power_state_8hpp.html" target="_top" xlink:title="provides a wrapper for retrieving the power state of a device">
<polygon fill="none" stroke="black" points="148.5,-1 148.5,-31 295.5,-31 295.5,-1 148.5,-1"/>
<text text-anchor="start" x="156.5" y="-19" font-family="Helvetica,sans-Serif" font-size="10.00">WacomGSS/Win32/getDevice</text>
<text text-anchor="middle" x="222" y="-8" font-family="Helvetica,sans-Serif" font-size="10.00">PowerState.hpp</text>
</a>
</g>
</g>
<!-- Node5&#45;&gt;Node6 -->
<g id="edge5" class="edge"><title>Node5&#45;&gt;Node6</title>
<path fill="none" stroke="midnightblue" d="M222,-64.1737C222,-53.6781 222,-40.8209 222,-31.1815"/>
<polygon fill="midnightblue" stroke="midnightblue" points="218.5,-64.3716 222,-74.3717 225.5,-64.3717 218.5,-64.3716"/>
</g>
<!-- Node8 -->
<g id="node8" class="node"><title>Node8</title>
<g id="a_node8"><a xlink:href="_win32_2_protocol_helper_8hpp.html" target="_top" xlink:title="Provides higher level assistance to using the STU tablet protocol.">
<polygon fill="none" stroke="black" points="338,-1 338,-31 462,-31 462,-1 338,-1"/>
<text text-anchor="start" x="346" y="-19" font-family="Helvetica,sans-Serif" font-size="10.00">WacomGSS/STU/Win32</text>
<text text-anchor="middle" x="400" y="-8" font-family="Helvetica,sans-Serif" font-size="10.00">/ProtocolHelper.hpp</text>
</a>
</g>
</g>
<!-- Node7&#45;&gt;Node8 -->
<g id="edge7" class="edge"><title>Node7&#45;&gt;Node8</title>
<path fill="none" stroke="midnightblue" d="M535.708,-70.6331C507.251,-59.3867 465.284,-42.801 435.567,-31.0562"/>
<polygon fill="midnightblue" stroke="midnightblue" points="534.581,-73.9511 545.168,-74.3717 537.154,-67.4411 534.581,-73.9511"/>
</g>
<!-- Node9 -->
<g id="node9" class="node"><title>Node9</title>
<g id="a_node9"><a xlink:href="debug___type_info_8hpp.html" target="_top" xlink:title="decodes TypeInfo for displaying">
<polygon fill="none" stroke="black" points="480.5,-1 480.5,-31 611.5,-31 611.5,-1 480.5,-1"/>
<text text-anchor="start" x="488.5" y="-19" font-family="Helvetica,sans-Serif" font-size="10.00">WacomGSS/Win32/debug</text>
<text text-anchor="middle" x="546" y="-8" font-family="Helvetica,sans-Serif" font-size="10.00">_TypeInfo.hpp</text>
</a>
</g>
</g>
<!-- Node7&#45;&gt;Node9 -->
<g id="edge8" class="edge"><title>Node7&#45;&gt;Node9</title>
<path fill="none" stroke="midnightblue" d="M561.222,-64.8404C557.845,-54.2266 553.645,-41.026 550.512,-31.1815"/>
<polygon fill="midnightblue" stroke="midnightblue" points="557.887,-65.9036 564.255,-74.3717 564.558,-63.7812 557.887,-65.9036"/>
</g>
<!-- Node10 -->
<g id="node10" class="node"><title>Node10</title>
<g id="a_node10"><a xlink:href="dispex_8hpp.html" target="_top" xlink:title="provides wrapper for d2d1.h">
<polygon fill="none" stroke="black" points="630,-6.5 630,-25.5 782,-25.5 782,-6.5 630,-6.5"/>
<text text-anchor="middle" x="706" y="-13.5" font-family="Helvetica,sans-Serif" font-size="10.00">WacomGSS/Win32/dispex.hpp</text>
</a>
</g>
</g>
<!-- Node7&#45;&gt;Node10 -->
<g id="edge9" class="edge"><title>Node7&#45;&gt;Node10</title>
<path fill="none" stroke="midnightblue" d="M594.306,-70.0346C621.972,-56.898 663.992,-36.9463 687.824,-25.6305"/>
<polygon fill="midnightblue" stroke="midnightblue" points="592.704,-66.9207 585.172,-74.3717 595.706,-73.244 592.704,-66.9207"/>
</g>
<!-- Node11 -->
<g id="node11" class="node"><title>Node11</title>
<g id="a_node11"><a xlink:href="_safe_array_8hpp.html" target="_top" xlink:title="provides helper classes for the Windows SAFEARRAY struct">
<polygon fill="none" stroke="black" points="800.5,-6.5 800.5,-25.5 967.5,-25.5 967.5,-6.5 800.5,-6.5"/>
<text text-anchor="middle" x="884" y="-13.5" font-family="Helvetica,sans-Serif" font-size="10.00">WacomGSS/Win32/SafeArray.hpp</text>
</a>
</g>
</g>
<!-- Node7&#45;&gt;Node11 -->
<g id="edge10" class="edge"><title>Node7&#45;&gt;Node11</title>
<path fill="none" stroke="midnightblue" d="M618.16,-72.3484C680.728,-59.3217 785.391,-37.5306 842.956,-25.5455"/>
<polygon fill="midnightblue" stroke="midnightblue" points="617.194,-68.9744 608.117,-74.4393 618.621,-75.8274 617.194,-68.9744"/>
</g>
<!-- Node12&#45;&gt;Node8 -->
<g id="edge12" class="edge"><title>Node12&#45;&gt;Node8</title>
<path fill="none" stroke="midnightblue" d="M400,-64.1737C400,-53.6781 400,-40.8209 400,-31.1815"/>
<polygon fill="midnightblue" stroke="midnightblue" points="396.5,-64.3716 400,-74.3717 403.5,-64.3717 396.5,-64.3716"/>
</g>
</g>
</svg>
