<?xml version="1.0" encoding="UTF-8" standalone="no"?>
<!DOCTYPE svg PUBLIC "-//W3C//DTD SVG 1.1//EN"
 "http://www.w3.org/Graphics/SVG/1.1/DTD/svg11.dtd">
<!-- Generated by graphviz version 2.30.0 (20130114.0323)
 -->
<!-- Title: com.WacomGSS.STU.UsbDevice_Win32 Pages: 1 -->
<svg width="172pt" height="96pt"
 viewBox="0.00 0.00 172.00 96.00" xmlns="http://www.w3.org/2000/svg" xmlns:xlink="http://www.w3.org/1999/xlink">
<g id="graph0" class="graph" transform="scale(1 1) rotate(0) translate(4 92)">
<title>com.WacomGSS.STU.UsbDevice_Win32</title>
<!-- Node1 -->
<g id="node1" class="node"><title>Node1</title>
<polygon fill="#bfbfbf" stroke="black" points="0,-1 0,-31 164,-31 164,-1 0,-1"/>
<text text-anchor="start" x="8" y="-19" font-family="Helvetica,sans-Serif" font-size="10.00">com.WacomGSS.STU.UsbDevice</text>
<text text-anchor="middle" x="82" y="-8" font-family="Helvetica,sans-Serif" font-size="10.00">_Win32</text>
</g>
<!-- Node2 -->
<g id="node2" class="node"><title>Node2</title>
<g id="a_node2"><a xlink:href="classcom_1_1_wacom_g_s_s_1_1_s_t_u_1_1_usb_device.html" target="_top" xlink:title="Represents a USB STU tablet device.">
<polygon fill="none" stroke="black" points="0,-68.5 0,-87.5 164,-87.5 164,-68.5 0,-68.5"/>
<text text-anchor="middle" x="82" y="-75.5" font-family="Helvetica,sans-Serif" font-size="10.00">com.WacomGSS.STU.UsbDevice</text>
</a>
</g>
</g>
<!-- Node2&#45;&gt;Node1 -->
<g id="edge1" class="edge"><title>Node2&#45;&gt;Node1</title>
<path fill="none" stroke="midnightblue" d="M82,-58.3707C82,-49.5849 82,-39.2721 82,-31.1408"/>
<polygon fill="midnightblue" stroke="midnightblue" points="78.5001,-58.4034 82,-68.4035 85.5001,-58.4035 78.5001,-58.4034"/>
</g>
</g>
</svg>
