<?xml version="1.0" encoding="UTF-8" standalone="no"?>
<!DOCTYPE svg PUBLIC "-//W3C//DTD SVG 1.1//EN"
 "http://www.w3.org/Graphics/SVG/1.1/DTD/svg11.dtd">
<!-- Generated by graphviz version 2.30.0 (20130114.0323)
 -->
<!-- Title: com.WacomGSS.STU.STUException Pages: 1 -->
<!--zoomable 381 -->
<svg id="main" version="1.1" xmlns="http://www.w3.org/2000/svg" xmlns:xlink="http://www.w3.org/1999/xlink" xml:space="preserve" onload="init(evt)">
        <defs>
                <circle id="rim" cx="0" cy="0" r="7"/>
                <circle id="rim2" cx="0" cy="0" r="3.5"/>
                <g id="zoomPlus">
                        <use xlink:href="#rim" fill="#404040">
                                <set attributeName="fill" to="#808080" begin="zoomplus.mouseover" end="zoomplus.mouseout"/>
                        </use>
                        <path d="M-4,0h8M0,-4v8" fill="none" stroke="white" stroke-width="1.5" pointer-events="none"/>
                </g>
                <g id="zoomMin">
                        <use xlink:href="#rim" fill="#404040">
                                <set attributeName="fill" to="#808080" begin="zoomminus.mouseover" end="zoomminus.mouseout"/>
                        </use>
                        <path d="M-4,0h8" fill="none" stroke="white" stroke-width="1.5" pointer-events="none"/>
                </g>
                <g id="dirArrow">
                        <path fill="none" stroke="white" stroke-width="1.5" d="M0,-3.0v7 M-2.5,-0.5L0,-3.0L2.5,-0.5"/>
                </g>
               <g id="resetDef">
                       <use xlink:href="#rim2" fill="#404040">
                               <set attributeName="fill" to="#808080" begin="reset.mouseover" end="reset.mouseout"/>
                       </use>
               </g>
        </defs>

<script type="text/javascript">
var viewWidth = 586;
var viewHeight = 381;
var sectionId = 'dynsection-0';
</script>
<script xlink:href="svgpan.js"/>
<svg id="graph" class="graph">
<g id="viewport">
<title>com.WacomGSS.STU.STUException</title>
<!-- Node1 -->
<g id="node1" class="node"><title>Node1</title>
<polygon fill="#bfbfbf" stroke="black" points="176,-176.5 176,-195.5 356,-195.5 356,-176.5 176,-176.5"/>
<text text-anchor="middle" x="266" y="-183.5" font-family="Helvetica,sans-Serif" font-size="10.00">com.WacomGSS.STU.STUException</text>
</g>
<!-- Node3 -->
<g id="node3" class="node"><title>Node3</title>
<g id="a_node3"><a xlink:href="classcom_1_1_wacom_g_s_s_1_1_s_t_u_1_1_device_removed_exception.html" target="_top" xlink:title="Typically thrown when the device which was connected is unexpectly removed.">
<polygon fill="none" stroke="black" points="392,-343 392,-373 578,-373 578,-343 392,-343"/>
<text text-anchor="start" x="400" y="-361" font-family="Helvetica,sans-Serif" font-size="10.00">com.WacomGSS.STU.DeviceRemoved</text>
<text text-anchor="middle" x="485" y="-350" font-family="Helvetica,sans-Serif" font-size="10.00">Exception</text>
</a>
</g>
</g>
<!-- Node1&#45;&gt;Node3 -->
<g id="edge2" class="edge"><title>Node1&#45;&gt;Node3</title>
<path fill="none" stroke="midnightblue" d="M277.613,-204.616C296.482,-235.998 338.92,-299.297 392,-333 398.148,-336.904 404.9,-340.204 411.868,-342.993"/>
<polygon fill="midnightblue" stroke="midnightblue" points="280.415,-202.476 272.332,-195.627 274.38,-206.022 280.415,-202.476"/>
</g>
<!-- Node4 -->
<g id="node4" class="node"><title>Node4</title>
<g id="a_node4"><a xlink:href="classcom_1_1_wacom_g_s_s_1_1_s_t_u_1_1_error_code_exception.html" target="_top" xlink:title="Thrown by Tablet class methods when Status.getLastResultCode() &#160;indicates that a lower&#45;level method h...">
<polygon fill="none" stroke="black" points="404.5,-294 404.5,-324 565.5,-324 565.5,-294 404.5,-294"/>
<text text-anchor="start" x="412.5" y="-312" font-family="Helvetica,sans-Serif" font-size="10.00">com.WacomGSS.STU.ErrorCode</text>
<text text-anchor="middle" x="485" y="-301" font-family="Helvetica,sans-Serif" font-size="10.00">Exception</text>
</a>
</g>
</g>
<!-- Node1&#45;&gt;Node4 -->
<g id="edge3" class="edge"><title>Node1&#45;&gt;Node4</title>
<path fill="none" stroke="midnightblue" d="M283.839,-202.887C306.506,-224.696 348.977,-262.409 392,-284 399.544,-287.786 407.734,-291.056 416.013,-293.865"/>
<polygon fill="midnightblue" stroke="midnightblue" points="286.017,-200.121 276.42,-195.631 281.122,-205.126 286.017,-200.121"/>
</g>
<!-- Node5 -->
<g id="node5" class="node"><title>Node5</title>
<g id="a_node5"><a xlink:href="classcom_1_1_wacom_g_s_s_1_1_s_t_u_1_1_i_o_error_exception.html" target="_top" xlink:title="Thrown when a low&#45;level I/O error occurs.">
<polygon fill="none" stroke="black" points="410.5,-245 410.5,-275 559.5,-275 559.5,-245 410.5,-245"/>
<text text-anchor="start" x="418.5" y="-263" font-family="Helvetica,sans-Serif" font-size="10.00">com.WacomGSS.STU.IOError</text>
<text text-anchor="middle" x="485" y="-252" font-family="Helvetica,sans-Serif" font-size="10.00">Exception</text>
</a>
</g>
</g>
<!-- Node1&#45;&gt;Node5 -->
<g id="edge4" class="edge"><title>Node1&#45;&gt;Node5</title>
<path fill="none" stroke="midnightblue" d="M298.68,-199.518C323.743,-209.944 359.765,-224.337 392,-235 402.528,-238.483 413.848,-241.855 424.822,-244.936"/>
<polygon fill="midnightblue" stroke="midnightblue" points="299.889,-196.23 289.314,-195.594 297.184,-202.686 299.889,-196.23"/>
</g>
<!-- Node6 -->
<g id="node6" class="node"><title>Node6</title>
<g id="a_node6"><a xlink:href="classcom_1_1_wacom_g_s_s_1_1_s_t_u_1_1_not_connected_exception.html" target="_top" xlink:title="Thrown if an IO api is called when the object is not connected to a tablet.">
<polygon fill="none" stroke="black" points="395.5,-196 395.5,-226 574.5,-226 574.5,-196 395.5,-196"/>
<text text-anchor="start" x="403.5" y="-214" font-family="Helvetica,sans-Serif" font-size="10.00">com.WacomGSS.STU.NotConnected</text>
<text text-anchor="middle" x="485" y="-203" font-family="Helvetica,sans-Serif" font-size="10.00">Exception</text>
</a>
</g>
</g>
<!-- Node1&#45;&gt;Node6 -->
<g id="edge5" class="edge"><title>Node1&#45;&gt;Node6</title>
<path fill="none" stroke="midnightblue" d="M359.927,-196.706C371.702,-198.062 383.726,-199.448 395.431,-200.796"/>
<polygon fill="midnightblue" stroke="midnightblue" points="359.992,-193.19 349.657,-195.523 359.191,-200.144 359.992,-193.19"/>
</g>
<!-- Node7 -->
<g id="node7" class="node"><title>Node7</title>
<g id="a_node7"><a xlink:href="classcom_1_1_wacom_g_s_s_1_1_s_t_u_1_1_not_supported_exception.html" target="_top" xlink:title="Thrown by Tablet class if you attempt to use an unsupported report type.">
<polygon fill="none" stroke="black" points="396.5,-147 396.5,-177 573.5,-177 573.5,-147 396.5,-147"/>
<text text-anchor="start" x="404.5" y="-165" font-family="Helvetica,sans-Serif" font-size="10.00">com.WacomGSS.STU.NotSupported</text>
<text text-anchor="middle" x="485" y="-154" font-family="Helvetica,sans-Serif" font-size="10.00">Exception</text>
</a>
</g>
</g>
<!-- Node1&#45;&gt;Node7 -->
<g id="edge6" class="edge"><title>Node1&#45;&gt;Node7</title>
<path fill="none" stroke="midnightblue" d="M363.135,-175.368C374.155,-174.149 385.348,-172.911 396.251,-171.705"/>
<polygon fill="midnightblue" stroke="midnightblue" points="362.63,-171.902 353.076,-176.48 363.4,-178.86 362.63,-171.902"/>
</g>
<!-- Node8 -->
<g id="node8" class="node"><title>Node8</title>
<g id="a_node8"><a xlink:href="classcom_1_1_wacom_g_s_s_1_1_s_t_u_1_1_set_error_exception.html" target="_top" xlink:title="Thrown when the tablet responds to the data sent by set() with an error code.">
<polygon fill="none" stroke="black" points="408,-98 408,-128 562,-128 562,-98 408,-98"/>
<text text-anchor="start" x="416" y="-116" font-family="Helvetica,sans-Serif" font-size="10.00">com.WacomGSS.STU.SetError</text>
<text text-anchor="middle" x="485" y="-105" font-family="Helvetica,sans-Serif" font-size="10.00">Exception</text>
</a>
</g>
</g>
<!-- Node1&#45;&gt;Node8 -->
<g id="edge7" class="edge"><title>Node1&#45;&gt;Node8</title>
<path fill="none" stroke="midnightblue" d="M298.651,-172.39C323.697,-161.915 359.711,-147.499 392,-137 401.733,-133.835 412.147,-130.796 422.343,-128.006"/>
<polygon fill="midnightblue" stroke="midnightblue" points="297.146,-169.226 289.291,-176.336 299.865,-175.677 297.146,-169.226"/>
</g>
<!-- Node9 -->
<g id="node9" class="node"><title>Node9</title>
<g id="a_node9"><a xlink:href="classcom_1_1_wacom_g_s_s_1_1_s_t_u_1_1_timeout_exception.html" target="_top" xlink:title="Thrown when an I/O error has occured that cannot be retried within the allowed time limit...">
<polygon fill="none" stroke="black" points="409,-49 409,-79 561,-79 561,-49 409,-49"/>
<text text-anchor="start" x="417" y="-67" font-family="Helvetica,sans-Serif" font-size="10.00">com.WacomGSS.STU.Timeout</text>
<text text-anchor="middle" x="485" y="-56" font-family="Helvetica,sans-Serif" font-size="10.00">Exception</text>
</a>
</g>
</g>
<!-- Node1&#45;&gt;Node9 -->
<g id="edge8" class="edge"><title>Node1&#45;&gt;Node9</title>
<path fill="none" stroke="midnightblue" d="M283.806,-169.046C306.437,-147.164 348.868,-109.372 392,-88 398.804,-84.6287 406.133,-81.6941 413.579,-79.1481"/>
<polygon fill="midnightblue" stroke="midnightblue" points="281.077,-166.821 276.4,-176.328 285.984,-171.813 281.077,-166.821"/>
</g>
<!-- Node10 -->
<g id="node10" class="node"><title>Node10</title>
<g id="a_node10"><a xlink:href="classcom_1_1_wacom_g_s_s_1_1_s_t_u_1_1_write_not_supported_exception.html" target="_top" xlink:title="Thrown when a call to write() is made on an object which does not support write.">
<polygon fill="none" stroke="black" points="407,-0 407,-30 563,-30 563,-0 407,-0"/>
<text text-anchor="start" x="415" y="-18" font-family="Helvetica,sans-Serif" font-size="10.00">com.WacomGSS.STU.WriteNot</text>
<text text-anchor="middle" x="485" y="-7" font-family="Helvetica,sans-Serif" font-size="10.00">SupportedException</text>
</a>
</g>
</g>
<!-- Node1&#45;&gt;Node10 -->
<g id="edge9" class="edge"><title>Node1&#45;&gt;Node10</title>
<path fill="none" stroke="midnightblue" d="M277.577,-167.326C296.391,-135.858 338.75,-72.433 392,-39 397.452,-35.5769 403.378,-32.6398 409.507,-30.12"/>
<polygon fill="midnightblue" stroke="midnightblue" points="274.332,-165.941 272.312,-176.342 280.377,-169.472 274.332,-165.941"/>
</g>
<!-- Node2 -->
<g id="node2" class="node"><title>Node2</title>
<g id="a_node2"><a xlink:href="classcom_1_1_wacom_g_s_s_1_1_exception.html" target="_top" xlink:title="Base class for checked exceptions thrown by WacomGSS code.">
<polygon fill="none" stroke="black" points="0,-176.5 0,-195.5 140,-195.5 140,-176.5 0,-176.5"/>
<text text-anchor="middle" x="70" y="-183.5" font-family="Helvetica,sans-Serif" font-size="10.00">com.WacomGSS.Exception</text>
</a>
</g>
</g>
<!-- Node2&#45;&gt;Node1 -->
<g id="edge1" class="edge"><title>Node2&#45;&gt;Node1</title>
<path fill="none" stroke="midnightblue" d="M150.345,-186C158.737,-186 167.312,-186 175.806,-186"/>
<polygon fill="midnightblue" stroke="midnightblue" points="150.217,-182.5 140.217,-186 150.217,-189.5 150.217,-182.5"/>
</g>
</g>
</svg>
        <g id="navigator" transform="translate(0 0)" fill="#404254">
                <rect fill="#f2f5e9" fill-opacity="0.5" stroke="#606060" stroke-width=".5" x="0" y="0" width="60" height="60"/>
                <use id="zoomplus" xlink:href="#zoomPlus" x="17" y="9" onmousedown="handleZoom(evt,'in')"/>
                <use id="zoomminus" xlink:href="#zoomMin" x="42" y="9" onmousedown="handleZoom(evt,'out')"/>
                <use id="reset" xlink:href="#resetDef" x="30" y="36" onmousedown="handleReset()"/>
                <g id="arrowUp" xlink:href="#dirArrow" transform="translate(30 24)" onmousedown="handlePan(0,-1)">
                  <use xlink:href="#rim" fill="#404040">
                        <set attributeName="fill" to="#808080" begin="arrowUp.mouseover" end="arrowUp.mouseout"/>
                  </use>
                  <path fill="none" stroke="white" stroke-width="1.5" d="M0,-3.0v7 M-2.5,-0.5L0,-3.0L2.5,-0.5"/>
                </g>
                <g id="arrowRight" xlink:href="#dirArrow" transform="rotate(90) translate(36 -43)" onmousedown="handlePan(1,0)">
                  <use xlink:href="#rim" fill="#404040">
                        <set attributeName="fill" to="#808080" begin="arrowRight.mouseover" end="arrowRight.mouseout"/>
                  </use>
                  <path fill="none" stroke="white" stroke-width="1.5" d="M0,-3.0v7 M-2.5,-0.5L0,-3.0L2.5,-0.5"/>
                </g>
                <g id="arrowDown" xlink:href="#dirArrow" transform="rotate(180) translate(-30 -48)" onmousedown="handlePan(0,1)">
                  <use xlink:href="#rim" fill="#404040">
                        <set attributeName="fill" to="#808080" begin="arrowDown.mouseover" end="arrowDown.mouseout"/>
                  </use>
                  <path fill="none" stroke="white" stroke-width="1.5" d="M0,-3.0v7 M-2.5,-0.5L0,-3.0L2.5,-0.5"/>
                </g>
                <g id="arrowLeft" xlink:href="#dirArrow" transform="rotate(270) translate(-36 17)" onmousedown="handlePan(-1,0)">
                  <use xlink:href="#rim" fill="#404040">
                        <set attributeName="fill" to="#808080" begin="arrowLeft.mouseover" end="arrowLeft.mouseout"/>
                  </use>
                  <path fill="none" stroke="white" stroke-width="1.5" d="M0,-3.0v7 M-2.5,-0.5L0,-3.0L2.5,-0.5"/>
                </g>
        </g>
        <svg viewBox="0 0 15 15" width="100%" height="30px" preserveAspectRatio="xMaxYMin meet">
         <g id="arrow_out" transform="scale(0.3 0.3)">
          <a xlink:href="classcom_1_1_wacom_g_s_s_1_1_s_t_u_1_1_s_t_u_exception__inherit__graph_org.svg" target="_base">
           <rect id="button" ry="5" rx="5" y="6" x="6" height="38" width="38"
                fill="#f2f5e9" fill-opacity="0.5" stroke="#606060" stroke-width="1.0"/>
           <path id="arrow"
             d="M 11.500037,31.436501 C 11.940474,20.09759 22.043105,11.32322 32.158766,21.979434 L 37.068811,17.246167 C 37.068811,17.246167 37.088388,32 37.088388,32 L 22.160133,31.978069 C 22.160133,31.978069 26.997745,27.140456 26.997745,27.140456 C 18.528582,18.264221 13.291696,25.230495 11.500037,31.436501 z"
             style="fill:#404040;"/>
          </a>
         </g>
        </svg>
</svg>
