<?xml version="1.0" encoding="UTF-8" standalone="no"?>
<!DOCTYPE svg PUBLIC "-//W3C//DTD SVG 1.1//EN"
 "http://www.w3.org/Graphics/SVG/1.1/DTD/svg11.dtd">
<!-- Generated by graphviz version 2.30.0 (20130114.0323)
 -->
<!-- Title: com.WacomGSS.STU.Interface Pages: 1 -->
<svg width="377pt" height="140pt"
 viewBox="0.00 0.00 377.00 140.00" xmlns="http://www.w3.org/2000/svg" xmlns:xlink="http://www.w3.org/1999/xlink">
<g id="graph0" class="graph" transform="scale(1 1) rotate(0) translate(4 136)">
<title>com.WacomGSS.STU.Interface</title>
<!-- Node1 -->
<g id="node1" class="node"><title>Node1</title>
<polygon fill="#bfbfbf" stroke="black" points="108.5,-112.5 108.5,-131.5 263.5,-131.5 263.5,-112.5 108.5,-112.5"/>
<text text-anchor="middle" x="186" y="-119.5" font-family="Helvetica,sans-Serif" font-size="10.00">com.WacomGSS.STU.Interface</text>
</g>
<!-- Node2 -->
<g id="node2" class="node"><title>Node2</title>
<g id="a_node2"><a xlink:href="classcom_1_1_wacom_g_s_s_1_1_s_t_u_1_1_native_interface.html" target="_top" xlink:title="Used internally to support JNI calls.">
<polygon fill="none" stroke="black" points="95.5,-56.5 95.5,-75.5 276.5,-75.5 276.5,-56.5 95.5,-56.5"/>
<text text-anchor="middle" x="186" y="-63.5" font-family="Helvetica,sans-Serif" font-size="10.00">com.WacomGSS.STU.NativeInterface</text>
</a>
</g>
</g>
<!-- Node1&#45;&gt;Node2 -->
<g id="edge1" class="edge"><title>Node1&#45;&gt;Node2</title>
<path fill="none" stroke="midnightblue" d="M186,-101.805C186,-92.9102 186,-82.7798 186,-75.7511"/>
<polygon fill="midnightblue" stroke="midnightblue" points="182.5,-102.083 186,-112.083 189.5,-102.083 182.5,-102.083"/>
</g>
<!-- Node3 -->
<g id="node3" class="node"><title>Node3</title>
<g id="a_node3"><a xlink:href="classcom_1_1_wacom_g_s_s_1_1_s_t_u_1_1_serial_interface.html" target="_top" xlink:title="Implements Interface for communicating with an STU tablet over the serial bus.">
<polygon fill="none" stroke="black" points="-0.5,-0.5 -0.5,-19.5 178.5,-19.5 178.5,-0.5 -0.5,-0.5"/>
<text text-anchor="middle" x="89" y="-7.5" font-family="Helvetica,sans-Serif" font-size="10.00">com.WacomGSS.STU.SerialInterface</text>
</a>
</g>
</g>
<!-- Node2&#45;&gt;Node3 -->
<g id="edge2" class="edge"><title>Node2&#45;&gt;Node3</title>
<path fill="none" stroke="midnightblue" d="M161.665,-51.4526C143.757,-41.4835 119.946,-28.2279 104.546,-19.6545"/>
<polygon fill="midnightblue" stroke="midnightblue" points="159.975,-54.5179 170.415,-56.324 163.38,-48.4018 159.975,-54.5179"/>
</g>
<!-- Node4 -->
<g id="node4" class="node"><title>Node4</title>
<g id="a_node4"><a xlink:href="classcom_1_1_wacom_g_s_s_1_1_s_t_u_1_1_usb_interface.html" target="_top" xlink:title="Implements Interface for communicating with an STU tablet over the HID/USB bus.">
<polygon fill="none" stroke="black" points="197,-0.5 197,-19.5 369,-19.5 369,-0.5 197,-0.5"/>
<text text-anchor="middle" x="283" y="-7.5" font-family="Helvetica,sans-Serif" font-size="10.00">com.WacomGSS.STU.UsbInterface</text>
</a>
</g>
</g>
<!-- Node2&#45;&gt;Node4 -->
<g id="edge3" class="edge"><title>Node2&#45;&gt;Node4</title>
<path fill="none" stroke="midnightblue" d="M210.335,-51.4526C228.243,-41.4835 252.054,-28.2279 267.454,-19.6545"/>
<polygon fill="midnightblue" stroke="midnightblue" points="208.62,-48.4018 201.585,-56.324 212.025,-54.5179 208.62,-48.4018"/>
</g>
</g>
</svg>
