<?xml version="1.0" encoding="UTF-8" standalone="no"?>
<!DOCTYPE svg PUBLIC "-//W3C//DTD SVG 1.1//EN"
 "http://www.w3.org/Graphics/SVG/1.1/DTD/svg11.dtd">
<!-- Generated by graphviz version 2.30.0 (20130114.0323)
 -->
<!-- Title: WacomGSS/STU/Interface.hpp Pages: 1 -->
<svg width="437pt" height="276pt"
 viewBox="0.00 0.00 437.00 276.00" xmlns="http://www.w3.org/2000/svg" xmlns:xlink="http://www.w3.org/1999/xlink">
<g id="graph0" class="graph" transform="scale(1 1) rotate(0) translate(4 272)">
<title>WacomGSS/STU/Interface.hpp</title>
<!-- Node1 -->
<g id="node1" class="node"><title>Node1</title>
<polygon fill="#bfbfbf" stroke="black" points="167,-248.5 167,-267.5 319,-267.5 319,-248.5 167,-248.5"/>
<text text-anchor="middle" x="243" y="-255.5" font-family="Helvetica,sans-Serif" font-size="10.00">WacomGSS/STU/Interface.hpp</text>
</g>
<!-- Node2 -->
<g id="node2" class="node"><title>Node2</title>
<g id="a_node2"><a xlink:href="_protocol_8hpp.html" target="_top" xlink:title="Definition of the WacomGSS::STU::Protocol class.">
<polygon fill="none" stroke="black" points="167.5,-192.5 167.5,-211.5 318.5,-211.5 318.5,-192.5 167.5,-192.5"/>
<text text-anchor="middle" x="243" y="-199.5" font-family="Helvetica,sans-Serif" font-size="10.00">WacomGSS/STU/Protocol.hpp</text>
</a>
</g>
</g>
<!-- Node1&#45;&gt;Node2 -->
<g id="edge1" class="edge"><title>Node1&#45;&gt;Node2</title>
<path fill="none" stroke="midnightblue" d="M243,-237.805C243,-228.91 243,-218.78 243,-211.751"/>
<polygon fill="midnightblue" stroke="midnightblue" points="239.5,-238.083 243,-248.083 246.5,-238.083 239.5,-238.083"/>
</g>
<!-- Node3 -->
<g id="node3" class="node"><title>Node3</title>
<g id="a_node3"><a xlink:href="_protocol_helper_8hpp.html" target="_top" xlink:title="Provides higher level assistance to using the STU tablet protocol.">
<polygon fill="none" stroke="black" points="55.5,-136.5 55.5,-155.5 234.5,-155.5 234.5,-136.5 55.5,-136.5"/>
<text text-anchor="middle" x="145" y="-143.5" font-family="Helvetica,sans-Serif" font-size="10.00">WacomGSS/STU/ProtocolHelper.hpp</text>
</a>
</g>
</g>
<!-- Node2&#45;&gt;Node3 -->
<g id="edge2" class="edge"><title>Node2&#45;&gt;Node3</title>
<path fill="none" stroke="midnightblue" d="M218.414,-187.453C200.322,-177.483 176.265,-164.228 160.706,-155.655"/>
<polygon fill="midnightblue" stroke="midnightblue" points="216.807,-190.563 227.255,-192.324 220.185,-184.432 216.807,-190.563"/>
</g>
<!-- Node7 -->
<g id="node7" class="node"><title>Node7</title>
<g id="a_node7"><a xlink:href="_report_handler_8hpp.html" target="_top" xlink:title="Provides simplified decoding of reports.">
<polygon fill="none" stroke="black" points="253,-136.5 253,-155.5 429,-155.5 429,-136.5 253,-136.5"/>
<text text-anchor="middle" x="341" y="-143.5" font-family="Helvetica,sans-Serif" font-size="10.00">WacomGSS/STU/ReportHandler.hpp</text>
</a>
</g>
</g>
<!-- Node2&#45;&gt;Node7 -->
<g id="edge6" class="edge"><title>Node2&#45;&gt;Node7</title>
<path fill="none" stroke="midnightblue" d="M267.586,-187.453C285.678,-177.483 309.735,-164.228 325.294,-155.655"/>
<polygon fill="midnightblue" stroke="midnightblue" points="265.815,-184.432 258.745,-192.324 269.193,-190.563 265.815,-184.432"/>
</g>
<!-- Node4 -->
<g id="node4" class="node"><title>Node4</title>
<g id="a_node4"><a xlink:href="_tablet_8hpp.html" target="_top" xlink:title="A higher level interface to provide simplified access.">
<polygon fill="none" stroke="black" points="-0.5,-74.5 -0.5,-93.5 140.5,-93.5 140.5,-74.5 -0.5,-74.5"/>
<text text-anchor="middle" x="70" y="-81.5" font-family="Helvetica,sans-Serif" font-size="10.00">WacomGSS/STU/Tablet.hpp</text>
</a>
</g>
</g>
<!-- Node3&#45;&gt;Node4 -->
<g id="edge3" class="edge"><title>Node3&#45;&gt;Node4</title>
<path fill="none" stroke="midnightblue" d="M126.058,-129.846C111.713,-118.371 92.5244,-103.02 80.7257,-93.5806"/>
<polygon fill="midnightblue" stroke="midnightblue" points="124.259,-132.89 134.254,-136.403 128.632,-127.423 124.259,-132.89"/>
</g>
<!-- Node6 -->
<g id="node6" class="node"><title>Node6</title>
<g id="a_node6"><a xlink:href="_win32_2_protocol_helper_8hpp.html" target="_top" xlink:title="Provides higher level assistance to using the STU tablet protocol.">
<polygon fill="none" stroke="black" points="159,-69 159,-99 283,-99 283,-69 159,-69"/>
<text text-anchor="start" x="167" y="-87" font-family="Helvetica,sans-Serif" font-size="10.00">WacomGSS/STU/Win32</text>
<text text-anchor="middle" x="221" y="-76" font-family="Helvetica,sans-Serif" font-size="10.00">/ProtocolHelper.hpp</text>
</a>
</g>
</g>
<!-- Node3&#45;&gt;Node6 -->
<g id="edge5" class="edge"><title>Node3&#45;&gt;Node6</title>
<path fill="none" stroke="midnightblue" d="M163.91,-130.071C175.894,-120.61 191.301,-108.447 203.088,-99.1408"/>
<polygon fill="midnightblue" stroke="midnightblue" points="161.569,-127.46 155.889,-136.403 165.907,-132.954 161.569,-127.46"/>
</g>
<!-- Node5 -->
<g id="node5" class="node"><title>Node5</title>
<g id="a_node5"><a xlink:href="_tablet___open_s_s_l_8hpp.html" target="_top" xlink:title="A higher level interface to provide simplified access.">
<polygon fill="none" stroke="black" points="9,-1 9,-31 131,-31 131,-1 9,-1"/>
<text text-anchor="start" x="17" y="-19" font-family="Helvetica,sans-Serif" font-size="10.00">WacomGSS/STU/Tablet</text>
<text text-anchor="middle" x="70" y="-8" font-family="Helvetica,sans-Serif" font-size="10.00">_OpenSSL.hpp</text>
</a>
</g>
</g>
<!-- Node4&#45;&gt;Node5 -->
<g id="edge4" class="edge"><title>Node4&#45;&gt;Node5</title>
<path fill="none" stroke="midnightblue" d="M70,-64.1737C70,-53.6781 70,-40.8209 70,-31.1815"/>
<polygon fill="midnightblue" stroke="midnightblue" points="66.5001,-64.3716 70,-74.3717 73.5001,-64.3717 66.5001,-64.3716"/>
</g>
</g>
</svg>
