<?xml version="1.0" encoding="UTF-8" standalone="no"?>
<!DOCTYPE svg PUBLIC "-//W3C//DTD SVG 1.1//EN"
 "http://www.w3.org/Graphics/SVG/1.1/DTD/svg11.dtd">
<!-- Generated by graphviz version 2.30.0 (20130114.0323)
 -->
<!-- Title: WacomGSS/STU/InterfaceImpl.hpp Pages: 1 -->
<svg width="809pt" height="220pt"
 viewBox="0.00 0.00 809.00 220.00" xmlns="http://www.w3.org/2000/svg" xmlns:xlink="http://www.w3.org/1999/xlink">
<g id="graph0" class="graph" transform="scale(1 1) rotate(0) translate(4 216)">
<title>WacomGSS/STU/InterfaceImpl.hpp</title>
<!-- Node1 -->
<g id="node1" class="node"><title>Node1</title>
<polygon fill="#bfbfbf" stroke="black" points="522,-192.5 522,-211.5 692,-211.5 692,-192.5 522,-192.5"/>
<text text-anchor="middle" x="607" y="-199.5" font-family="Helvetica,sans-Serif" font-size="10.00">WacomGSS/STU/InterfaceImpl.hpp</text>
</g>
<!-- Node2 -->
<g id="node2" class="node"><title>Node2</title>
<g id="a_node2"><a xlink:href="concurrent__queue__with__exception_8hpp.html" target="_top" xlink:title="template class that provides thread&#45;safe producer/consumer pattern.">
<polygon fill="none" stroke="black" points="215.5,-125 215.5,-155 352.5,-155 352.5,-125 215.5,-125"/>
<text text-anchor="start" x="223.5" y="-143" font-family="Helvetica,sans-Serif" font-size="10.00">WacomGSS/concurrent</text>
<text text-anchor="middle" x="284" y="-132" font-family="Helvetica,sans-Serif" font-size="10.00">_queue_with_exception.hpp</text>
</a>
</g>
</g>
<!-- Node1&#45;&gt;Node2 -->
<g id="edge1" class="edge"><title>Node1&#45;&gt;Node2</title>
<path fill="none" stroke="midnightblue" d="M561.065,-192.467C509.507,-182.89 424.952,-167.183 362.789,-155.636"/>
<polygon fill="midnightblue" stroke="midnightblue" points="363.096,-152.133 352.625,-153.748 361.817,-159.015 363.096,-152.133"/>
</g>
<!-- Node7 -->
<g id="node7" class="node"><title>Node7</title>
<g id="a_node7"><a xlink:href="noncopyable_8hpp.html" target="_top" xlink:title="implements the noncopyable pattern">
<polygon fill="none" stroke="black" points="441,-62.5 441,-81.5 589,-81.5 589,-62.5 441,-62.5"/>
<text text-anchor="middle" x="515" y="-69.5" font-family="Helvetica,sans-Serif" font-size="10.00">WacomGSS/noncopyable.hpp</text>
</a>
</g>
</g>
<!-- Node1&#45;&gt;Node7 -->
<g id="edge8" class="edge"><title>Node1&#45;&gt;Node7</title>
<path fill="none" stroke="midnightblue" d="M597.181,-192.311C587.752,-183.67 573.437,-169.751 563,-156 547.016,-134.941 532.389,-108.064 523.588,-90.6947"/>
<polygon fill="midnightblue" stroke="midnightblue" points="526.696,-89.0825 519.113,-81.6824 520.426,-92.1956 526.696,-89.0825"/>
</g>
<!-- Node8 -->
<g id="node8" class="node"><title>Node8</title>
<g id="a_node8"><a xlink:href="atomic_8hpp.html" target="_top" xlink:title="maps class thread from std or boost">
<polygon fill="none" stroke="black" points="607.5,-57 607.5,-87 736.5,-87 736.5,-57 607.5,-57"/>
<text text-anchor="start" x="615.5" y="-75" font-family="Helvetica,sans-Serif" font-size="10.00">WacomGSS/compatibility</text>
<text text-anchor="middle" x="672" y="-64" font-family="Helvetica,sans-Serif" font-size="10.00">/atomic.hpp</text>
</a>
</g>
</g>
<!-- Node1&#45;&gt;Node8 -->
<g id="edge10" class="edge"><title>Node1&#45;&gt;Node8</title>
<path fill="none" stroke="midnightblue" d="M597.38,-192.101C582.674,-177.385 557.734,-147.291 572,-124 580.851,-109.55 595.227,-99.0318 610.353,-91.4422"/>
<polygon fill="midnightblue" stroke="midnightblue" points="612.202,-94.4443 619.825,-87.0861 609.277,-88.0845 612.202,-94.4443"/>
</g>
<!-- Node9 -->
<g id="node9" class="node"><title>Node9</title>
<polygon fill="none" stroke="#bfbfbf" points="581,-130.5 581,-149.5 633,-149.5 633,-130.5 581,-130.5"/>
<text text-anchor="middle" x="607" y="-137.5" font-family="Helvetica,sans-Serif" font-size="10.00">memory</text>
</g>
<!-- Node1&#45;&gt;Node9 -->
<g id="edge12" class="edge"><title>Node1&#45;&gt;Node9</title>
<path fill="none" stroke="midnightblue" d="M607,-192.403C607,-183.938 607,-170.728 607,-159.82"/>
<polygon fill="midnightblue" stroke="midnightblue" points="610.5,-159.581 607,-149.581 603.5,-159.581 610.5,-159.581"/>
</g>
<!-- Node10 -->
<g id="node10" class="node"><title>Node10</title>
<polygon fill="none" stroke="#bfbfbf" points="651,-130.5 651,-149.5 693,-149.5 693,-130.5 651,-130.5"/>
<text text-anchor="middle" x="672" y="-137.5" font-family="Helvetica,sans-Serif" font-size="10.00">vector</text>
</g>
<!-- Node1&#45;&gt;Node10 -->
<g id="edge13" class="edge"><title>Node1&#45;&gt;Node10</title>
<path fill="none" stroke="midnightblue" d="M616.313,-192.403C626.449,-183.047 642.864,-167.895 655.252,-156.46"/>
<polygon fill="midnightblue" stroke="midnightblue" points="657.73,-158.935 662.704,-149.581 652.982,-153.792 657.73,-158.935"/>
</g>
<!-- Node11 -->
<g id="node11" class="node"><title>Node11</title>
<polygon fill="none" stroke="#bfbfbf" points="711.5,-130.5 711.5,-149.5 754.5,-149.5 754.5,-130.5 711.5,-130.5"/>
<text text-anchor="middle" x="733" y="-137.5" font-family="Helvetica,sans-Serif" font-size="10.00">deque</text>
</g>
<!-- Node1&#45;&gt;Node11 -->
<g id="edge14" class="edge"><title>Node1&#45;&gt;Node11</title>
<path fill="none" stroke="midnightblue" d="M625.233,-192.418C644.374,-183.396 675.334,-168.767 702,-156 703.348,-155.355 704.729,-154.692 706.122,-154.022"/>
<polygon fill="midnightblue" stroke="midnightblue" points="707.821,-157.089 715.307,-149.592 704.78,-150.784 707.821,-157.089"/>
</g>
<!-- Node12 -->
<g id="node12" class="node"><title>Node12</title>
<polygon fill="none" stroke="#bfbfbf" points="772.5,-130.5 772.5,-149.5 801.5,-149.5 801.5,-130.5 772.5,-130.5"/>
<text text-anchor="middle" x="787" y="-137.5" font-family="Helvetica,sans-Serif" font-size="10.00">list</text>
</g>
<!-- Node1&#45;&gt;Node12 -->
<g id="edge15" class="edge"><title>Node1&#45;&gt;Node12</title>
<path fill="none" stroke="midnightblue" d="M648.169,-192.427C680.274,-184.964 725.547,-172.713 763,-156 763.864,-155.615 764.733,-155.202 765.603,-154.769"/>
<polygon fill="midnightblue" stroke="midnightblue" points="767.693,-157.607 774.66,-149.625 764.236,-151.521 767.693,-157.607"/>
</g>
<!-- Node3 -->
<g id="node3" class="node"><title>Node3</title>
<g id="a_node3"><a xlink:href="condition__variable_8hpp.html" target="_top" xlink:title="maps class condition_variable from std or boost">
<polygon fill="none" stroke="black" points="-0.5,-57 -0.5,-87 128.5,-87 128.5,-57 -0.5,-57"/>
<text text-anchor="start" x="7.5" y="-75" font-family="Helvetica,sans-Serif" font-size="10.00">WacomGSS/compatibility</text>
<text text-anchor="middle" x="64" y="-64" font-family="Helvetica,sans-Serif" font-size="10.00">/condition_variable.hpp</text>
</a>
</g>
</g>
<!-- Node2&#45;&gt;Node3 -->
<g id="edge2" class="edge"><title>Node2&#45;&gt;Node3</title>
<path fill="none" stroke="midnightblue" d="M237.074,-124.922C203.046,-114.714 156.855,-100.857 120.751,-90.0253"/>
<polygon fill="midnightblue" stroke="midnightblue" points="121.438,-86.5772 110.854,-87.0561 119.426,-93.282 121.438,-86.5772"/>
</g>
<!-- Node5 -->
<g id="node5" class="node"><title>Node5</title>
<g id="a_node5"><a xlink:href="mutex_8hpp.html" target="_top" xlink:title="maps class mutex from std or boost">
<polygon fill="none" stroke="black" points="146.5,-57 146.5,-87 275.5,-87 275.5,-57 146.5,-57"/>
<text text-anchor="start" x="154.5" y="-75" font-family="Helvetica,sans-Serif" font-size="10.00">WacomGSS/compatibility</text>
<text text-anchor="middle" x="211" y="-64" font-family="Helvetica,sans-Serif" font-size="10.00">/mutex.hpp</text>
</a>
</g>
</g>
<!-- Node2&#45;&gt;Node5 -->
<g id="edge4" class="edge"><title>Node2&#45;&gt;Node5</title>
<path fill="none" stroke="midnightblue" d="M268.16,-124.679C258.24,-115.71 245.283,-103.996 234.214,-93.988"/>
<polygon fill="midnightblue" stroke="midnightblue" points="236.323,-91.1766 226.558,-87.0663 231.629,-96.3691 236.323,-91.1766"/>
</g>
<!-- Node6 -->
<g id="node6" class="node"><title>Node6</title>
<g id="a_node6"><a xlink:href="chrono_8hpp.html" target="_top" xlink:title="maps chrono from std or boost">
<polygon fill="none" stroke="black" points="293.5,-57 293.5,-87 422.5,-87 422.5,-57 293.5,-57"/>
<text text-anchor="start" x="301.5" y="-75" font-family="Helvetica,sans-Serif" font-size="10.00">WacomGSS/compatibility</text>
<text text-anchor="middle" x="358" y="-64" font-family="Helvetica,sans-Serif" font-size="10.00">/chrono.hpp</text>
</a>
</g>
</g>
<!-- Node2&#45;&gt;Node6 -->
<g id="edge6" class="edge"><title>Node2&#45;&gt;Node6</title>
<path fill="none" stroke="midnightblue" d="M300.057,-124.679C310.113,-115.71 323.247,-103.996 334.468,-93.988"/>
<polygon fill="midnightblue" stroke="midnightblue" points="337.095,-96.3346 342.229,-87.0663 332.436,-91.1105 337.095,-96.3346"/>
</g>
<!-- Node4 -->
<g id="node4" class="node"><title>Node4</title>
<g id="a_node4"><a xlink:href="config_8hpp.html" target="_top" xlink:title="meta configuration about the compliation platform and compiler">
<polygon fill="none" stroke="black" points="298.5,-0.5 298.5,-19.5 417.5,-19.5 417.5,-0.5 298.5,-0.5"/>
<text text-anchor="middle" x="358" y="-7.5" font-family="Helvetica,sans-Serif" font-size="10.00">WacomGSS/config.hpp</text>
</a>
</g>
</g>
<!-- Node3&#45;&gt;Node4 -->
<g id="edge3" class="edge"><title>Node3&#45;&gt;Node4</title>
<path fill="none" stroke="midnightblue" d="M128.878,-57.6627C131.622,-57.1006 134.338,-56.5445 137,-56 194.832,-44.1705 261.192,-30.6678 305.98,-21.565"/>
<polygon fill="midnightblue" stroke="midnightblue" points="306.937,-24.9422 316.039,-19.5208 305.543,-18.0825 306.937,-24.9422"/>
</g>
<!-- Node5&#45;&gt;Node4 -->
<g id="edge5" class="edge"><title>Node5&#45;&gt;Node4</title>
<path fill="none" stroke="midnightblue" d="M245.465,-56.9327C270.376,-46.7648 303.715,-33.157 327.629,-23.3963"/>
<polygon fill="midnightblue" stroke="midnightblue" points="328.994,-26.6195 336.93,-19.6 326.349,-20.1386 328.994,-26.6195"/>
</g>
<!-- Node6&#45;&gt;Node4 -->
<g id="edge7" class="edge"><title>Node6&#45;&gt;Node4</title>
<path fill="none" stroke="midnightblue" d="M358,-56.7808C358,-48.7812 358,-38.6887 358,-30.0168"/>
<polygon fill="midnightblue" stroke="midnightblue" points="361.5,-29.7305 358,-19.7305 354.5,-29.7306 361.5,-29.7305"/>
</g>
<!-- Node7&#45;&gt;Node4 -->
<g id="edge9" class="edge"><title>Node7&#45;&gt;Node4</title>
<path fill="none" stroke="midnightblue" d="M492.506,-62.4035C465.691,-52.1559 420.685,-34.9561 390.191,-23.3021"/>
<polygon fill="midnightblue" stroke="midnightblue" points="391.043,-19.8811 380.453,-19.5806 388.544,-26.4199 391.043,-19.8811"/>
</g>
<!-- Node8&#45;&gt;Node4 -->
<g id="edge11" class="edge"><title>Node8&#45;&gt;Node4</title>
<path fill="none" stroke="midnightblue" d="M607.437,-57.855C604.247,-57.2237 601.088,-56.6024 598,-56 535.265,-43.761 463.176,-30.329 414.513,-21.3548"/>
<polygon fill="midnightblue" stroke="midnightblue" points="414.965,-17.8793 404.496,-19.5095 413.697,-24.7634 414.965,-17.8793"/>
</g>
</g>
</svg>
