<?xml version="1.0" encoding="UTF-8" standalone="no"?>
<!DOCTYPE svg PUBLIC "-//W3C//DTD SVG 1.1//EN"
 "http://www.w3.org/Graphics/SVG/1.1/DTD/svg11.dtd">
<!-- Generated by graphviz version 2.30.0 (20130114.0323)
 -->
<!-- Title: WacomGSS/STU/SerialProtocol.hpp Pages: 1 -->
<svg width="496pt" height="140pt"
 viewBox="0.00 0.00 496.00 140.00" xmlns="http://www.w3.org/2000/svg" xmlns:xlink="http://www.w3.org/1999/xlink">
<g id="graph0" class="graph" transform="scale(1 1) rotate(0) translate(4 136)">
<title>WacomGSS/STU/SerialProtocol.hpp</title>
<!-- Node1 -->
<g id="node1" class="node"><title>Node1</title>
<polygon fill="#bfbfbf" stroke="black" points="213,-112.5 213,-131.5 389,-131.5 389,-112.5 213,-112.5"/>
<text text-anchor="middle" x="301" y="-119.5" font-family="Helvetica,sans-Serif" font-size="10.00">WacomGSS/STU/SerialProtocol.hpp</text>
</g>
<!-- Node2 -->
<g id="node2" class="node"><title>Node2</title>
<g id="a_node2"><a xlink:href="_error_8hpp.html" target="_top" xlink:title="Basis of STU&#45;specific errors.">
<polygon fill="none" stroke="black" points="0,-56.5 0,-75.5 136,-75.5 136,-56.5 0,-56.5"/>
<text text-anchor="middle" x="68" y="-63.5" font-family="Helvetica,sans-Serif" font-size="10.00">WacomGSS/STU/Error.hpp</text>
</a>
</g>
</g>
<!-- Node1&#45;&gt;Node2 -->
<g id="edge1" class="edge"><title>Node1&#45;&gt;Node2</title>
<path fill="none" stroke="midnightblue" d="M264.08,-112.444C223.605,-103.063 158.579,-87.9926 114.616,-77.8036"/>
<polygon fill="midnightblue" stroke="midnightblue" points="115.279,-74.3646 104.747,-75.5164 113.698,-81.1839 115.279,-74.3646"/>
</g>
<!-- Node5 -->
<g id="node5" class="node"><title>Node5</title>
<g id="a_node5"><a xlink:href="noncopyable_8hpp.html" target="_top" xlink:title="implements the noncopyable pattern">
<polygon fill="none" stroke="black" points="154,-56.5 154,-75.5 302,-75.5 302,-56.5 154,-56.5"/>
<text text-anchor="middle" x="228" y="-63.5" font-family="Helvetica,sans-Serif" font-size="10.00">WacomGSS/noncopyable.hpp</text>
</a>
</g>
</g>
<!-- Node1&#45;&gt;Node5 -->
<g id="edge4" class="edge"><title>Node1&#45;&gt;Node5</title>
<path fill="none" stroke="midnightblue" d="M289.271,-112.324C278.163,-104.107 261.258,-91.6017 248.017,-81.8069"/>
<polygon fill="midnightblue" stroke="midnightblue" points="250.063,-78.9671 239.942,-75.8339 245.9,-84.5948 250.063,-78.9671"/>
</g>
<!-- Node6 -->
<g id="node6" class="node"><title>Node6</title>
<g id="a_node6"><a xlink:href="_crc_8hpp.html" target="_top" xlink:title="calculates industry&#45;standard CRCs">
<polygon fill="none" stroke="black" points="320,-56.5 320,-75.5 428,-75.5 428,-56.5 320,-56.5"/>
<text text-anchor="middle" x="374" y="-63.5" font-family="Helvetica,sans-Serif" font-size="10.00">WacomGSS/Crc.hpp</text>
</a>
</g>
</g>
<!-- Node1&#45;&gt;Node6 -->
<g id="edge6" class="edge"><title>Node1&#45;&gt;Node6</title>
<path fill="none" stroke="midnightblue" d="M312.729,-112.324C323.837,-104.107 340.742,-91.6017 353.983,-81.8069"/>
<polygon fill="midnightblue" stroke="midnightblue" points="356.1,-84.5948 362.058,-75.8339 351.937,-78.9671 356.1,-84.5948"/>
</g>
<!-- Node8 -->
<g id="node8" class="node"><title>Node8</title>
<polygon fill="none" stroke="#bfbfbf" points="446,-56.5 446,-75.5 488,-75.5 488,-56.5 446,-56.5"/>
<text text-anchor="middle" x="467" y="-63.5" font-family="Helvetica,sans-Serif" font-size="10.00">vector</text>
</g>
<!-- Node1&#45;&gt;Node8 -->
<g id="edge9" class="edge"><title>Node1&#45;&gt;Node8</title>
<path fill="none" stroke="midnightblue" d="M327.303,-112.444C356.918,-102.81 404.98,-87.1752 436.291,-76.9896"/>
<polygon fill="midnightblue" stroke="midnightblue" points="437.397,-80.3105 445.824,-73.8886 435.232,-73.6538 437.397,-80.3105"/>
</g>
<!-- Node3 -->
<g id="node3" class="node"><title>Node3</title>
<g id="a_node3"><a xlink:href="config_8hpp.html" target="_top" xlink:title="meta configuration about the compliation platform and compiler">
<polygon fill="none" stroke="black" points="168.5,-0.5 168.5,-19.5 287.5,-19.5 287.5,-0.5 168.5,-0.5"/>
<text text-anchor="middle" x="228" y="-7.5" font-family="Helvetica,sans-Serif" font-size="10.00">WacomGSS/config.hpp</text>
</a>
</g>
</g>
<!-- Node2&#45;&gt;Node3 -->
<g id="edge2" class="edge"><title>Node2&#45;&gt;Node3</title>
<path fill="none" stroke="midnightblue" d="M93.3525,-56.4435C120.269,-47.3591 162.996,-32.9388 193.087,-22.7831"/>
<polygon fill="midnightblue" stroke="midnightblue" points="194.41,-26.0305 202.766,-19.5164 192.172,-19.3981 194.41,-26.0305"/>
</g>
<!-- Node4 -->
<g id="node4" class="node"><title>Node4</title>
<polygon fill="none" stroke="#bfbfbf" points="38.5,-0.5 38.5,-19.5 97.5,-19.5 97.5,-0.5 38.5,-0.5"/>
<text text-anchor="middle" x="68" y="-7.5" font-family="Helvetica,sans-Serif" font-size="10.00">stdexcept</text>
</g>
<!-- Node2&#45;&gt;Node4 -->
<g id="edge3" class="edge"><title>Node2&#45;&gt;Node4</title>
<path fill="none" stroke="midnightblue" d="M68,-56.083C68,-49.0059 68,-38.8611 68,-29.9865"/>
<polygon fill="midnightblue" stroke="midnightblue" points="71.5001,-29.751 68,-19.7511 64.5001,-29.7511 71.5001,-29.751"/>
</g>
<!-- Node5&#45;&gt;Node3 -->
<g id="edge5" class="edge"><title>Node5&#45;&gt;Node3</title>
<path fill="none" stroke="midnightblue" d="M228,-56.083C228,-49.0059 228,-38.8611 228,-29.9865"/>
<polygon fill="midnightblue" stroke="midnightblue" points="231.5,-29.751 228,-19.7511 224.5,-29.7511 231.5,-29.751"/>
</g>
<!-- Node6&#45;&gt;Node3 -->
<g id="edge7" class="edge"><title>Node6&#45;&gt;Node3</title>
<path fill="none" stroke="midnightblue" d="M350.866,-56.4435C326.518,-47.4381 287.993,-33.1891 260.577,-23.049"/>
<polygon fill="midnightblue" stroke="midnightblue" points="261.619,-19.7028 251.026,-19.5164 259.191,-26.2681 261.619,-19.7028"/>
</g>
<!-- Node7 -->
<g id="node7" class="node"><title>Node7</title>
<polygon fill="none" stroke="#bfbfbf" points="346,-0.5 346,-19.5 402,-19.5 402,-0.5 346,-0.5"/>
<text text-anchor="middle" x="374" y="-7.5" font-family="Helvetica,sans-Serif" font-size="10.00">algorithm</text>
</g>
<!-- Node6&#45;&gt;Node7 -->
<g id="edge8" class="edge"><title>Node6&#45;&gt;Node7</title>
<path fill="none" stroke="midnightblue" d="M374,-56.083C374,-49.0059 374,-38.8611 374,-29.9865"/>
<polygon fill="midnightblue" stroke="midnightblue" points="377.5,-29.751 374,-19.7511 370.5,-29.7511 377.5,-29.751"/>
</g>
</g>
</svg>
