<?xml version="1.0" encoding="UTF-8" standalone="no"?>
<!DOCTYPE svg PUBLIC "-//W3C//DTD SVG 1.1//EN"
 "http://www.w3.org/Graphics/SVG/1.1/DTD/svg11.dtd">
<!-- Generated by graphviz version 2.30.0 (20130114.0323)
 -->
<!-- Title: WacomGSS/concurrent_queue_with_exception.hpp Pages: 1 -->
<svg width="430pt" height="164pt"
 viewBox="0.00 0.00 430.00 164.00" xmlns="http://www.w3.org/2000/svg" xmlns:xlink="http://www.w3.org/1999/xlink">
<g id="graph0" class="graph" transform="scale(1 1) rotate(0) translate(4 160)">
<title>WacomGSS/concurrent_queue_with_exception.hpp</title>
<!-- Node1 -->
<g id="node1" class="node"><title>Node1</title>
<polygon fill="#bfbfbf" stroke="black" points="142.5,-125 142.5,-155 279.5,-155 279.5,-125 142.5,-125"/>
<text text-anchor="start" x="150.5" y="-143" font-family="Helvetica,sans-Serif" font-size="10.00">WacomGSS/concurrent</text>
<text text-anchor="middle" x="211" y="-132" font-family="Helvetica,sans-Serif" font-size="10.00">_queue_with_exception.hpp</text>
</g>
<!-- Node2 -->
<g id="node2" class="node"><title>Node2</title>
<g id="a_node2"><a xlink:href="condition__variable_8hpp.html" target="_top" xlink:title="maps class condition_variable from std or boost">
<polygon fill="none" stroke="black" points="-0.5,-57 -0.5,-87 128.5,-87 128.5,-57 -0.5,-57"/>
<text text-anchor="start" x="7.5" y="-75" font-family="Helvetica,sans-Serif" font-size="10.00">WacomGSS/compatibility</text>
<text text-anchor="middle" x="64" y="-64" font-family="Helvetica,sans-Serif" font-size="10.00">/condition_variable.hpp</text>
</a>
</g>
</g>
<!-- Node1&#45;&gt;Node2 -->
<g id="edge1" class="edge"><title>Node1&#45;&gt;Node2</title>
<path fill="none" stroke="midnightblue" d="M179.465,-124.841C157.592,-115.021 128.262,-101.852 104.636,-91.2449"/>
<polygon fill="midnightblue" stroke="midnightblue" points="105.787,-87.9248 95.2304,-87.0218 102.92,-94.3107 105.787,-87.9248"/>
</g>
<!-- Node4 -->
<g id="node4" class="node"><title>Node4</title>
<g id="a_node4"><a xlink:href="mutex_8hpp.html" target="_top" xlink:title="maps class mutex from std or boost">
<polygon fill="none" stroke="black" points="146.5,-57 146.5,-87 275.5,-87 275.5,-57 146.5,-57"/>
<text text-anchor="start" x="154.5" y="-75" font-family="Helvetica,sans-Serif" font-size="10.00">WacomGSS/compatibility</text>
<text text-anchor="middle" x="211" y="-64" font-family="Helvetica,sans-Serif" font-size="10.00">/mutex.hpp</text>
</a>
</g>
</g>
<!-- Node1&#45;&gt;Node4 -->
<g id="edge3" class="edge"><title>Node1&#45;&gt;Node4</title>
<path fill="none" stroke="midnightblue" d="M211,-124.679C211,-116.722 211,-106.605 211,-97.4356"/>
<polygon fill="midnightblue" stroke="midnightblue" points="214.5,-97.293 211,-87.2931 207.5,-97.2931 214.5,-97.293"/>
</g>
<!-- Node5 -->
<g id="node5" class="node"><title>Node5</title>
<g id="a_node5"><a xlink:href="chrono_8hpp.html" target="_top" xlink:title="maps chrono from std or boost">
<polygon fill="none" stroke="black" points="293.5,-57 293.5,-87 422.5,-87 422.5,-57 293.5,-57"/>
<text text-anchor="start" x="301.5" y="-75" font-family="Helvetica,sans-Serif" font-size="10.00">WacomGSS/compatibility</text>
<text text-anchor="middle" x="358" y="-64" font-family="Helvetica,sans-Serif" font-size="10.00">/chrono.hpp</text>
</a>
</g>
</g>
<!-- Node1&#45;&gt;Node5 -->
<g id="edge5" class="edge"><title>Node1&#45;&gt;Node5</title>
<path fill="none" stroke="midnightblue" d="M242.535,-124.841C264.408,-115.021 293.738,-101.852 317.364,-91.2449"/>
<polygon fill="midnightblue" stroke="midnightblue" points="319.08,-94.3107 326.77,-87.0218 316.213,-87.9248 319.08,-94.3107"/>
</g>
<!-- Node3 -->
<g id="node3" class="node"><title>Node3</title>
<g id="a_node3"><a xlink:href="config_8hpp.html" target="_top" xlink:title="meta configuration about the compliation platform and compiler">
<polygon fill="none" stroke="black" points="151.5,-0.5 151.5,-19.5 270.5,-19.5 270.5,-0.5 151.5,-0.5"/>
<text text-anchor="middle" x="211" y="-7.5" font-family="Helvetica,sans-Serif" font-size="10.00">WacomGSS/config.hpp</text>
</a>
</g>
</g>
<!-- Node2&#45;&gt;Node3 -->
<g id="edge2" class="edge"><title>Node2&#45;&gt;Node3</title>
<path fill="none" stroke="midnightblue" d="M98.465,-56.9327C123.376,-46.7648 156.715,-33.157 180.629,-23.3963"/>
<polygon fill="midnightblue" stroke="midnightblue" points="181.994,-26.6195 189.93,-19.6 179.349,-20.1386 181.994,-26.6195"/>
</g>
<!-- Node4&#45;&gt;Node3 -->
<g id="edge4" class="edge"><title>Node4&#45;&gt;Node3</title>
<path fill="none" stroke="midnightblue" d="M211,-56.7808C211,-48.7812 211,-38.6887 211,-30.0168"/>
<polygon fill="midnightblue" stroke="midnightblue" points="214.5,-29.7305 211,-19.7305 207.5,-29.7306 214.5,-29.7305"/>
</g>
<!-- Node5&#45;&gt;Node3 -->
<g id="edge6" class="edge"><title>Node5&#45;&gt;Node3</title>
<path fill="none" stroke="midnightblue" d="M323.535,-56.9327C298.624,-46.7648 265.285,-33.157 241.371,-23.3963"/>
<polygon fill="midnightblue" stroke="midnightblue" points="242.651,-20.1386 232.07,-19.6 240.006,-26.6195 242.651,-20.1386"/>
</g>
</g>
</svg>
