<?xml version="1.0" encoding="UTF-8" standalone="no"?>
<!DOCTYPE svg PUBLIC "-//W3C//DTD SVG 1.1//EN"
 "http://www.w3.org/Graphics/SVG/1.1/DTD/svg11.dtd">
<!-- Generated by graphviz version 2.30.0 (20130114.0323)
 -->
<!-- Title: WacomGSS/noncopyable.hpp Pages: 1 -->
<svg width="1432pt" height="444pt"
 viewBox="0.00 0.00 1431.82 444.00" xmlns="http://www.w3.org/2000/svg" xmlns:xlink="http://www.w3.org/1999/xlink">
<g id="graph0" class="graph" transform="scale(1 1) rotate(0) translate(4 440)">
<title>WacomGSS/noncopyable.hpp</title>
<!-- Node1 -->
<g id="node1" class="node"><title>Node1</title>
<polygon fill="#bfbfbf" stroke="black" points="441.817,-416.5 441.817,-435.5 589.817,-435.5 589.817,-416.5 441.817,-416.5"/>
<text text-anchor="middle" x="515.817" y="-423.5" font-family="Helvetica,sans-Serif" font-size="10.00">WacomGSS/noncopyable.hpp</text>
</g>
<!-- Node2 -->
<g id="node2" class="node"><title>Node2</title>
<g id="a_node2"><a xlink:href="libusb_8hpp.html" target="_top" xlink:title="provides a thin C++ wrapper for libusb library for exception safety. Converts errors into exceptions...">
<polygon fill="none" stroke="black" points="286.317,-360.5 286.317,-379.5 431.317,-379.5 431.317,-360.5 286.317,-360.5"/>
<text text-anchor="middle" x="358.817" y="-367.5" font-family="Helvetica,sans-Serif" font-size="10.00">WacomGSS/Linux/libusb.hpp</text>
</a>
</g>
</g>
<!-- Node1&#45;&gt;Node2 -->
<g id="edge1" class="edge"><title>Node1&#45;&gt;Node2</title>
<path fill="none" stroke="midnightblue" d="M481.429,-413.172C451.866,-403.004 409.944,-388.585 383.578,-379.516"/>
<polygon fill="midnightblue" stroke="midnightblue" points="480.345,-416.501 490.94,-416.444 482.622,-409.881 480.345,-416.501"/>
</g>
<!-- Node3 -->
<g id="node3" class="node"><title>Node3</title>
<g id="a_node3"><a xlink:href="_interface_impl_8hpp.html" target="_top" xlink:title="Internal implementation of the Interface class.">
<polygon fill="none" stroke="black" points="487.817,-360.5 487.817,-379.5 657.817,-379.5 657.817,-360.5 487.817,-360.5"/>
<text text-anchor="middle" x="572.817" y="-367.5" font-family="Helvetica,sans-Serif" font-size="10.00">WacomGSS/STU/InterfaceImpl.hpp</text>
</a>
</g>
</g>
<!-- Node1&#45;&gt;Node3 -->
<g id="edge2" class="edge"><title>Node1&#45;&gt;Node3</title>
<path fill="none" stroke="midnightblue" d="M532.439,-409.253C542.551,-399.673 555.094,-387.791 563.493,-379.834"/>
<polygon fill="midnightblue" stroke="midnightblue" points="529.828,-406.906 524.975,-416.324 534.642,-411.987 529.828,-406.906"/>
</g>
<!-- Node12 -->
<g id="node12" class="node"><title>Node12</title>
<g id="a_node12"><a xlink:href="_serial_protocol_8hpp.html" target="_top" xlink:title="Provides abstraction of serial&#45;specific protocol.">
<polygon fill="none" stroke="black" points="675.817,-360.5 675.817,-379.5 851.817,-379.5 851.817,-360.5 675.817,-360.5"/>
<text text-anchor="middle" x="763.817" y="-367.5" font-family="Helvetica,sans-Serif" font-size="10.00">WacomGSS/STU/SerialProtocol.hpp</text>
</a>
</g>
</g>
<!-- Node1&#45;&gt;Node12 -->
<g id="edge11" class="edge"><title>Node1&#45;&gt;Node12</title>
<path fill="none" stroke="midnightblue" d="M565.043,-414.281C611.908,-404.077 681.517,-388.92 724.705,-379.516"/>
<polygon fill="midnightblue" stroke="midnightblue" points="564.14,-410.896 555.114,-416.444 565.629,-417.736 564.14,-410.896"/>
</g>
<!-- Node13 -->
<g id="node13" class="node"><title>Node13</title>
<g id="a_node13"><a xlink:href="unique__handle_8hpp.html" target="_top" xlink:title="provides the unique_handle pattern">
<polygon fill="none" stroke="black" points="369.317,-248.5 369.317,-267.5 524.317,-267.5 524.317,-248.5 369.317,-248.5"/>
<text text-anchor="middle" x="446.817" y="-255.5" font-family="Helvetica,sans-Serif" font-size="10.00">WacomGSS/unique_handle.hpp</text>
</a>
</g>
</g>
<!-- Node1&#45;&gt;Node13 -->
<g id="edge12" class="edge"><title>Node1&#45;&gt;Node13</title>
<path fill="none" stroke="midnightblue" d="M499.71,-408.922C492.404,-400.837 484.212,-390.533 478.817,-380 458.808,-340.933 450.452,-288.182 447.817,-267.665"/>
<polygon fill="midnightblue" stroke="midnightblue" points="497.17,-411.331 506.583,-416.194 502.257,-406.522 497.17,-411.331"/>
</g>
<!-- Node4 -->
<g id="node4" class="node"><title>Node4</title>
<g id="a_node4"><a xlink:href="_interface_queue_8hpp.html" target="_top" xlink:title="Provides access to data that the tablet sends.">
<polygon fill="none" stroke="black" points="514.817,-304.5 514.817,-323.5 694.817,-323.5 694.817,-304.5 514.817,-304.5"/>
<text text-anchor="middle" x="604.817" y="-311.5" font-family="Helvetica,sans-Serif" font-size="10.00">WacomGSS/STU/InterfaceQueue.hpp</text>
</a>
</g>
</g>
<!-- Node3&#45;&gt;Node4 -->
<g id="edge3" class="edge"><title>Node3&#45;&gt;Node4</title>
<path fill="none" stroke="midnightblue" d="M583.321,-351.275C588.79,-342.045 595.235,-331.17 599.631,-323.751"/>
<polygon fill="midnightblue" stroke="midnightblue" points="580.188,-349.696 578.101,-360.083 586.21,-353.264 580.188,-349.696"/>
</g>
<!-- Node5 -->
<g id="node5" class="node"><title>Node5</title>
<g id="a_node5"><a xlink:href="_interface_8hpp.html" target="_top" xlink:title="Definition of the WacomGSS::STU::Interface class.">
<polygon fill="none" stroke="black" points="889.817,-248.5 889.817,-267.5 1041.82,-267.5 1041.82,-248.5 889.817,-248.5"/>
<text text-anchor="middle" x="965.817" y="-255.5" font-family="Helvetica,sans-Serif" font-size="10.00">WacomGSS/STU/Interface.hpp</text>
</a>
</g>
</g>
<!-- Node4&#45;&gt;Node5 -->
<g id="edge4" class="edge"><title>Node4&#45;&gt;Node5</title>
<path fill="none" stroke="midnightblue" d="M672.226,-302.917C740.426,-292.715 844.699,-277.117 908.883,-267.516"/>
<polygon fill="midnightblue" stroke="midnightblue" points="671.391,-299.503 662.019,-304.444 672.427,-306.426 671.391,-299.503"/>
</g>
<!-- Node6 -->
<g id="node6" class="node"><title>Node6</title>
<g id="a_node6"><a xlink:href="_protocol_8hpp.html" target="_top" xlink:title="Definition of the WacomGSS::STU::Protocol class.">
<polygon fill="none" stroke="black" points="1063.32,-192.5 1063.32,-211.5 1214.32,-211.5 1214.32,-192.5 1063.32,-192.5"/>
<text text-anchor="middle" x="1138.82" y="-199.5" font-family="Helvetica,sans-Serif" font-size="10.00">WacomGSS/STU/Protocol.hpp</text>
</a>
</g>
</g>
<!-- Node5&#45;&gt;Node6 -->
<g id="edge5" class="edge"><title>Node5&#45;&gt;Node6</title>
<path fill="none" stroke="midnightblue" d="M1002.86,-245.436C1035.48,-235.255 1082.23,-220.664 1111.53,-211.516"/>
<polygon fill="midnightblue" stroke="midnightblue" points="1001.73,-242.123 993.23,-248.444 1003.82,-248.805 1001.73,-242.123"/>
</g>
<!-- Node7 -->
<g id="node7" class="node"><title>Node7</title>
<g id="a_node7"><a xlink:href="_protocol_helper_8hpp.html" target="_top" xlink:title="Provides higher level assistance to using the STU tablet protocol.">
<polygon fill="none" stroke="black" points="1245.32,-136.5 1245.32,-155.5 1424.32,-155.5 1424.32,-136.5 1245.32,-136.5"/>
<text text-anchor="middle" x="1334.82" y="-143.5" font-family="Helvetica,sans-Serif" font-size="10.00">WacomGSS/STU/ProtocolHelper.hpp</text>
</a>
</g>
</g>
<!-- Node6&#45;&gt;Node7 -->
<g id="edge6" class="edge"><title>Node6&#45;&gt;Node7</title>
<path fill="none" stroke="midnightblue" d="M1179.84,-189.699C1216.83,-179.507 1270.42,-164.743 1303.91,-155.516"/>
<polygon fill="midnightblue" stroke="midnightblue" points="1178.59,-186.413 1169.87,-192.444 1180.44,-193.162 1178.59,-186.413"/>
</g>
<!-- Node11 -->
<g id="node11" class="node"><title>Node11</title>
<g id="a_node11"><a xlink:href="_report_handler_8hpp.html" target="_top" xlink:title="Provides simplified decoding of reports.">
<polygon fill="none" stroke="black" points="1050.82,-136.5 1050.82,-155.5 1226.82,-155.5 1226.82,-136.5 1050.82,-136.5"/>
<text text-anchor="middle" x="1138.82" y="-143.5" font-family="Helvetica,sans-Serif" font-size="10.00">WacomGSS/STU/ReportHandler.hpp</text>
</a>
</g>
</g>
<!-- Node6&#45;&gt;Node11 -->
<g id="edge10" class="edge"><title>Node6&#45;&gt;Node11</title>
<path fill="none" stroke="midnightblue" d="M1138.82,-181.805C1138.82,-172.91 1138.82,-162.78 1138.82,-155.751"/>
<polygon fill="midnightblue" stroke="midnightblue" points="1135.32,-182.083 1138.82,-192.083 1142.32,-182.083 1135.32,-182.083"/>
</g>
<!-- Node8 -->
<g id="node8" class="node"><title>Node8</title>
<g id="a_node8"><a xlink:href="_tablet_8hpp.html" target="_top" xlink:title="A higher level interface to provide simplified access.">
<polygon fill="none" stroke="black" points="1153.32,-74.5 1153.32,-93.5 1294.32,-93.5 1294.32,-74.5 1153.32,-74.5"/>
<text text-anchor="middle" x="1223.82" y="-81.5" font-family="Helvetica,sans-Serif" font-size="10.00">WacomGSS/STU/Tablet.hpp</text>
</a>
</g>
</g>
<!-- Node7&#45;&gt;Node8 -->
<g id="edge7" class="edge"><title>Node7&#45;&gt;Node8</title>
<path fill="none" stroke="midnightblue" d="M1310.03,-131.6C1288.53,-119.98 1258.06,-103.509 1239.69,-93.5806"/>
<polygon fill="midnightblue" stroke="midnightblue" points="1308.45,-134.727 1318.91,-136.403 1311.78,-128.569 1308.45,-134.727"/>
</g>
<!-- Node10 -->
<g id="node10" class="node"><title>Node10</title>
<g id="a_node10"><a xlink:href="_win32_2_protocol_helper_8hpp.html" target="_top" xlink:title="Provides higher level assistance to using the STU tablet protocol.">
<polygon fill="none" stroke="black" points="900.817,-69 900.817,-99 1024.82,-99 1024.82,-69 900.817,-69"/>
<text text-anchor="start" x="908.817" y="-87" font-family="Helvetica,sans-Serif" font-size="10.00">WacomGSS/STU/Win32</text>
<text text-anchor="middle" x="962.817" y="-76" font-family="Helvetica,sans-Serif" font-size="10.00">/ProtocolHelper.hpp</text>
</a>
</g>
</g>
<!-- Node7&#45;&gt;Node10 -->
<g id="edge9" class="edge"><title>Node7&#45;&gt;Node10</title>
<path fill="none" stroke="midnightblue" d="M1271.64,-134.81C1202.76,-123.701 1093.25,-106.038 1024.84,-95.0033"/>
<polygon fill="midnightblue" stroke="midnightblue" points="1271.48,-138.33 1281.91,-136.467 1272.6,-131.419 1271.48,-138.33"/>
</g>
<!-- Node9 -->
<g id="node9" class="node"><title>Node9</title>
<g id="a_node9"><a xlink:href="_tablet___open_s_s_l_8hpp.html" target="_top" xlink:title="A higher level interface to provide simplified access.">
<polygon fill="none" stroke="black" points="543.817,-1 543.817,-31 665.817,-31 665.817,-1 543.817,-1"/>
<text text-anchor="start" x="551.817" y="-19" font-family="Helvetica,sans-Serif" font-size="10.00">WacomGSS/STU/Tablet</text>
<text text-anchor="middle" x="604.817" y="-8" font-family="Helvetica,sans-Serif" font-size="10.00">_OpenSSL.hpp</text>
</a>
</g>
</g>
<!-- Node8&#45;&gt;Node9 -->
<g id="edge8" class="edge"><title>Node8&#45;&gt;Node9</title>
<path fill="none" stroke="midnightblue" d="M1143.17,-74.4007C1017.6,-61.0128 778.167,-35.4831 665.845,-23.507"/>
<polygon fill="midnightblue" stroke="midnightblue" points="1142.8,-77.8811 1153.11,-75.4611 1143.54,-70.9205 1142.8,-77.8811"/>
</g>
<!-- Node14 -->
<g id="node14" class="node"><title>Node14</title>
<g id="a_node14"><a xlink:href="_open_s_s_l_8hpp.html" target="_top" xlink:title="provides a thin layer of objects from the OpenSSL library to provide basic exception safety...">
<polygon fill="none" stroke="black" points="67.3172,-192.5 67.3172,-211.5 202.317,-211.5 202.317,-192.5 67.3172,-192.5"/>
<text text-anchor="middle" x="134.817" y="-199.5" font-family="Helvetica,sans-Serif" font-size="10.00">WacomGSS/OpenSSL.hpp</text>
</a>
</g>
</g>
<!-- Node13&#45;&gt;Node14 -->
<g id="edge13" class="edge"><title>Node13&#45;&gt;Node14</title>
<path fill="none" stroke="midnightblue" d="M387.465,-246.727C328.506,-236.523 239.154,-221.058 184.023,-211.516"/>
<polygon fill="midnightblue" stroke="midnightblue" points="386.929,-250.187 397.38,-248.444 388.123,-243.289 386.929,-250.187"/>
</g>
<!-- Node15 -->
<g id="node15" class="node"><title>Node15</title>
<g id="a_node15"><a xlink:href="windows_8hpp.html" target="_top" xlink:title="provides wrapper classes to windows.h for exception safety">
<polygon fill="none" stroke="black" points="454.317,-192.5 454.317,-211.5 615.317,-211.5 615.317,-192.5 454.317,-192.5"/>
<text text-anchor="middle" x="534.817" y="-199.5" font-family="Helvetica,sans-Serif" font-size="10.00">WacomGSS/Win32/windows.hpp</text>
</a>
</g>
</g>
<!-- Node13&#45;&gt;Node15 -->
<g id="edge15" class="edge"><title>Node13&#45;&gt;Node15</title>
<path fill="none" stroke="midnightblue" d="M469.794,-242.901C485.931,-232.999 506.999,-220.071 520.714,-211.655"/>
<polygon fill="midnightblue" stroke="midnightblue" points="467.649,-240.111 460.956,-248.324 471.31,-246.077 467.649,-240.111"/>
</g>
<!-- Node26 -->
<g id="node26" class="node"><title>Node26</title>
<g id="a_node26"><a xlink:href="winhttp_8hpp.html" target="_top" xlink:title="provides wrapper for winhttp.h">
<polygon fill="none" stroke="black" points="281.317,-192.5 281.317,-211.5 436.317,-211.5 436.317,-192.5 281.317,-192.5"/>
<text text-anchor="middle" x="358.817" y="-199.5" font-family="Helvetica,sans-Serif" font-size="10.00">WacomGSS/Win32/winhttp.hpp</text>
</a>
</g>
</g>
<!-- Node13&#45;&gt;Node26 -->
<g id="edge28" class="edge"><title>Node13&#45;&gt;Node26</title>
<path fill="none" stroke="midnightblue" d="M423.84,-242.901C407.704,-232.999 386.636,-220.071 372.921,-211.655"/>
<polygon fill="midnightblue" stroke="midnightblue" points="422.325,-246.077 432.679,-248.324 425.986,-240.111 422.325,-246.077"/>
</g>
<!-- Node14&#45;&gt;Node9 -->
<g id="edge14" class="edge"><title>Node14&#45;&gt;Node9</title>
<path fill="none" stroke="midnightblue" d="M65.9926,-190.368C25.2082,-180.947 -14.8315,-164.188 5.81723,-136 68.982,-49.7735 404.216,-25.5537 543.775,-19.1551"/>
<polygon fill="midnightblue" stroke="midnightblue" points="65.2699,-193.792 75.7849,-192.494 66.7554,-186.952 65.2699,-193.792"/>
</g>
<!-- Node16 -->
<g id="node16" class="node"><title>Node16</title>
<g id="a_node16"><a xlink:href="cfgmgr32_8hpp.html" target="_top" xlink:title="provides wrapper classes to cfgmgr32.h for exception safety">
<polygon fill="none" stroke="black" points="366.817,-136.5 366.817,-155.5 530.817,-155.5 530.817,-136.5 366.817,-136.5"/>
<text text-anchor="middle" x="448.817" y="-143.5" font-family="Helvetica,sans-Serif" font-size="10.00">WacomGSS/Win32/cfgmgr32.hpp</text>
</a>
</g>
</g>
<!-- Node15&#45;&gt;Node16 -->
<g id="edge16" class="edge"><title>Node15&#45;&gt;Node16</title>
<path fill="none" stroke="midnightblue" d="M512.363,-186.901C496.593,-176.999 476.004,-164.071 462.6,-155.655"/>
<polygon fill="midnightblue" stroke="midnightblue" points="510.67,-189.97 521,-192.324 514.392,-184.042 510.67,-189.97"/>
</g>
<!-- Node18 -->
<g id="node18" class="node"><title>Node18</title>
<g id="a_node18"><a xlink:href="com_8hpp.html" target="_top" xlink:title="provides wrapper class for COM objects">
<polygon fill="none" stroke="black" points="549.317,-136.5 549.317,-155.5 692.317,-155.5 692.317,-136.5 549.317,-136.5"/>
<text text-anchor="middle" x="620.817" y="-143.5" font-family="Helvetica,sans-Serif" font-size="10.00">WacomGSS/Win32/com.hpp</text>
</a>
</g>
</g>
<!-- Node15&#45;&gt;Node18 -->
<g id="edge18" class="edge"><title>Node15&#45;&gt;Node18</title>
<path fill="none" stroke="midnightblue" d="M557.272,-186.901C573.042,-176.999 593.631,-164.071 607.034,-155.655"/>
<polygon fill="midnightblue" stroke="midnightblue" points="555.242,-184.042 548.635,-192.324 558.965,-189.97 555.242,-184.042"/>
</g>
<!-- Node22 -->
<g id="node22" class="node"><title>Node22</title>
<g id="a_node22"><a xlink:href="gdiplus_8hpp.html" target="_top" xlink:title="provides wrapper classes to gdiplus.h for exception safety">
<polygon fill="none" stroke="black" points="877.317,-136.5 877.317,-155.5 1032.32,-155.5 1032.32,-136.5 877.317,-136.5"/>
<text text-anchor="middle" x="954.817" y="-143.5" font-family="Helvetica,sans-Serif" font-size="10.00">WacomGSS/Win32/gdiplus.hpp</text>
</a>
</g>
</g>
<!-- Node15&#45;&gt;Node22 -->
<g id="edge23" class="edge"><title>Node15&#45;&gt;Node22</title>
<path fill="none" stroke="midnightblue" d="M611.297,-191.167C690.594,-180.972 813.29,-165.196 888.578,-155.516"/>
<polygon fill="midnightblue" stroke="midnightblue" points="610.839,-187.697 601.367,-192.444 611.732,-194.64 610.839,-187.697"/>
</g>
<!-- Node23 -->
<g id="node23" class="node"><title>Node23</title>
<g id="a_node23"><a xlink:href="hidsdi_8hpp.html" target="_top" xlink:title="provides wrapper classes to hidsdi.h for exception safety">
<polygon fill="none" stroke="black" points="710.317,-136.5 710.317,-155.5 859.317,-155.5 859.317,-136.5 710.317,-136.5"/>
<text text-anchor="middle" x="784.817" y="-143.5" font-family="Helvetica,sans-Serif" font-size="10.00">WacomGSS/Win32/hidsdi.hpp</text>
</a>
</g>
</g>
<!-- Node15&#45;&gt;Node23 -->
<g id="edge25" class="edge"><title>Node15&#45;&gt;Node23</title>
<path fill="none" stroke="midnightblue" d="M584.44,-190.281C631.683,-180.077 701.853,-164.92 745.389,-155.516"/>
<polygon fill="midnightblue" stroke="midnightblue" points="583.466,-186.911 574.43,-192.444 584.944,-193.753 583.466,-186.911"/>
</g>
<!-- Node24 -->
<g id="node24" class="node"><title>Node24</title>
<g id="a_node24"><a xlink:href="setupapi_8hpp.html" target="_top" xlink:title="provides wrapper classes to setupapi.h for exception safety">
<polygon fill="none" stroke="black" points="15.3172,-136.5 15.3172,-155.5 176.317,-155.5 176.317,-136.5 15.3172,-136.5"/>
<text text-anchor="middle" x="95.8172" y="-143.5" font-family="Helvetica,sans-Serif" font-size="10.00">WacomGSS/Win32/setupapi.hpp</text>
</a>
</g>
</g>
<!-- Node15&#45;&gt;Node24 -->
<g id="edge26" class="edge"><title>Node15&#45;&gt;Node24</title>
<path fill="none" stroke="midnightblue" d="M455.131,-191.198C372.255,-181.004 243.827,-165.206 165.053,-155.516"/>
<polygon fill="midnightblue" stroke="midnightblue" points="454.904,-194.696 465.256,-192.444 455.759,-187.749 454.904,-194.696"/>
</g>
<!-- Node25 -->
<g id="node25" class="node"><title>Node25</title>
<g id="a_node25"><a xlink:href="winusb_8hpp.html" target="_top" xlink:title="provides wrapper classes to winusb.h for exception safety">
<polygon fill="none" stroke="black" points="194.817,-136.5 194.817,-155.5 348.817,-155.5 348.817,-136.5 194.817,-136.5"/>
<text text-anchor="middle" x="271.817" y="-143.5" font-family="Helvetica,sans-Serif" font-size="10.00">WacomGSS/Win32/winusb.hpp</text>
</a>
</g>
</g>
<!-- Node15&#45;&gt;Node25 -->
<g id="edge27" class="edge"><title>Node15&#45;&gt;Node25</title>
<path fill="none" stroke="midnightblue" d="M483.238,-190.41C433.534,-180.204 359.288,-164.96 313.295,-155.516"/>
<polygon fill="midnightblue" stroke="midnightblue" points="482.644,-193.861 493.144,-192.444 484.052,-187.004 482.644,-193.861"/>
</g>
<!-- Node17 -->
<g id="node17" class="node"><title>Node17</title>
<g id="a_node17"><a xlink:href="get_device_power_state_8hpp.html" target="_top" xlink:title="provides a wrapper for retrieving the power state of a device">
<polygon fill="none" stroke="black" points="230.317,-69 230.317,-99 377.317,-99 377.317,-69 230.317,-69"/>
<text text-anchor="start" x="238.317" y="-87" font-family="Helvetica,sans-Serif" font-size="10.00">WacomGSS/Win32/getDevice</text>
<text text-anchor="middle" x="303.817" y="-76" font-family="Helvetica,sans-Serif" font-size="10.00">PowerState.hpp</text>
</a>
</g>
</g>
<!-- Node16&#45;&gt;Node17 -->
<g id="edge17" class="edge"><title>Node16&#45;&gt;Node17</title>
<path fill="none" stroke="midnightblue" d="M418.541,-132.472C394.943,-122.707 362.185,-109.152 337.712,-99.0253"/>
<polygon fill="midnightblue" stroke="midnightblue" points="417.464,-135.814 428.042,-136.403 420.14,-129.346 417.464,-135.814"/>
</g>
<!-- Node18&#45;&gt;Node10 -->
<g id="edge19" class="edge"><title>Node18&#45;&gt;Node10</title>
<path fill="none" stroke="midnightblue" d="M685.925,-134.902C740.693,-126.227 821.012,-113.083 890.817,-100 894.08,-99.3885 897.423,-98.7464 900.796,-98.0863"/>
<polygon fill="midnightblue" stroke="midnightblue" points="685.335,-131.451 676.004,-136.468 686.427,-138.366 685.335,-131.451"/>
</g>
<!-- Node19 -->
<g id="node19" class="node"><title>Node19</title>
<g id="a_node19"><a xlink:href="debug___type_info_8hpp.html" target="_top" xlink:title="decodes TypeInfo for displaying">
<polygon fill="none" stroke="black" points="395.317,-69 395.317,-99 526.317,-99 526.317,-69 395.317,-69"/>
<text text-anchor="start" x="403.317" y="-87" font-family="Helvetica,sans-Serif" font-size="10.00">WacomGSS/Win32/debug</text>
<text text-anchor="middle" x="460.817" y="-76" font-family="Helvetica,sans-Serif" font-size="10.00">_TypeInfo.hpp</text>
</a>
</g>
</g>
<!-- Node18&#45;&gt;Node19 -->
<g id="edge20" class="edge"><title>Node18&#45;&gt;Node19</title>
<path fill="none" stroke="midnightblue" d="M588.449,-132.862C562.34,-123.071 525.584,-109.288 498.218,-99.0253"/>
<polygon fill="midnightblue" stroke="midnightblue" points="587.301,-136.169 597.893,-136.403 589.759,-129.615 587.301,-136.169"/>
</g>
<!-- Node20 -->
<g id="node20" class="node"><title>Node20</title>
<g id="a_node20"><a xlink:href="dispex_8hpp.html" target="_top" xlink:title="provides wrapper for d2d1.h">
<polygon fill="none" stroke="black" points="544.817,-74.5 544.817,-93.5 696.817,-93.5 696.817,-74.5 544.817,-74.5"/>
<text text-anchor="middle" x="620.817" y="-81.5" font-family="Helvetica,sans-Serif" font-size="10.00">WacomGSS/Win32/dispex.hpp</text>
</a>
</g>
</g>
<!-- Node18&#45;&gt;Node20 -->
<g id="edge21" class="edge"><title>Node18&#45;&gt;Node20</title>
<path fill="none" stroke="midnightblue" d="M620.817,-126.16C620.817,-115.248 620.817,-102.04 620.817,-93.5806"/>
<polygon fill="midnightblue" stroke="midnightblue" points="617.317,-126.403 620.817,-136.403 624.317,-126.403 617.317,-126.403"/>
</g>
<!-- Node21 -->
<g id="node21" class="node"><title>Node21</title>
<g id="a_node21"><a xlink:href="_safe_array_8hpp.html" target="_top" xlink:title="provides helper classes for the Windows SAFEARRAY struct">
<polygon fill="none" stroke="black" points="715.317,-74.5 715.317,-93.5 882.317,-93.5 882.317,-74.5 715.317,-74.5"/>
<text text-anchor="middle" x="798.817" y="-81.5" font-family="Helvetica,sans-Serif" font-size="10.00">WacomGSS/Win32/SafeArray.hpp</text>
</a>
</g>
</g>
<!-- Node18&#45;&gt;Node21 -->
<g id="edge22" class="edge"><title>Node18&#45;&gt;Node21</title>
<path fill="none" stroke="midnightblue" d="M656.022,-133.133C690.623,-121.47 742.586,-103.955 773.361,-93.5806"/>
<polygon fill="midnightblue" stroke="midnightblue" points="654.678,-129.893 646.32,-136.403 656.914,-136.526 654.678,-129.893"/>
</g>
<!-- Node22&#45;&gt;Node10 -->
<g id="edge24" class="edge"><title>Node22&#45;&gt;Node10</title>
<path fill="none" stroke="midnightblue" d="M957.301,-126.371C958.473,-117.585 959.848,-107.272 960.932,-99.1408"/>
<polygon fill="midnightblue" stroke="midnightblue" points="953.816,-126.029 955.963,-136.403 960.754,-126.954 953.816,-126.029"/>
</g>
</g>
</svg>
