<?xml version="1.0" encoding="UTF-8" standalone="no"?>
<!DOCTYPE svg PUBLIC "-//W3C//DTD SVG 1.1//EN"
 "http://www.w3.org/Graphics/SVG/1.1/DTD/svg11.dtd">
<!-- Generated by graphviz version 2.30.0 (20130114.0323)
 -->
<!-- Title: WacomGSS::STU::Protocol::PenDataTimeCountSequence Pages: 1 -->
<svg width="158pt" height="108pt"
 viewBox="0.00 0.00 158.00 108.00" xmlns="http://www.w3.org/2000/svg" xmlns:xlink="http://www.w3.org/1999/xlink">
<g id="graph0" class="graph" transform="scale(1 1) rotate(0) translate(4 104)">
<title>WacomGSS::STU::Protocol::PenDataTimeCountSequence</title>
<!-- Node1 -->
<g id="node1" class="node"><title>Node1</title>
<polygon fill="#bfbfbf" stroke="black" points="0,-1 0,-31 150,-31 150,-1 0,-1"/>
<text text-anchor="start" x="8" y="-19" font-family="Helvetica,sans-Serif" font-size="10.00">WacomGSS::STU::Protocol</text>
<text text-anchor="middle" x="75" y="-8" font-family="Helvetica,sans-Serif" font-size="10.00">::PenDataTimeCountSequence</text>
</g>
<!-- Node2 -->
<g id="node2" class="node"><title>Node2</title>
<g id="a_node2"><a xlink:href="struct_wacom_g_s_s_1_1_s_t_u_1_1_protocol_1_1_pen_data.html" target="_top" xlink:title="Data returned from the STU tablet in response to pen movement when PenDataOptionMode_None is set...">
<polygon fill="none" stroke="black" points="6,-69 6,-99 144,-99 144,-69 6,-69"/>
<text text-anchor="start" x="14" y="-87" font-family="Helvetica,sans-Serif" font-size="10.00">WacomGSS::STU::Protocol</text>
<text text-anchor="middle" x="75" y="-76" font-family="Helvetica,sans-Serif" font-size="10.00">::PenData</text>
</a>
</g>
</g>
<!-- Node2&#45;&gt;Node1 -->
<g id="edge1" class="edge"><title>Node2&#45;&gt;Node1</title>
<path fill="none" stroke="midnightblue" d="M75,-58.5322C75,-49.3606 75,-39.2449 75,-31.2931"/>
<polygon fill="midnightblue" stroke="midnightblue" points="71.5001,-58.6789 75,-68.679 78.5001,-58.679 71.5001,-58.6789"/>
</g>
</g>
</svg>
