<?xml version="1.0" encoding="UTF-8" standalone="no"?>
<!DOCTYPE svg PUBLIC "-//W3C//DTD SVG 1.1//EN"
 "http://www.w3.org/Graphics/SVG/1.1/DTD/svg11.dtd">
<!-- Generated by graphviz version 2.30.0 (20130114.0323)
 -->
<!-- Title: WacomGSS::STU::Protocol::PenDataTimeCountSequenceEncrypted Pages: 1 -->
<svg width="202pt" height="176pt"
 viewBox="0.00 0.00 202.00 176.00" xmlns="http://www.w3.org/2000/svg" xmlns:xlink="http://www.w3.org/1999/xlink">
<g id="graph0" class="graph" transform="scale(1 1) rotate(0) translate(4 172)">
<title>WacomGSS::STU::Protocol::PenDataTimeCountSequenceEncrypted</title>
<!-- Node1 -->
<g id="node1" class="node"><title>Node1</title>
<polygon fill="#bfbfbf" stroke="black" points="0,-1 0,-31 194,-31 194,-1 0,-1"/>
<text text-anchor="start" x="8" y="-19" font-family="Helvetica,sans-Serif" font-size="10.00">WacomGSS::STU::Protocol</text>
<text text-anchor="middle" x="97" y="-8" font-family="Helvetica,sans-Serif" font-size="10.00">::PenDataTimeCountSequenceEncrypted</text>
</g>
<!-- Node2 -->
<g id="node2" class="node"><title>Node2</title>
<g id="a_node2"><a xlink:href="struct_wacom_g_s_s_1_1_s_t_u_1_1_protocol_1_1_pen_data_time_count_sequence.html" target="_top" xlink:title="Data returned from the STU tablet in response to pen movement when PenDataOptionMode_TimeCountSequenc...">
<polygon fill="none" stroke="black" points="22,-69 22,-99 172,-99 172,-69 22,-69"/>
<text text-anchor="start" x="30" y="-87" font-family="Helvetica,sans-Serif" font-size="10.00">WacomGSS::STU::Protocol</text>
<text text-anchor="middle" x="97" y="-76" font-family="Helvetica,sans-Serif" font-size="10.00">::PenDataTimeCountSequence</text>
</a>
</g>
</g>
<!-- Node2&#45;&gt;Node1 -->
<g id="edge1" class="edge"><title>Node2&#45;&gt;Node1</title>
<path fill="none" stroke="midnightblue" d="M97,-58.5322C97,-49.3606 97,-39.2449 97,-31.2931"/>
<polygon fill="midnightblue" stroke="midnightblue" points="93.5001,-58.6789 97,-68.679 100.5,-58.679 93.5001,-58.6789"/>
</g>
<!-- Node3 -->
<g id="node3" class="node"><title>Node3</title>
<g id="a_node3"><a xlink:href="struct_wacom_g_s_s_1_1_s_t_u_1_1_protocol_1_1_pen_data.html" target="_top" xlink:title="Data returned from the STU tablet in response to pen movement when PenDataOptionMode_None is set...">
<polygon fill="none" stroke="black" points="28,-137 28,-167 166,-167 166,-137 28,-137"/>
<text text-anchor="start" x="36" y="-155" font-family="Helvetica,sans-Serif" font-size="10.00">WacomGSS::STU::Protocol</text>
<text text-anchor="middle" x="97" y="-144" font-family="Helvetica,sans-Serif" font-size="10.00">::PenData</text>
</a>
</g>
</g>
<!-- Node3&#45;&gt;Node2 -->
<g id="edge2" class="edge"><title>Node3&#45;&gt;Node2</title>
<path fill="none" stroke="midnightblue" d="M97,-126.532C97,-117.361 97,-107.245 97,-99.2931"/>
<polygon fill="midnightblue" stroke="midnightblue" points="93.5001,-126.679 97,-136.679 100.5,-126.679 93.5001,-126.679"/>
</g>
</g>
</svg>
