<?xml version="1.0" encoding="UTF-8" standalone="no"?>
<!DOCTYPE svg PUBLIC "-//W3C//DTD SVG 1.1//EN"
 "http://www.w3.org/Graphics/SVG/1.1/DTD/svg11.dtd">
<!-- Generated by graphviz version 2.30.0 (20130114.0323)
 -->
<!-- Title: com.WacomGSS.STU.DeviceRemovedException Pages: 1 -->
<svg width="194pt" height="152pt"
 viewBox="0.00 0.00 194.00 152.00" xmlns="http://www.w3.org/2000/svg" xmlns:xlink="http://www.w3.org/1999/xlink">
<g id="graph0" class="graph" transform="scale(1 1) rotate(0) translate(4 148)">
<title>com.WacomGSS.STU.DeviceRemovedException</title>
<!-- Node1 -->
<g id="node1" class="node"><title>Node1</title>
<polygon fill="#bfbfbf" stroke="black" points="0,-1 0,-31 186,-31 186,-1 0,-1"/>
<text text-anchor="start" x="8" y="-19" font-family="Helvetica,sans-Serif" font-size="10.00">com.WacomGSS.STU.DeviceRemoved</text>
<text text-anchor="middle" x="93" y="-8" font-family="Helvetica,sans-Serif" font-size="10.00">Exception</text>
</g>
<!-- Node2 -->
<g id="node2" class="node"><title>Node2</title>
<g id="a_node2"><a xlink:href="classcom_1_1_wacom_g_s_s_1_1_s_t_u_1_1_s_t_u_exception.html" target="_top" xlink:title="Base class for STU&#45;specific exceptions.">
<polygon fill="none" stroke="black" points="3,-68.5 3,-87.5 183,-87.5 183,-68.5 3,-68.5"/>
<text text-anchor="middle" x="93" y="-75.5" font-family="Helvetica,sans-Serif" font-size="10.00">com.WacomGSS.STU.STUException</text>
</a>
</g>
</g>
<!-- Node2&#45;&gt;Node1 -->
<g id="edge1" class="edge"><title>Node2&#45;&gt;Node1</title>
<path fill="none" stroke="midnightblue" d="M93,-58.3707C93,-49.5849 93,-39.2721 93,-31.1408"/>
<polygon fill="midnightblue" stroke="midnightblue" points="89.5001,-58.4034 93,-68.4035 96.5001,-58.4035 89.5001,-58.4034"/>
</g>
<!-- Node3 -->
<g id="node3" class="node"><title>Node3</title>
<g id="a_node3"><a xlink:href="classcom_1_1_wacom_g_s_s_1_1_exception.html" target="_top" xlink:title="Base class for checked exceptions thrown by WacomGSS code.">
<polygon fill="none" stroke="black" points="23,-124.5 23,-143.5 163,-143.5 163,-124.5 23,-124.5"/>
<text text-anchor="middle" x="93" y="-131.5" font-family="Helvetica,sans-Serif" font-size="10.00">com.WacomGSS.Exception</text>
</a>
</g>
</g>
<!-- Node3&#45;&gt;Node2 -->
<g id="edge2" class="edge"><title>Node3&#45;&gt;Node2</title>
<path fill="none" stroke="midnightblue" d="M93,-113.805C93,-104.91 93,-94.7798 93,-87.7511"/>
<polygon fill="midnightblue" stroke="midnightblue" points="89.5001,-114.083 93,-124.083 96.5001,-114.083 89.5001,-114.083"/>
</g>
</g>
</svg>
