<?xml version="1.0" encoding="UTF-8" standalone="no"?>
<!DOCTYPE svg PUBLIC "-//W3C//DTD SVG 1.1//EN"
 "http://www.w3.org/Graphics/SVG/1.1/DTD/svg11.dtd">
<!-- Generated by graphviz version 2.30.0 (20130114.0323)
 -->
<!-- Title: com.WacomGSS.NativeObject Pages: 1 -->
<svg width="454pt" height="152pt"
 viewBox="0.00 0.00 454.00 152.00" xmlns="http://www.w3.org/2000/svg" xmlns:xlink="http://www.w3.org/1999/xlink">
<g id="graph0" class="graph" transform="scale(1 1) rotate(0) translate(4 148)">
<title>com.WacomGSS.NativeObject</title>
<!-- Node1 -->
<g id="node1" class="node"><title>Node1</title>
<polygon fill="#bfbfbf" stroke="black" points="94.5,-124.5 94.5,-143.5 245.5,-143.5 245.5,-124.5 94.5,-124.5"/>
<text text-anchor="middle" x="170" y="-131.5" font-family="Helvetica,sans-Serif" font-size="10.00">com.WacomGSS.NativeObject</text>
</g>
<!-- Node2 -->
<g id="node2" class="node"><title>Node2</title>
<g id="a_node2"><a xlink:href="classcom_1_1_wacom_g_s_s_1_1_s_t_u_1_1_interface_queue.html" target="_top" xlink:title="Provides a report queue bound to an Interface.">
<polygon fill="none" stroke="black" points="-0.5,-57 -0.5,-87 154.5,-87 154.5,-57 -0.5,-57"/>
<text text-anchor="start" x="7.5" y="-75" font-family="Helvetica,sans-Serif" font-size="10.00">com.WacomGSS.STU.Interface</text>
<text text-anchor="middle" x="77" y="-64" font-family="Helvetica,sans-Serif" font-size="10.00">Queue</text>
</a>
</g>
</g>
<!-- Node1&#45;&gt;Node2 -->
<g id="edge1" class="edge"><title>Node1&#45;&gt;Node2</title>
<path fill="none" stroke="midnightblue" d="M148.131,-118.891C133.297,-109.321 113.762,-96.7176 98.9183,-87.1408"/>
<polygon fill="midnightblue" stroke="midnightblue" points="146.375,-121.923 156.675,-124.403 150.17,-116.041 146.375,-121.923"/>
</g>
<!-- Node3 -->
<g id="node3" class="node"><title>Node3</title>
<g id="a_node3"><a xlink:href="classcom_1_1_wacom_g_s_s_1_1_s_t_u_1_1_native_interface.html" target="_top" xlink:title="Used internally to support JNI calls.">
<polygon fill="none" stroke="black" points="172.5,-62.5 172.5,-81.5 353.5,-81.5 353.5,-62.5 172.5,-62.5"/>
<text text-anchor="middle" x="263" y="-69.5" font-family="Helvetica,sans-Serif" font-size="10.00">com.WacomGSS.STU.NativeInterface</text>
</a>
</g>
</g>
<!-- Node1&#45;&gt;Node3 -->
<g id="edge2" class="edge"><title>Node1&#45;&gt;Node3</title>
<path fill="none" stroke="midnightblue" d="M191.993,-118.811C209.921,-107.244 234.656,-91.2867 249.7,-81.5806"/>
<polygon fill="midnightblue" stroke="midnightblue" points="189.83,-116.041 183.325,-124.403 193.625,-121.923 189.83,-116.041"/>
</g>
<!-- Node4 -->
<g id="node4" class="node"><title>Node4</title>
<g id="a_node4"><a xlink:href="classcom_1_1_wacom_g_s_s_1_1_s_t_u_1_1_serial_interface.html" target="_top" xlink:title="Implements Interface for communicating with an STU tablet over the serial bus.">
<polygon fill="none" stroke="black" points="76.5,-0.5 76.5,-19.5 255.5,-19.5 255.5,-0.5 76.5,-0.5"/>
<text text-anchor="middle" x="166" y="-7.5" font-family="Helvetica,sans-Serif" font-size="10.00">com.WacomGSS.STU.SerialInterface</text>
</a>
</g>
</g>
<!-- Node3&#45;&gt;Node4 -->
<g id="edge3" class="edge"><title>Node3&#45;&gt;Node4</title>
<path fill="none" stroke="midnightblue" d="M240.574,-57.1285C221.836,-45.5376 195.707,-29.3757 179.872,-19.5806"/>
<polygon fill="midnightblue" stroke="midnightblue" points="238.757,-60.1195 249.102,-62.4035 242.439,-54.1663 238.757,-60.1195"/>
</g>
<!-- Node5 -->
<g id="node5" class="node"><title>Node5</title>
<g id="a_node5"><a xlink:href="classcom_1_1_wacom_g_s_s_1_1_s_t_u_1_1_usb_interface.html" target="_top" xlink:title="Implements Interface for communicating with an STU tablet over the HID/USB bus.">
<polygon fill="none" stroke="black" points="274,-0.5 274,-19.5 446,-19.5 446,-0.5 274,-0.5"/>
<text text-anchor="middle" x="360" y="-7.5" font-family="Helvetica,sans-Serif" font-size="10.00">com.WacomGSS.STU.UsbInterface</text>
</a>
</g>
</g>
<!-- Node3&#45;&gt;Node5 -->
<g id="edge4" class="edge"><title>Node3&#45;&gt;Node5</title>
<path fill="none" stroke="midnightblue" d="M285.426,-57.1285C304.164,-45.5376 330.293,-29.3757 346.128,-19.5806"/>
<polygon fill="midnightblue" stroke="midnightblue" points="283.561,-54.1663 276.898,-62.4035 287.243,-60.1195 283.561,-54.1663"/>
</g>
</g>
</svg>
