<?xml version="1.0" encoding="UTF-8" standalone="no"?>
<!DOCTYPE svg PUBLIC "-//W3C//DTD SVG 1.1//EN"
 "http://www.w3.org/Graphics/SVG/1.1/DTD/svg11.dtd">
<!-- Generated by graphviz version 2.30.0 (20130114.0323)
 -->
<!-- Title: Graphical Class Hierarchy Pages: 1 -->
<svg width="372pt" height="87pt"
 viewBox="0.00 0.00 372.00 87.00" xmlns="http://www.w3.org/2000/svg" xmlns:xlink="http://www.w3.org/1999/xlink">
<g id="graph0" class="graph" transform="scale(1 1) rotate(0) translate(4 83)">
<title>Graphical Class Hierarchy</title>
<!-- Node1 -->
<g id="node1" class="node"><title>Node1</title>
<g id="a_node1"><a xlink:href="classcom_1_1_wacom_g_s_s_1_1_s_t_u_1_1_usb_device.html" target="_top" xlink:title="Represents a USB STU tablet device.">
<polygon fill="none" stroke="black" points="0,-29.5 0,-48.5 164,-48.5 164,-29.5 0,-29.5"/>
<text text-anchor="middle" x="82" y="-36.5" font-family="Helvetica,sans-Serif" font-size="10.00">com.WacomGSS.STU.UsbDevice</text>
</a>
</g>
</g>
<!-- Node2 -->
<g id="node2" class="node"><title>Node2</title>
<g id="a_node2"><a xlink:href="classcom_1_1_wacom_g_s_s_1_1_s_t_u_1_1_usb_device__libusb.html" target="_top" xlink:title="Specialisation of UsbDevice for Linux systems.">
<polygon fill="none" stroke="black" points="200,-49 200,-79 364,-79 364,-49 200,-49"/>
<text text-anchor="start" x="208" y="-67" font-family="Helvetica,sans-Serif" font-size="10.00">com.WacomGSS.STU.UsbDevice</text>
<text text-anchor="middle" x="282" y="-56" font-family="Helvetica,sans-Serif" font-size="10.00">_libusb</text>
</a>
</g>
</g>
<!-- Node1&#45;&gt;Node2 -->
<g id="edge1" class="edge"><title>Node1&#45;&gt;Node2</title>
<path fill="none" stroke="midnightblue" d="M168.361,-49.7779C178.811,-51.0974 189.468,-52.443 199.854,-53.7543"/>
<polygon fill="midnightblue" stroke="midnightblue" points="168.78,-46.3031 158.42,-48.5227 167.903,-53.2479 168.78,-46.3031"/>
</g>
<!-- Node3 -->
<g id="node3" class="node"><title>Node3</title>
<g id="a_node3"><a xlink:href="classcom_1_1_wacom_g_s_s_1_1_s_t_u_1_1_usb_device___win32.html" target="_top" xlink:title="Specialisation of UsbDevice for Windows systems.">
<polygon fill="none" stroke="black" points="200,-0 200,-30 364,-30 364,-0 200,-0"/>
<text text-anchor="start" x="208" y="-18" font-family="Helvetica,sans-Serif" font-size="10.00">com.WacomGSS.STU.UsbDevice</text>
<text text-anchor="middle" x="282" y="-7" font-family="Helvetica,sans-Serif" font-size="10.00">_Win32</text>
</a>
</g>
</g>
<!-- Node1&#45;&gt;Node3 -->
<g id="edge2" class="edge"><title>Node1&#45;&gt;Node3</title>
<path fill="none" stroke="midnightblue" d="M171.688,-28.25C181.101,-27.109 190.64,-25.9528 199.959,-24.8232"/>
<polygon fill="midnightblue" stroke="midnightblue" points="171.045,-24.8021 161.539,-29.4801 171.888,-31.7513 171.045,-24.8021"/>
</g>
</g>
</svg>
