<?xml version="1.0" encoding="UTF-8" standalone="no"?>
<!DOCTYPE svg PUBLIC "-//W3C//DTD SVG 1.1//EN"
 "http://www.w3.org/Graphics/SVG/1.1/DTD/svg11.dtd">
<!-- Generated by graphviz version 2.30.0 (20130114.0323)
 -->
<!-- Title: Graphical Class Hierarchy Pages: 1 -->
<svg width="180pt" height="28pt"
 viewBox="0.00 0.00 180.00 28.00" xmlns="http://www.w3.org/2000/svg" xmlns:xlink="http://www.w3.org/1999/xlink">
<g id="graph0" class="graph" transform="scale(1 1) rotate(0) translate(4 24)">
<title>Graphical Class Hierarchy</title>
<!-- Node1 -->
<g id="node1" class="node"><title>Node1</title>
<g id="a_node1"><a xlink:href="interfacewgss_s_t_u_1_1_i_usb_device.html" target="_top" xlink:title="Represents a USB STU tablet device.">
<polygon fill="none" stroke="black" points="0.5,-0.5 0.5,-19.5 65.5,-19.5 65.5,-0.5 0.5,-0.5"/>
<text text-anchor="middle" x="33" y="-7.5" font-family="Helvetica,sans-Serif" font-size="10.00">IUsbDevice</text>
</a>
</g>
</g>
<!-- Node2 -->
<g id="node2" class="node"><title>Node2</title>
<g id="a_node2"><a xlink:href="interfacewgss_s_t_u_1_1_i_usb_device2.html" target="_top" xlink:title="Represents a USB STU tablet device.">
<polygon fill="none" stroke="black" points="102,-0.5 102,-19.5 172,-19.5 172,-0.5 102,-0.5"/>
<text text-anchor="middle" x="137" y="-7.5" font-family="Helvetica,sans-Serif" font-size="10.00">IUsbDevice2</text>
</a>
</g>
</g>
<!-- Node1&#45;&gt;Node2 -->
<g id="edge1" class="edge"><title>Node1&#45;&gt;Node2</title>
<path fill="none" stroke="midnightblue" d="M75.9676,-10C84.5739,-10 93.5348,-10 101.827,-10"/>
<polygon fill="midnightblue" stroke="midnightblue" points="75.7143,-6.5001 65.7143,-10 75.7143,-13.5001 75.7143,-6.5001"/>
</g>
</g>
</svg>
