<?xml version="1.0" encoding="UTF-8" standalone="no"?>
<!DOCTYPE svg PUBLIC "-//W3C//DTD SVG 1.1//EN"
 "http://www.w3.org/Graphics/SVG/1.1/DTD/svg11.dtd">
<!-- Generated by graphviz version 2.30.0 (20130114.0323)
 -->
<!-- Title: IPenData Pages: 1 -->
<svg width="257pt" height="152pt"
 viewBox="0.00 0.00 257.00 152.00" xmlns="http://www.w3.org/2000/svg" xmlns:xlink="http://www.w3.org/1999/xlink">
<g id="graph0" class="graph" transform="scale(1 1) rotate(0) translate(4 148)">
<title>IPenData</title>
<!-- Node1 -->
<g id="node1" class="node"><title>Node1</title>
<polygon fill="#bfbfbf" stroke="black" points="81,-124.5 81,-143.5 137,-143.5 137,-124.5 81,-124.5"/>
<text text-anchor="middle" x="109" y="-131.5" font-family="Helvetica,sans-Serif" font-size="10.00">IPenData</text>
</g>
<!-- Node2 -->
<g id="node2" class="node"><title>Node2</title>
<g id="a_node2"><a xlink:href="interfacewgss_s_t_u_1_1_i_pen_data_option.html" target="_top" xlink:title="Holds data returned from the STU tablet in response to pen movement.">
<polygon fill="none" stroke="black" points="-0.5,-68.5 -0.5,-87.5 84.5,-87.5 84.5,-68.5 -0.5,-68.5"/>
<text text-anchor="middle" x="42" y="-75.5" font-family="Helvetica,sans-Serif" font-size="10.00">IPenDataOption</text>
</a>
</g>
</g>
<!-- Node1&#45;&gt;Node2 -->
<g id="edge1" class="edge"><title>Node1&#45;&gt;Node2</title>
<path fill="none" stroke="midnightblue" d="M90.1652,-117.82C78.1616,-108.145 63.0283,-95.9481 52.9606,-87.8339"/>
<polygon fill="midnightblue" stroke="midnightblue" points="88.253,-120.774 98.2353,-124.324 92.6457,-115.324 88.253,-120.774"/>
</g>
<!-- Node3 -->
<g id="node3" class="node"><title>Node3</title>
<g id="a_node3"><a xlink:href="interfacewgss_s_t_u_1_1_i_pen_data_time_count_sequence.html" target="_top" xlink:title="Holds data returned from the STU tablet in response to pen movement.">
<polygon fill="none" stroke="black" points="103,-68.5 103,-87.5 249,-87.5 249,-68.5 103,-68.5"/>
<text text-anchor="middle" x="176" y="-75.5" font-family="Helvetica,sans-Serif" font-size="10.00">IPenDataTimeCountSequence</text>
</a>
</g>
</g>
<!-- Node1&#45;&gt;Node3 -->
<g id="edge2" class="edge"><title>Node1&#45;&gt;Node3</title>
<path fill="none" stroke="midnightblue" d="M127.835,-117.82C139.838,-108.145 154.972,-95.9481 165.039,-87.8339"/>
<polygon fill="midnightblue" stroke="midnightblue" points="125.354,-115.324 119.765,-124.324 129.747,-120.774 125.354,-115.324"/>
</g>
<!-- Node4 -->
<g id="node4" class="node"><title>Node4</title>
<g id="a_node4"><a xlink:href="interfacewgss_s_t_u_1_1_i_pen_data_time_count_sequence_encrypted.html" target="_top" xlink:title="Holds data returned from the STU tablet in response to pen movement.">
<polygon fill="none" stroke="black" points="103,-1 103,-31 249,-31 249,-1 103,-1"/>
<text text-anchor="start" x="111" y="-19" font-family="Helvetica,sans-Serif" font-size="10.00">IPenDataTimeCountSequence</text>
<text text-anchor="middle" x="176" y="-8" font-family="Helvetica,sans-Serif" font-size="10.00">Encrypted</text>
</a>
</g>
</g>
<!-- Node3&#45;&gt;Node4 -->
<g id="edge3" class="edge"><title>Node3&#45;&gt;Node4</title>
<path fill="none" stroke="midnightblue" d="M176,-58.3707C176,-49.5849 176,-39.2721 176,-31.1408"/>
<polygon fill="midnightblue" stroke="midnightblue" points="172.5,-58.4034 176,-68.4035 179.5,-58.4035 172.5,-58.4034"/>
</g>
</g>
</svg>
